%!PS-Adobe-3.0 EPSF-3.0
%%Creator: (MATLAB, The Mathworks, Inc. Version 9.7.0.1190202 \(R2019b\). Operating System: Linux)
%%Title: /mnt/windows_drive_d/AmsterdamUniversity/Year_1/CV1/FinalProject/Part2/param_sweep/net-train-batch-100-epoch-80.eps
%%CreationDate: 2019-10-27T21:19:56
%%Pages: (atend)
%%BoundingBox: 0 0 1390 728
%%LanguageLevel: 3
%%EndComments
%%BeginProlog
%%BeginResource: procset (Apache XML Graphics Std ProcSet) 1.2 0
%%Version: 1.2 0
%%Copyright: (Copyright 2001-2003,2010 The Apache Software Foundation. License terms: http://www.apache.org/licenses/LICENSE-2.0)
/bd{bind def}bind def
/ld{load def}bd
/GR/grestore ld
/GS/gsave ld
/RM/rmoveto ld
/C/curveto ld
/t/show ld
/L/lineto ld
/ML/setmiterlimit ld
/CT/concat ld
/f/fill ld
/N/newpath ld
/S/stroke ld
/CC/setcmykcolor ld
/A/ashow ld
/cp/closepath ld
/RC/setrgbcolor ld
/LJ/setlinejoin ld
/GC/setgray ld
/LW/setlinewidth ld
/M/moveto ld
/re {4 2 roll M
1 index 0 rlineto
0 exch rlineto
neg 0 rlineto
cp } bd
/_ctm matrix def
/_tm matrix def
/BT { _ctm currentmatrix pop matrix _tm copy pop 0 0 moveto } bd
/ET { _ctm setmatrix } bd
/iTm { _ctm setmatrix _tm concat } bd
/Tm { _tm astore pop iTm 0 0 moveto } bd
/ux 0.0 def
/uy 0.0 def
/F {
  /Tp exch def
  /Tf exch def
  Tf findfont Tp scalefont setfont
  /cf Tf def  /cs Tp def
} bd
/ULS {currentpoint /uy exch def /ux exch def} bd
/ULE {
  /Tcx currentpoint pop def
  gsave
  newpath
  cf findfont cs scalefont dup
  /FontMatrix get 0 get /Ts exch def /FontInfo get dup
  /UnderlinePosition get Ts mul /To exch def
  /UnderlineThickness get Ts mul /Tt exch def
  ux uy To add moveto  Tcx uy To add lineto
  Tt setlinewidth stroke
  grestore
} bd
/OLE {
  /Tcx currentpoint pop def
  gsave
  newpath
  cf findfont cs scalefont dup
  /FontMatrix get 0 get /Ts exch def /FontInfo get dup
  /UnderlinePosition get Ts mul /To exch def
  /UnderlineThickness get Ts mul /Tt exch def
  ux uy To add cs add moveto Tcx uy To add cs add lineto
  Tt setlinewidth stroke
  grestore
} bd
/SOE {
  /Tcx currentpoint pop def
  gsave
  newpath
  cf findfont cs scalefont dup
  /FontMatrix get 0 get /Ts exch def /FontInfo get dup
  /UnderlinePosition get Ts mul /To exch def
  /UnderlineThickness get Ts mul /Tt exch def
  ux uy To add cs 10 mul 26 idiv add moveto Tcx uy To add cs 10 mul 26 idiv add lineto
  Tt setlinewidth stroke
  grestore
} bd
/QT {
/Y22 exch store
/X22 exch store
/Y21 exch store
/X21 exch store
currentpoint
/Y21 load 2 mul add 3 div exch
/X21 load 2 mul add 3 div exch
/X21 load 2 mul /X22 load add 3 div
/Y21 load 2 mul /Y22 load add 3 div
/X22 load /Y22 load curveto
} bd
/SSPD {
dup length /d exch dict def
{
/v exch def
/k exch def
currentpagedevice k known {
/cpdv currentpagedevice k get def
v cpdv ne {
/upd false def
/nullv v type /nulltype eq def
/nullcpdv cpdv type /nulltype eq def
nullv nullcpdv or
{
/upd true def
} {
/sametype v type cpdv type eq def
sametype {
v type /arraytype eq {
/vlen v length def
/cpdvlen cpdv length def
vlen cpdvlen eq {
0 1 vlen 1 sub {
/i exch def
/obj v i get def
/cpdobj cpdv i get def
obj cpdobj ne {
/upd true def
exit
} if
} for
} {
/upd true def
} ifelse
} {
v type /dicttype eq {
v {
/dv exch def
/dk exch def
/cpddv cpdv dk get def
dv cpddv ne {
/upd true def
exit
} if
} forall
} {
/upd true def
} ifelse
} ifelse
} if
} ifelse
upd true eq {
d k v put
} if
} if
} if
} forall
d length 0 gt {
d setpagedevice
} if
} bd
/RE { % /NewFontName [NewEncodingArray] /FontName RE -
  findfont dup length dict begin
  {
    1 index /FID ne
    {def} {pop pop} ifelse
  } forall
  /Encoding exch def
  /FontName 1 index def
  currentdict definefont pop
  end
} bind def
%%EndResource
%%BeginResource: procset (Apache XML Graphics EPS ProcSet) 1.0 0
%%Version: 1.0 0
%%Copyright: (Copyright 2002-2003 The Apache Software Foundation. License terms: http://www.apache.org/licenses/LICENSE-2.0)
/BeginEPSF { %def
/b4_Inc_state save def         % Save state for cleanup
/dict_count countdictstack def % Count objects on dict stack
/op_count count 1 sub def      % Count objects on operand stack
userdict begin                 % Push userdict on dict stack
/showpage { } def              % Redefine showpage, { } = null proc
0 setgray 0 setlinecap         % Prepare graphics state
1 setlinewidth 0 setlinejoin
10 setmiterlimit [ ] 0 setdash newpath
/languagelevel where           % If level not equal to 1 then
{pop languagelevel             % set strokeadjust and
1 ne                           % overprint to their defaults.
{false setstrokeadjust false setoverprint
} if
} if
} bd
/EndEPSF { %def
count op_count sub {pop} repeat            % Clean up stacks
countdictstack dict_count sub {end} repeat
b4_Inc_state restore
} bd
%%EndResource
%FOPBeginFontDict
%%IncludeResource: font Courier-Oblique
%%IncludeResource: font Courier-BoldOblique
%%IncludeResource: font Courier-Bold
%%IncludeResource: font ZapfDingbats
%%IncludeResource: font Symbol
%%IncludeResource: font Helvetica
%%IncludeResource: font Helvetica-Oblique
%%IncludeResource: font Helvetica-Bold
%%IncludeResource: font Helvetica-BoldOblique
%%IncludeResource: font Times-Roman
%%IncludeResource: font Times-Italic
%%IncludeResource: font Times-Bold
%%IncludeResource: font Times-BoldItalic
%%IncludeResource: font Courier
%FOPEndFontDict
%%BeginResource: encoding WinAnsiEncoding
/WinAnsiEncoding [
/.notdef /.notdef /.notdef /.notdef /.notdef
/.notdef /.notdef /.notdef /.notdef /.notdef
/.notdef /.notdef /.notdef /.notdef /.notdef
/.notdef /.notdef /.notdef /.notdef /.notdef
/.notdef /.notdef /.notdef /.notdef /.notdef
/.notdef /.notdef /.notdef /.notdef /.notdef
/.notdef /.notdef /space /exclam /quotedbl
/numbersign /dollar /percent /ampersand /quotesingle
/parenleft /parenright /asterisk /plus /comma
/hyphen /period /slash /zero /one
/two /three /four /five /six
/seven /eight /nine /colon /semicolon
/less /equal /greater /question /at
/A /B /C /D /E
/F /G /H /I /J
/K /L /M /N /O
/P /Q /R /S /T
/U /V /W /X /Y
/Z /bracketleft /backslash /bracketright /asciicircum
/underscore /quoteleft /a /b /c
/d /e /f /g /h
/i /j /k /l /m
/n /o /p /q /r
/s /t /u /v /w
/x /y /z /braceleft /bar
/braceright /asciitilde /bullet /Euro /bullet
/quotesinglbase /florin /quotedblbase /ellipsis /dagger
/daggerdbl /circumflex /perthousand /Scaron /guilsinglleft
/OE /bullet /Zcaron /bullet /bullet
/quoteleft /quoteright /quotedblleft /quotedblright /bullet
/endash /emdash /asciitilde /trademark /scaron
/guilsinglright /oe /bullet /zcaron /Ydieresis
/space /exclamdown /cent /sterling /currency
/yen /brokenbar /section /dieresis /copyright
/ordfeminine /guillemotleft /logicalnot /sfthyphen /registered
/macron /degree /plusminus /twosuperior /threesuperior
/acute /mu /paragraph /middot /cedilla
/onesuperior /ordmasculine /guillemotright /onequarter /onehalf
/threequarters /questiondown /Agrave /Aacute /Acircumflex
/Atilde /Adieresis /Aring /AE /Ccedilla
/Egrave /Eacute /Ecircumflex /Edieresis /Igrave
/Iacute /Icircumflex /Idieresis /Eth /Ntilde
/Ograve /Oacute /Ocircumflex /Otilde /Odieresis
/multiply /Oslash /Ugrave /Uacute /Ucircumflex
/Udieresis /Yacute /Thorn /germandbls /agrave
/aacute /acircumflex /atilde /adieresis /aring
/ae /ccedilla /egrave /eacute /ecircumflex
/edieresis /igrave /iacute /icircumflex /idieresis
/eth /ntilde /ograve /oacute /ocircumflex
/otilde /odieresis /divide /oslash /ugrave
/uacute /ucircumflex /udieresis /yacute /thorn
/ydieresis
] def
%%EndResource
%FOPBeginFontReencode
/Courier-Oblique findfont
dup length dict begin
  {1 index /FID ne {def} {pop pop} ifelse} forall
  /Encoding WinAnsiEncoding def
  currentdict
end
/Courier-Oblique exch definefont pop
/Courier-BoldOblique findfont
dup length dict begin
  {1 index /FID ne {def} {pop pop} ifelse} forall
  /Encoding WinAnsiEncoding def
  currentdict
end
/Courier-BoldOblique exch definefont pop
/Courier-Bold findfont
dup length dict begin
  {1 index /FID ne {def} {pop pop} ifelse} forall
  /Encoding WinAnsiEncoding def
  currentdict
end
/Courier-Bold exch definefont pop
/Helvetica findfont
dup length dict begin
  {1 index /FID ne {def} {pop pop} ifelse} forall
  /Encoding WinAnsiEncoding def
  currentdict
end
/Helvetica exch definefont pop
/Helvetica-Oblique findfont
dup length dict begin
  {1 index /FID ne {def} {pop pop} ifelse} forall
  /Encoding WinAnsiEncoding def
  currentdict
end
/Helvetica-Oblique exch definefont pop
/Helvetica-Bold findfont
dup length dict begin
  {1 index /FID ne {def} {pop pop} ifelse} forall
  /Encoding WinAnsiEncoding def
  currentdict
end
/Helvetica-Bold exch definefont pop
/Helvetica-BoldOblique findfont
dup length dict begin
  {1 index /FID ne {def} {pop pop} ifelse} forall
  /Encoding WinAnsiEncoding def
  currentdict
end
/Helvetica-BoldOblique exch definefont pop
/Times-Roman findfont
dup length dict begin
  {1 index /FID ne {def} {pop pop} ifelse} forall
  /Encoding WinAnsiEncoding def
  currentdict
end
/Times-Roman exch definefont pop
/Times-Italic findfont
dup length dict begin
  {1 index /FID ne {def} {pop pop} ifelse} forall
  /Encoding WinAnsiEncoding def
  currentdict
end
/Times-Italic exch definefont pop
/Times-Bold findfont
dup length dict begin
  {1 index /FID ne {def} {pop pop} ifelse} forall
  /Encoding WinAnsiEncoding def
  currentdict
end
/Times-Bold exch definefont pop
/Times-BoldItalic findfont
dup length dict begin
  {1 index /FID ne {def} {pop pop} ifelse} forall
  /Encoding WinAnsiEncoding def
  currentdict
end
/Times-BoldItalic exch definefont pop
/Courier findfont
dup length dict begin
  {1 index /FID ne {def} {pop pop} ifelse} forall
  /Encoding WinAnsiEncoding def
  currentdict
end
/Courier exch definefont pop
%FOPEndFontReencode
%%EndProlog
%%Page: 1 1
%%PageBoundingBox: 0 0 1390 728
%%BeginPageSetup
[1 0 0 -1 0 728] CT
%%EndPageSetup
GS
[0.75 0 0 0.75 0 0.5] CT
1 GC
N
0 0 1853 970 re
f
GR
GS
[0.75 0 0 0.75 0 0.5] CT
1 GC
N
0 0 1853 970 re
f
GR
GS
[0.75 0 0 0.75 0 0.5] CT
1 GC
N
241 863 M
636 863 L
636 73 L
241 73 L
cp
f
GR
GS
[0.75 0 0 0.75 0 0.5] CT
0.873 GC
1 LJ
0.667 LW
N
241 863 M
241 73 L
S
GR
GS
[0.75 0 0 0.75 0 0.5] CT
0.873 GC
1 LJ
0.667 LW
N
290.375 863 M
290.375 73 L
S
GR
GS
[0.75 0 0 0.75 0 0.5] CT
0.873 GC
1 LJ
0.667 LW
N
339.75 863 M
339.75 73 L
S
GR
GS
[0.75 0 0 0.75 0 0.5] CT
0.873 GC
1 LJ
0.667 LW
N
389.125 863 M
389.125 73 L
S
GR
GS
[0.75 0 0 0.75 0 0.5] CT
0.873 GC
1 LJ
0.667 LW
N
438.5 863 M
438.5 73 L
S
GR
GS
[0.75 0 0 0.75 0 0.5] CT
0.873 GC
1 LJ
0.667 LW
N
487.875 863 M
487.875 73 L
S
GR
GS
[0.75 0 0 0.75 0 0.5] CT
0.873 GC
1 LJ
0.667 LW
N
537.25 863 M
537.25 73 L
S
GR
GS
[0.75 0 0 0.75 0 0.5] CT
0.873 GC
1 LJ
0.667 LW
N
586.625 863 M
586.625 73 L
S
GR
GS
[0.75 0 0 0.75 0 0.5] CT
0.873 GC
1 LJ
0.667 LW
N
636 863 M
636 73 L
S
GR
GS
[0.75 0 0 0.75 0 0.5] CT
0.873 GC
1 LJ
0.667 LW
N
636 863 M
241 863 L
S
GR
GS
[0.75 0 0 0.75 0 0.5] CT
0.873 GC
1 LJ
0.667 LW
N
636 731.333 M
241 731.333 L
S
GR
GS
[0.75 0 0 0.75 0 0.5] CT
0.873 GC
1 LJ
0.667 LW
N
636 599.667 M
241 599.667 L
S
GR
GS
[0.75 0 0 0.75 0 0.5] CT
0.873 GC
1 LJ
0.667 LW
N
636 468 M
241 468 L
S
GR
GS
[0.75 0 0 0.75 0 0.5] CT
0.873 GC
1 LJ
0.667 LW
N
636 336.333 M
241 336.333 L
S
GR
GS
[0.75 0 0 0.75 0 0.5] CT
0.873 GC
1 LJ
0.667 LW
N
636 204.667 M
241 204.667 L
S
GR
GS
[0.75 0 0 0.75 0 0.5] CT
0.873 GC
1 LJ
0.667 LW
N
636 73 M
241 73 L
S
GR
GS
[0.75 0 0 0.75 0 0.5] CT
0.149 GC
2 setlinecap
1 LJ
0.667 LW
N
241 863 M
636 863 L
S
GR
GS
[0.75 0 0 0.75 0 0.5] CT
0.149 GC
2 setlinecap
1 LJ
0.667 LW
N
241 73 M
636 73 L
S
GR
GS
[0.75 0 0 0.75 0 0.5] CT
0.149 GC
2 setlinecap
1 LJ
0.667 LW
N
241 863 M
241 855.1 L
S
GR
GS
[0.75 0 0 0.75 0 0.5] CT
0.149 GC
2 setlinecap
1 LJ
0.667 LW
N
290.375 863 M
290.375 855.1 L
S
GR
GS
[0.75 0 0 0.75 0 0.5] CT
0.149 GC
2 setlinecap
1 LJ
0.667 LW
N
339.75 863 M
339.75 855.1 L
S
GR
GS
[0.75 0 0 0.75 0 0.5] CT
0.149 GC
2 setlinecap
1 LJ
0.667 LW
N
389.125 863 M
389.125 855.1 L
S
GR
GS
[0.75 0 0 0.75 0 0.5] CT
0.149 GC
2 setlinecap
1 LJ
0.667 LW
N
438.5 863 M
438.5 855.1 L
S
GR
GS
[0.75 0 0 0.75 0 0.5] CT
0.149 GC
2 setlinecap
1 LJ
0.667 LW
N
487.875 863 M
487.875 855.1 L
S
GR
GS
[0.75 0 0 0.75 0 0.5] CT
0.149 GC
2 setlinecap
1 LJ
0.667 LW
N
537.25 863 M
537.25 855.1 L
S
GR
GS
[0.75 0 0 0.75 0 0.5] CT
0.149 GC
2 setlinecap
1 LJ
0.667 LW
N
586.625 863 M
586.625 855.1 L
S
GR
GS
[0.75 0 0 0.75 0 0.5] CT
0.149 GC
2 setlinecap
1 LJ
0.667 LW
N
636 863 M
636 855.1 L
S
GR
GS
[0.75 0 0 0.75 0 0.5] CT
0.149 GC
2 setlinecap
1 LJ
0.667 LW
N
241 73 M
241 80.9 L
S
GR
GS
[0.75 0 0 0.75 0 0.5] CT
0.149 GC
2 setlinecap
1 LJ
0.667 LW
N
290.375 73 M
290.375 80.9 L
S
GR
GS
[0.75 0 0 0.75 0 0.5] CT
0.149 GC
2 setlinecap
1 LJ
0.667 LW
N
339.75 73 M
339.75 80.9 L
S
GR
GS
[0.75 0 0 0.75 0 0.5] CT
0.149 GC
2 setlinecap
1 LJ
0.667 LW
N
389.125 73 M
389.125 80.9 L
S
GR
GS
[0.75 0 0 0.75 0 0.5] CT
0.149 GC
2 setlinecap
1 LJ
0.667 LW
N
438.5 73 M
438.5 80.9 L
S
GR
GS
[0.75 0 0 0.75 0 0.5] CT
0.149 GC
2 setlinecap
1 LJ
0.667 LW
N
487.875 73 M
487.875 80.9 L
S
GR
GS
[0.75 0 0 0.75 0 0.5] CT
0.149 GC
2 setlinecap
1 LJ
0.667 LW
N
537.25 73 M
537.25 80.9 L
S
GR
GS
[0.75 0 0 0.75 0 0.5] CT
0.149 GC
2 setlinecap
1 LJ
0.667 LW
N
586.625 73 M
586.625 80.9 L
S
GR
GS
[0.75 0 0 0.75 0 0.5] CT
0.149 GC
2 setlinecap
1 LJ
0.667 LW
N
636 73 M
636 80.9 L
S
GR
GS
[0.75 0 0 0.75 180.75 651.74994] CT
0.149 GC
/Helvetica 13.333 F
GS
[1 0 0 1 0 0] CT
-4.5 13 moveto 
1 -1 scale
(0) t 
GR
GR
GS
[0.75 0 0 0.75 217.78125 651.74994] CT
0.149 GC
/Helvetica 13.333 F
GS
[1 0 0 1 0 0] CT
-8.5 13 moveto 
1 -1 scale
(10) t 
GR
GR
GS
[0.75 0 0 0.75 254.8125 651.74994] CT
0.149 GC
/Helvetica 13.333 F
GS
[1 0 0 1 0 0] CT
-8.5 13 moveto 
1 -1 scale
(20) t 
GR
GR
GS
[0.75 0 0 0.75 291.84375 651.74994] CT
0.149 GC
/Helvetica 13.333 F
GS
[1 0 0 1 0 0] CT
-8.5 13 moveto 
1 -1 scale
(30) t 
GR
GR
GS
[0.75 0 0 0.75 328.875 651.74994] CT
0.149 GC
/Helvetica 13.333 F
GS
[1 0 0 1 0 0] CT
-8.5 13 moveto 
1 -1 scale
(40) t 
GR
GR
GS
[0.75 0 0 0.75 365.90625 651.74994] CT
0.149 GC
/Helvetica 13.333 F
GS
[1 0 0 1 0 0] CT
-8.5 13 moveto 
1 -1 scale
(50) t 
GR
GR
GS
[0.75 0 0 0.75 402.9375 651.74994] CT
0.149 GC
/Helvetica 13.333 F
GS
[1 0 0 1 0 0] CT
-8.5 13 moveto 
1 -1 scale
(60) t 
GR
GR
GS
[0.75 0 0 0.75 439.96875 651.74994] CT
0.149 GC
/Helvetica 13.333 F
GS
[1 0 0 1 0 0] CT
-8.5 13 moveto 
1 -1 scale
(70) t 
GR
GR
GS
[0.75 0 0 0.75 477 651.74994] CT
0.149 GC
/Helvetica 13.333 F
GS
[1 0 0 1 0 0] CT
-8.5 13 moveto 
1 -1 scale
(80) t 
GR
GR
GS
[0.75 0 0 0.75 328.87514 665.50002] CT
0.149 GC
/Helvetica 14.667 F
GS
[1 0 0 1 0 0] CT
-22.5 14 moveto 
1 -1 scale
(epoch) t 
GR
GR
GS
[0.75 0 0 0.75 0 0.5] CT
0.149 GC
2 setlinecap
1 LJ
0.667 LW
N
241 863 M
241 73 L
S
GR
GS
[0.75 0 0 0.75 0 0.5] CT
0.149 GC
2 setlinecap
1 LJ
0.667 LW
N
636 863 M
636 73 L
S
GR
GS
[0.75 0 0 0.75 0 0.5] CT
0.149 GC
2 setlinecap
1 LJ
0.667 LW
N
241 863 M
248.9 863 L
S
GR
GS
[0.75 0 0 0.75 0 0.5] CT
0.149 GC
2 setlinecap
1 LJ
0.667 LW
N
241 731.333 M
248.9 731.333 L
S
GR
GS
[0.75 0 0 0.75 0 0.5] CT
0.149 GC
2 setlinecap
1 LJ
0.667 LW
N
241 599.667 M
248.9 599.667 L
S
GR
GS
[0.75 0 0 0.75 0 0.5] CT
0.149 GC
2 setlinecap
1 LJ
0.667 LW
N
241 468 M
248.9 468 L
S
GR
GS
[0.75 0 0 0.75 0 0.5] CT
0.149 GC
2 setlinecap
1 LJ
0.667 LW
N
241 336.333 M
248.9 336.333 L
S
GR
GS
[0.75 0 0 0.75 0 0.5] CT
0.149 GC
2 setlinecap
1 LJ
0.667 LW
N
241 204.667 M
248.9 204.667 L
S
GR
GS
[0.75 0 0 0.75 0 0.5] CT
0.149 GC
2 setlinecap
1 LJ
0.667 LW
N
241 73 M
248.9 73 L
S
GR
GS
[0.75 0 0 0.75 0 0.5] CT
0.149 GC
2 setlinecap
1 LJ
0.667 LW
N
636 863 M
628.1 863 L
S
GR
GS
[0.75 0 0 0.75 0 0.5] CT
0.149 GC
2 setlinecap
1 LJ
0.667 LW
N
636 731.333 M
628.1 731.333 L
S
GR
GS
[0.75 0 0 0.75 0 0.5] CT
0.149 GC
2 setlinecap
1 LJ
0.667 LW
N
636 599.667 M
628.1 599.667 L
S
GR
GS
[0.75 0 0 0.75 0 0.5] CT
0.149 GC
2 setlinecap
1 LJ
0.667 LW
N
636 468 M
628.1 468 L
S
GR
GS
[0.75 0 0 0.75 0 0.5] CT
0.149 GC
2 setlinecap
1 LJ
0.667 LW
N
636 336.333 M
628.1 336.333 L
S
GR
GS
[0.75 0 0 0.75 0 0.5] CT
0.149 GC
2 setlinecap
1 LJ
0.667 LW
N
636 204.667 M
628.1 204.667 L
S
GR
GS
[0.75 0 0 0.75 0 0.5] CT
0.149 GC
2 setlinecap
1 LJ
0.667 LW
N
636 73 M
628.1 73 L
S
GR
GS
[0.75 0 0 0.75 176.75 647.74995] CT
0.149 GC
/Helvetica 13.333 F
GS
[1 0 0 1 0 0] CT
-22 4.5 moveto 
1 -1 scale
(1.1) t 
GR
GR
GS
[0.75 0 0 0.75 176.75 548.99994] CT
0.149 GC
/Helvetica 13.333 F
GS
[1 0 0 1 0 0] CT
-22 4.5 moveto 
1 -1 scale
(1.2) t 
GR
GR
GS
[0.75 0 0 0.75 176.75 450.25006] CT
0.149 GC
/Helvetica 13.333 F
GS
[1 0 0 1 0 0] CT
-22 4.5 moveto 
1 -1 scale
(1.3) t 
GR
GR
GS
[0.75 0 0 0.75 176.75 351.50002] CT
0.149 GC
/Helvetica 13.333 F
GS
[1 0 0 1 0 0] CT
-22 4.5 moveto 
1 -1 scale
(1.4) t 
GR
GR
GS
[0.75 0 0 0.75 176.75 252.75001] CT
0.149 GC
/Helvetica 13.333 F
GS
[1 0 0 1 0 0] CT
-22 4.5 moveto 
1 -1 scale
(1.5) t 
GR
GR
GS
[0.75 0 0 0.75 176.75 153.99998] CT
0.149 GC
/Helvetica 13.333 F
GS
[1 0 0 1 0 0] CT
-22 4.5 moveto 
1 -1 scale
(1.6) t 
GR
GR
GS
[0.75 0 0 0.75 176.75 55.24995] CT
0.149 GC
/Helvetica 13.333 F
GS
[1 0 0 1 0 0] CT
-22 4.5 moveto 
1 -1 scale
(1.7) t 
GR
GR
GS
[0.75 0 0 0.75 328.87532 53.1874] CT
/Helvetica-Bold 14.667 F
GS
[1 0 0 1 0 0] CT
-38 -4 moveto 
1 -1 scale
(objective) t 
GR
GR
GS
[0.75 0 0 0.75 0 0.5] CT
0 0.447 0.741 RC
1 LJ
0.667 LW
N
245.938 135.022 M
250.875 209.031 L
255.813 263.726 L
260.75 305.489 L
265.688 344.455 L
270.625 385.376 L
275.563 413.89 L
280.5 443.772 L
285.438 470.38 L
290.375 501.644 L
295.313 526.731 L
300.25 548.715 L
305.188 568.867 L
310.125 589.708 L
315.063 609.318 L
320 626.054 L
324.938 652.082 L
329.875 661.266 L
334.813 679.834 L
339.75 685.505 L
344.688 698.533 L
349.625 700.3 L
354.563 696.774 L
359.5 698.543 L
364.438 703.061 L
369.375 701.507 L
374.313 703.255 L
379.25 707.025 L
384.188 703.232 L
389.125 709.426 L
394.063 709.776 L
399 709.393 L
403.938 709.01 L
408.875 714.454 L
413.813 713.763 L
418.75 713.882 L
423.688 714.466 L
428.625 718.383 L
433.563 720.81 L
438.5 723.636 L
443.438 720.656 L
448.375 717.518 L
453.313 725.379 L
458.25 719.276 L
463.188 723.593 L
468.125 722.75 L
473.063 719.629 L
478 724.62 L
482.938 726.518 L
487.875 722.394 L
492.813 722.82 L
497.75 718.19 L
502.688 726.248 L
507.625 722.027 L
512.563 725.191 L
517.5 728.23 L
522.438 720.669 L
527.375 726.992 L
532.313 723.164 L
537.25 726.54 L
542.188 720.668 L
547.125 729.751 L
552.063 719.577 L
557 721.382 L
561.938 728.322 L
566.875 725.484 L
571.813 725.662 L
576.75 722.12 L
581.688 720.518 L
586.625 727.812 L
591.563 726.913 L
596.5 726.464 L
601.438 728.695 L
606.375 721.23 L
611.313 728.667 L
616.25 720.955 L
621.188 731.177 L
626.125 726.933 L
631.063 727.251 L
636 731.977 L
S
GR
GS
[0.75 0 0 0.75 184.45313 101.76645] CT
0 0.447 0.741 RC
N
0 -3.667 M
2.025 -3.667 3.667 -2.025 3.667 0 C
3.667 0 L
3.667 2.025 2.025 3.667 0 3.667 C
-2.025 3.667 -3.667 2.025 -3.667 0 C
-3.667 -2.025 -2.025 -3.667 0 -3.667 C
cp
0 -4.333 M
-2.393 -4.333 -4.333 -2.393 -4.333 0 C
-4.333 2.393 -2.393 4.333 0 4.333 C
2.393 4.333 4.333 2.393 4.333 0 C
4.333 0 L
4.333 -2.393 2.393 -4.333 0 -4.333 C
cp
f
GR
GS
[0.75 0 0 0.75 188.15625 157.27328] CT
0 0.447 0.741 RC
N
/f-862814258{0 -3.667 M
2.025 -3.667 3.667 -2.025 3.667 0 C
3.667 0 L
3.667 2.025 2.025 3.667 0 3.667 C
-2.025 3.667 -3.667 2.025 -3.667 0 C
-3.667 -2.025 -2.025 -3.667 0 -3.667 C
cp
0 -4.333 M
-2.393 -4.333 -4.333 -2.393 -4.333 0 C
-4.333 2.393 -2.393 4.333 0 4.333 C
2.393 4.333 4.333 2.393 4.333 0 C
4.333 0 L
4.333 -2.393 2.393 -4.333 0 -4.333 C
cp}def
f-862814258
f
GR
GS
[0.75 0 0 0.75 191.85938 198.29476] CT
0 0.447 0.741 RC
N
f-862814258
f
GR
GS
[0.75 0 0 0.75 195.5625 229.6169] CT
0 0.447 0.741 RC
N
f-862814258
f
GR
GS
[0.75 0 0 0.75 199.26563 258.84161] CT
0 0.447 0.741 RC
N
f-862814258
f
GR
GS
[0.75 0 0 0.75 202.96875 289.53182] CT
0 0.447 0.741 RC
N
f-862814258
f
GR
GS
[0.75 0 0 0.75 206.67188 310.91774] CT
0 0.447 0.741 RC
N
f-862814258
f
GR
GS
[0.75 0 0 0.75 210.375 333.32866] CT
0 0.447 0.741 RC
N
f-862814258
f
GR
GS
[0.75 0 0 0.75 214.07813 353.28489] CT
0 0.447 0.741 RC
N
f-862814258
f
GR
GS
[0.75 0 0 0.75 217.78125 376.73267] CT
0 0.447 0.741 RC
N
f-862814258
f
GR
GS
[0.75 0 0 0.75 221.48438 395.54854] CT
0 0.447 0.741 RC
N
f-862814258
f
GR
GS
[0.75 0 0 0.75 225.1875 412.03627] CT
0 0.447 0.741 RC
N
f-862814258
f
GR
GS
[0.75 0 0 0.75 228.89063 427.15034] CT
0 0.447 0.741 RC
N
f-862814258
f
GR
GS
[0.75 0 0 0.75 232.59375 442.78123] CT
0 0.447 0.741 RC
N
f-862814258
f
GR
GS
[0.75 0 0 0.75 236.29688 457.48882] CT
0 0.447 0.741 RC
N
f-862814258
f
GR
GS
[0.75 0 0 0.75 240 470.04065] CT
0 0.447 0.741 RC
N
f-862814258
f
GR
GS
[0.75 0 0 0.75 243.70313 489.56143] CT
0 0.447 0.741 RC
N
f-862814258
f
GR
GS
[0.75 0 0 0.75 247.40625 496.44986] CT
0 0.447 0.741 RC
N
f-862814258
f
GR
GS
[0.75 0 0 0.75 251.10938 510.37549] CT
0 0.447 0.741 RC
N
f-862814258
f
GR
GS
[0.75 0 0 0.75 254.8125 514.62903] CT
0 0.447 0.741 RC
N
f-862814258
f
GR
GS
[0.75 0 0 0.75 258.51563 524.39972] CT
0 0.447 0.741 RC
N
f-862814258
f
GR
GS
[0.75 0 0 0.75 262.21875 525.72476] CT
0 0.447 0.741 RC
N
f-862814258
f
GR
GS
[0.75 0 0 0.75 265.92188 523.08044] CT
0 0.447 0.741 RC
N
f-862814258
f
GR
GS
[0.75 0 0 0.75 269.625 524.40736] CT
0 0.447 0.741 RC
N
f-862814258
f
GR
GS
[0.75 0 0 0.75 273.32813 527.79601] CT
0 0.447 0.741 RC
N
f-862814258
f
GR
GS
[0.75 0 0 0.75 277.03125 526.63049] CT
0 0.447 0.741 RC
N
f-862814258
f
GR
GS
[0.75 0 0 0.75 280.73438 527.94093] CT
0 0.447 0.741 RC
N
f-862814258
f
GR
GS
[0.75 0 0 0.75 284.4375 530.76868] CT
0 0.447 0.741 RC
N
f-862814258
f
GR
GS
[0.75 0 0 0.75 288.14063 527.92409] CT
0 0.447 0.741 RC
N
f-862814258
f
GR
GS
[0.75 0 0 0.75 291.84375 532.56929] CT
0 0.447 0.741 RC
N
f-862814258
f
GR
GS
[0.75 0 0 0.75 295.54688 532.83218] CT
0 0.447 0.741 RC
N
f-862814258
f
GR
GS
[0.75 0 0 0.75 299.25 532.54503] CT
0 0.447 0.741 RC
N
f-862814258
f
GR
GS
[0.75 0 0 0.75 302.95313 532.25723] CT
0 0.447 0.741 RC
N
f-862814258
f
GR
GS
[0.75 0 0 0.75 306.65625 536.34044] CT
0 0.447 0.741 RC
N
f-862814258
f
GR
GS
[0.75 0 0 0.75 310.35938 535.82225] CT
0 0.447 0.741 RC
N
f-862814258
f
GR
GS
[0.75 0 0 0.75 314.0625 535.91147] CT
0 0.447 0.741 RC
N
f-862814258
f
GR
GS
[0.75 0 0 0.75 317.76563 536.34927] CT
0 0.447 0.741 RC
N
f-862814258
f
GR
GS
[0.75 0 0 0.75 321.46875 539.28752] CT
0 0.447 0.741 RC
N
f-862814258
f
GR
GS
[0.75 0 0 0.75 325.17188 541.10773] CT
0 0.447 0.741 RC
N
f-862814258
f
GR
GS
[0.75 0 0 0.75 328.875 543.22699] CT
0 0.447 0.741 RC
N
f-862814258
f
GR
GS
[0.75 0 0 0.75 332.57813 540.9921] CT
0 0.447 0.741 RC
N
f-862814258
f
GR
GS
[0.75 0 0 0.75 336.28125 538.63878] CT
0 0.447 0.741 RC
N
f-862814258
f
GR
GS
[0.75 0 0 0.75 339.98438 544.53404] CT
0 0.447 0.741 RC
N
f-862814258
f
GR
GS
[0.75 0 0 0.75 343.6875 539.95686] CT
0 0.447 0.741 RC
N
f-862814258
f
GR
GS
[0.75 0 0 0.75 347.39063 543.19463] CT
0 0.447 0.741 RC
N
f-862814258
f
GR
GS
[0.75 0 0 0.75 351.09375 542.56259] CT
0 0.447 0.741 RC
N
f-862814258
f
GR
GS
[0.75 0 0 0.75 354.79688 540.22141] CT
0 0.447 0.741 RC
N
f-862814258
f
GR
GS
[0.75 0 0 0.75 358.5 543.96477] CT
0 0.447 0.741 RC
N
f-862814258
f
GR
GS
[0.75 0 0 0.75 362.20313 545.38869] CT
0 0.447 0.741 RC
N
f-862814258
f
GR
GS
[0.75 0 0 0.75 365.90625 542.29549] CT
0 0.447 0.741 RC
N
f-862814258
f
GR
GS
[0.75 0 0 0.75 369.60938 542.6151] CT
0 0.447 0.741 RC
N
f-862814258
f
GR
GS
[0.75 0 0 0.75 373.3125 539.14273] CT
0 0.447 0.741 RC
N
f-862814258
f
GR
GS
[0.75 0 0 0.75 377.01563 545.18585] CT
0 0.447 0.741 RC
N
f-862814258
f
GR
GS
[0.75 0 0 0.75 380.71875 542.02014] CT
0 0.447 0.741 RC
N
f-862814258
f
GR
GS
[0.75 0 0 0.75 384.42188 544.39323] CT
0 0.447 0.741 RC
N
f-862814258
f
GR
GS
[0.75 0 0 0.75 388.125 546.67253] CT
0 0.447 0.741 RC
N
f-862814258
f
GR
GS
[0.75 0 0 0.75 391.82813 541.00139] CT
0 0.447 0.741 RC
N
f-862814258
f
GR
GS
[0.75 0 0 0.75 395.53125 545.74382] CT
0 0.447 0.741 RC
N
f-862814258
f
GR
GS
[0.75 0 0 0.75 399.23438 542.87314] CT
0 0.447 0.741 RC
N
f-862814258
f
GR
GS
[0.75 0 0 0.75 402.9375 545.40494] CT
0 0.447 0.741 RC
N
f-862814258
f
GR
GS
[0.75 0 0 0.75 406.64063 541.0013] CT
0 0.447 0.741 RC
N
f-862814258
f
GR
GS
[0.75 0 0 0.75 410.34375 547.8131] CT
0 0.447 0.741 RC
N
f-862814258
f
GR
GS
[0.75 0 0 0.75 414.04688 540.18254] CT
0 0.447 0.741 RC
N
f-862814258
f
GR
GS
[0.75 0 0 0.75 417.75 541.53619] CT
0 0.447 0.741 RC
N
f-862814258
f
GR
GS
[0.75 0 0 0.75 421.45313 546.74138] CT
0 0.447 0.741 RC
N
f-862814258
f
GR
GS
[0.75 0 0 0.75 425.15625 544.61337] CT
0 0.447 0.741 RC
N
f-862814258
f
GR
GS
[0.75 0 0 0.75 428.85938 544.74663] CT
0 0.447 0.741 RC
N
f-862814258
f
GR
GS
[0.75 0 0 0.75 432.5625 542.08986] CT
0 0.447 0.741 RC
N
f-862814258
f
GR
GS
[0.75 0 0 0.75 436.26563 540.8885] CT
0 0.447 0.741 RC
N
f-862814258
f
GR
GS
[0.75 0 0 0.75 439.96875 546.35883] CT
0 0.447 0.741 RC
N
f-862814258
f
GR
GS
[0.75 0 0 0.75 443.67188 545.68472] CT
0 0.447 0.741 RC
N
f-862814258
f
GR
GS
[0.75 0 0 0.75 447.375 545.34772] CT
0 0.447 0.741 RC
N
f-862814258
f
GR
GS
[0.75 0 0 0.75 451.07813 547.02098] CT
0 0.447 0.741 RC
N
f-862814258
f
GR
GS
[0.75 0 0 0.75 454.78125 541.42226] CT
0 0.447 0.741 RC
N
f-862814258
f
GR
GS
[0.75 0 0 0.75 458.48438 547.00047] CT
0 0.447 0.741 RC
N
f-862814258
f
GR
GS
[0.75 0 0 0.75 462.1875 541.21613] CT
0 0.447 0.741 RC
N
f-862814258
f
GR
GS
[0.75 0 0 0.75 465.89063 548.88257] CT
0 0.447 0.741 RC
N
f-862814258
f
GR
GS
[0.75 0 0 0.75 469.59375 545.69992] CT
0 0.447 0.741 RC
N
f-862814258
f
GR
GS
[0.75 0 0 0.75 473.29688 545.93855] CT
0 0.447 0.741 RC
N
f-862814258
f
GR
GS
[0.75 0 0 0.75 477 549.48297] CT
0 0.447 0.741 RC
N
f-862814258
f
GR
GS
[0.75 0 0 0.75 0 0.5] CT
0.851 0.325 0.098 RC
1 LJ
0.667 LW
N
245.938 172.431 M
250.875 236.475 L
255.813 281.018 L
260.75 316.994 L
265.688 351.103 L
270.625 384.582 L
275.563 411.504 L
280.5 438.979 L
285.438 466.393 L
290.375 491.613 L
295.313 511.34 L
300.25 533.512 L
305.188 549.978 L
310.125 566.372 L
315.063 585.142 L
320 601.164 L
324.938 621.488 L
329.875 629.485 L
334.813 644.453 L
339.75 659.973 L
344.688 659.321 L
349.625 661.009 L
354.563 667.075 L
359.5 665.58 L
364.438 666.277 L
369.375 668.716 L
374.313 668.881 L
379.25 667.113 L
384.188 669.702 L
389.125 670.159 L
394.063 668.465 L
399 674.81 L
403.938 673.496 L
408.875 674.569 L
413.813 676.42 L
418.75 680.763 L
423.688 685.942 L
428.625 682.314 L
433.563 677.88 L
438.5 683.227 L
443.438 677.959 L
448.375 683.268 L
453.313 681.316 L
458.25 685.606 L
463.188 680.256 L
468.125 680.485 L
473.063 680.118 L
478 685.553 L
482.938 687.25 L
487.875 684.132 L
492.813 681.45 L
497.75 683.961 L
502.688 680.95 L
507.625 684.381 L
512.563 686.819 L
517.5 688.3 L
522.438 685.026 L
527.375 678.869 L
532.313 686.063 L
537.25 682.711 L
542.188 680.632 L
547.125 682.607 L
552.063 685.887 L
557 681.44 L
561.938 684.314 L
566.875 685.382 L
571.813 685.353 L
576.75 680.711 L
581.688 683.57 L
586.625 681.884 L
591.563 683.066 L
596.5 683.548 L
601.438 685.404 L
606.375 684.952 L
611.313 684.31 L
616.25 680.673 L
621.188 685.365 L
626.125 680.103 L
631.063 681.223 L
636 686.248 L
S
GR
GS
[0.75 0 0 0.75 184.45313 129.82317] CT
0.851 0.325 0.098 RC
N
f-862814258
f
GR
GS
[0.75 0 0 0.75 188.15625 177.85589] CT
0.851 0.325 0.098 RC
N
f-862814258
f
GR
GS
[0.75 0 0 0.75 191.85938 211.26353] CT
0.851 0.325 0.098 RC
N
f-862814258
f
GR
GS
[0.75 0 0 0.75 195.5625 238.24547] CT
0.851 0.325 0.098 RC
N
f-862814258
f
GR
GS
[0.75 0 0 0.75 199.26563 263.82713] CT
0.851 0.325 0.098 RC
N
f-862814258
f
GR
GS
[0.75 0 0 0.75 202.96875 288.93687] CT
0.851 0.325 0.098 RC
N
f-862814258
f
GR
GS
[0.75 0 0 0.75 206.67188 309.12772] CT
0.851 0.325 0.098 RC
N
f-862814258
f
GR
GS
[0.75 0 0 0.75 210.375 329.73409] CT
0.851 0.325 0.098 RC
N
f-862814258
f
GR
GS
[0.75 0 0 0.75 214.07813 350.29446] CT
0.851 0.325 0.098 RC
N
f-862814258
f
GR
GS
[0.75 0 0 0.75 217.78125 369.20957] CT
0.851 0.325 0.098 RC
N
f-862814258
f
GR
GS
[0.75 0 0 0.75 221.48438 384.005] CT
0.851 0.325 0.098 RC
N
f-862814258
f
GR
GS
[0.75 0 0 0.75 225.1875 400.63365] CT
0.851 0.325 0.098 RC
N
f-862814258
f
GR
GS
[0.75 0 0 0.75 228.89063 412.9832] CT
0.851 0.325 0.098 RC
N
f-862814258
f
GR
GS
[0.75 0 0 0.75 232.59375 425.27864] CT
0.851 0.325 0.098 RC
N
f-862814258
f
GR
GS
[0.75 0 0 0.75 236.29688 439.35657] CT
0.851 0.325 0.098 RC
N
f-862814258
f
GR
GS
[0.75 0 0 0.75 240 451.37309] CT
0.851 0.325 0.098 RC
N
f-862814258
f
GR
GS
[0.75 0 0 0.75 243.70313 466.61594] CT
0.851 0.325 0.098 RC
N
f-862814258
f
GR
GS
[0.75 0 0 0.75 247.40625 472.61397] CT
0.851 0.325 0.098 RC
N
f-862814258
f
GR
GS
[0.75 0 0 0.75 251.10938 483.83957] CT
0.851 0.325 0.098 RC
N
f-862814258
f
GR
GS
[0.75 0 0 0.75 254.8125 495.47963] CT
0.851 0.325 0.098 RC
N
f-862814258
f
GR
GS
[0.75 0 0 0.75 258.51563 494.9911] CT
0.851 0.325 0.098 RC
N
f-862814258
f
GR
GS
[0.75 0 0 0.75 262.21875 496.25682] CT
0.851 0.325 0.098 RC
N
f-862814258
f
GR
GS
[0.75 0 0 0.75 265.92188 500.80608] CT
0.851 0.325 0.098 RC
N
f-862814258
f
GR
GS
[0.75 0 0 0.75 269.625 499.68506] CT
0.851 0.325 0.098 RC
N
f-862814258
f
GR
GS
[0.75 0 0 0.75 273.32813 500.20746] CT
0.851 0.325 0.098 RC
N
f-862814258
f
GR
GS
[0.75 0 0 0.75 277.03125 502.03719] CT
0.851 0.325 0.098 RC
N
f-862814258
f
GR
GS
[0.75 0 0 0.75 280.73438 502.16069] CT
0.851 0.325 0.098 RC
N
f-862814258
f
GR
GS
[0.75 0 0 0.75 284.4375 500.83478] CT
0.851 0.325 0.098 RC
N
f-862814258
f
GR
GS
[0.75 0 0 0.75 288.14063 502.77625] CT
0.851 0.325 0.098 RC
N
f-862814258
f
GR
GS
[0.75 0 0 0.75 291.84375 503.11948] CT
0.851 0.325 0.098 RC
N
f-862814258
f
GR
GS
[0.75 0 0 0.75 295.54688 501.84895] CT
0.851 0.325 0.098 RC
N
f-862814258
f
GR
GS
[0.75 0 0 0.75 299.25 506.60786] CT
0.851 0.325 0.098 RC
N
f-862814258
f
GR
GS
[0.75 0 0 0.75 302.95313 505.62184] CT
0.851 0.325 0.098 RC
N
f-862814258
f
GR
GS
[0.75 0 0 0.75 306.65625 506.42682] CT
0.851 0.325 0.098 RC
N
f-862814258
f
GR
GS
[0.75 0 0 0.75 310.35938 507.81485] CT
0.851 0.325 0.098 RC
N
f-862814258
f
GR
GS
[0.75 0 0 0.75 314.0625 511.07188] CT
0.851 0.325 0.098 RC
N
f-862814258
f
GR
GS
[0.75 0 0 0.75 317.76563 514.95665] CT
0.851 0.325 0.098 RC
N
f-862814258
f
GR
GS
[0.75 0 0 0.75 321.46875 512.23557] CT
0.851 0.325 0.098 RC
N
f-862814258
f
GR
GS
[0.75 0 0 0.75 325.17188 508.9101] CT
0.851 0.325 0.098 RC
N
f-862814258
f
GR
GS
[0.75 0 0 0.75 328.875 512.91997] CT
0.851 0.325 0.098 RC
N
f-862814258
f
GR
GS
[0.75 0 0 0.75 332.57813 508.96956] CT
0.851 0.325 0.098 RC
N
f-862814258
f
GR
GS
[0.75 0 0 0.75 336.28125 512.95105] CT
0.851 0.325 0.098 RC
N
f-862814258
f
GR
GS
[0.75 0 0 0.75 339.98438 511.48685] CT
0.851 0.325 0.098 RC
N
f-862814258
f
GR
GS
[0.75 0 0 0.75 343.6875 514.70483] CT
0.851 0.325 0.098 RC
N
f-862814258
f
GR
GS
[0.75 0 0 0.75 347.39063 510.69226] CT
0.851 0.325 0.098 RC
N
f-862814258
f
GR
GS
[0.75 0 0 0.75 351.09375 510.86411] CT
0.851 0.325 0.098 RC
N
f-862814258
f
GR
GS
[0.75 0 0 0.75 354.79688 510.58876] CT
0.851 0.325 0.098 RC
N
f-862814258
f
GR
GS
[0.75 0 0 0.75 358.5 514.66469] CT
0.851 0.325 0.098 RC
N
f-862814258
f
GR
GS
[0.75 0 0 0.75 362.20313 515.93759] CT
0.851 0.325 0.098 RC
N
f-862814258
f
GR
GS
[0.75 0 0 0.75 365.90625 513.59933] CT
0.851 0.325 0.098 RC
N
f-862814258
f
GR
GS
[0.75 0 0 0.75 369.60938 511.58728] CT
0.851 0.325 0.098 RC
N
f-862814258
f
GR
GS
[0.75 0 0 0.75 373.3125 513.47089] CT
0.851 0.325 0.098 RC
N
f-862814258
f
GR
GS
[0.75 0 0 0.75 377.01563 511.21255] CT
0.851 0.325 0.098 RC
N
f-862814258
f
GR
GS
[0.75 0 0 0.75 380.71875 513.78546] CT
0.851 0.325 0.098 RC
N
f-862814258
f
GR
GS
[0.75 0 0 0.75 384.42188 515.61395] CT
0.851 0.325 0.098 RC
N
f-862814258
f
GR
GS
[0.75 0 0 0.75 388.125 516.72499] CT
0.851 0.325 0.098 RC
N
f-862814258
f
GR
GS
[0.75 0 0 0.75 391.82813 514.26964] CT
0.851 0.325 0.098 RC
N
f-862814258
f
GR
GS
[0.75 0 0 0.75 395.53125 509.65195] CT
0.851 0.325 0.098 RC
N
f-862814258
f
GR
GS
[0.75 0 0 0.75 399.23438 515.04761] CT
0.851 0.325 0.098 RC
N
f-862814258
f
GR
GS
[0.75 0 0 0.75 402.9375 512.53362] CT
0.851 0.325 0.098 RC
N
f-862814258
f
GR
GS
[0.75 0 0 0.75 406.64063 510.97429] CT
0.851 0.325 0.098 RC
N
f-862814258
f
GR
GS
[0.75 0 0 0.75 410.34375 512.45534] CT
0.851 0.325 0.098 RC
N
f-862814258
f
GR
GS
[0.75 0 0 0.75 414.04688 514.91541] CT
0.851 0.325 0.098 RC
N
f-862814258
f
GR
GS
[0.75 0 0 0.75 417.75 511.57973] CT
0.851 0.325 0.098 RC
N
f-862814258
f
GR
GS
[0.75 0 0 0.75 421.45313 513.73529] CT
0.851 0.325 0.098 RC
N
f-862814258
f
GR
GS
[0.75 0 0 0.75 425.15625 514.53683] CT
0.851 0.325 0.098 RC
N
f-862814258
f
GR
GS
[0.75 0 0 0.75 428.85938 514.51495] CT
0.851 0.325 0.098 RC
N
f-862814258
f
GR
GS
[0.75 0 0 0.75 432.5625 511.03339] CT
0.851 0.325 0.098 RC
N
f-862814258
f
GR
GS
[0.75 0 0 0.75 436.26563 513.17741] CT
0.851 0.325 0.098 RC
N
f-862814258
f
GR
GS
[0.75 0 0 0.75 439.96875 511.91275] CT
0.851 0.325 0.098 RC
N
f-862814258
f
GR
GS
[0.75 0 0 0.75 443.67188 512.7993] CT
0.851 0.325 0.098 RC
N
f-862814258
f
GR
GS
[0.75 0 0 0.75 447.375 513.16084] CT
0.851 0.325 0.098 RC
N
f-862814258
f
GR
GS
[0.75 0 0 0.75 451.07813 514.55322] CT
0.851 0.325 0.098 RC
N
f-862814258
f
GR
GS
[0.75 0 0 0.75 454.78125 514.2137] CT
0.851 0.325 0.098 RC
N
f-862814258
f
GR
GS
[0.75 0 0 0.75 458.48438 513.73222] CT
0.851 0.325 0.098 RC
N
f-862814258
f
GR
GS
[0.75 0 0 0.75 462.1875 511.00505] CT
0.851 0.325 0.098 RC
N
f-862814258
f
GR
GS
[0.75 0 0 0.75 465.89063 514.52379] CT
0.851 0.325 0.098 RC
N
f-862814258
f
GR
GS
[0.75 0 0 0.75 469.59375 510.5769] CT
0.851 0.325 0.098 RC
N
f-862814258
f
GR
GS
[0.75 0 0 0.75 473.29688 511.41695] CT
0.851 0.325 0.098 RC
N
f-862814258
f
GR
GS
[0.75 0 0 0.75 477 515.18608] CT
0.851 0.325 0.098 RC
N
f-862814258
f
GR
GS
[0.75 0 0 0.75 0 0.5] CT
1 GC
N
625 118 M
625 84 L
546 84 L
546 118 L
cp
f
GR
GS
[0.75 0 0 0.75 444.75 70.52174] CT
/Helvetica 12 F
GS
[1 0 0 1 0 0] CT
0 4.5 moveto 
1 -1 scale
(train) t 
GR
GR
GS
[0.75 0 0 0.75 0 0.5] CT
0 0.447 0.741 RC
1 LJ
0.667 LW
N
550 93.362 M
590 93.362 L
S
GR
GS
[0.75 0 0 0.75 427.5 70.52174] CT
0 0.447 0.741 RC
N
f-862814258
f
GR
GS
[0.75 0 0 0.75 444.75 81.97826] CT
/Helvetica 12 F
GS
[1 0 0 1 0 0] CT
0 4.5 moveto 
1 -1 scale
(val) t 
GR
GR
GS
[0.75 0 0 0.75 0 0.5] CT
0.851 0.325 0.098 RC
1 LJ
0.667 LW
N
550 108.638 M
590 108.638 L
S
GR
GS
[0.75 0 0 0.75 427.5 81.97826] CT
0.851 0.325 0.098 RC
N
f-862814258
f
GR
GS
[0.75 0 0 0.75 0 0.5] CT
0.149 GC
10.0 ML
0.667 LW
N
546 118 M
546 84 L
625 84 L
625 118 L
cp
S
GR
GS
[0.75 0 0 0.75 0 0.5] CT
1 GC
N
761 863 M
1157 863 L
1157 73 L
761 73 L
cp
f
GR
GS
[0.75 0 0 0.75 0 0.5] CT
0.873 GC
1 LJ
0.667 LW
N
761 863 M
761 73 L
S
GR
GS
[0.75 0 0 0.75 0 0.5] CT
0.873 GC
1 LJ
0.667 LW
N
810.5 863 M
810.5 73 L
S
GR
GS
[0.75 0 0 0.75 0 0.5] CT
0.873 GC
1 LJ
0.667 LW
N
860 863 M
860 73 L
S
GR
GS
[0.75 0 0 0.75 0 0.5] CT
0.873 GC
1 LJ
0.667 LW
N
909.5 863 M
909.5 73 L
S
GR
GS
[0.75 0 0 0.75 0 0.5] CT
0.873 GC
1 LJ
0.667 LW
N
959 863 M
959 73 L
S
GR
GS
[0.75 0 0 0.75 0 0.5] CT
0.873 GC
1 LJ
0.667 LW
N
1008.5 863 M
1008.5 73 L
S
GR
GS
[0.75 0 0 0.75 0 0.5] CT
0.873 GC
1 LJ
0.667 LW
N
1058 863 M
1058 73 L
S
GR
GS
[0.75 0 0 0.75 0 0.5] CT
0.873 GC
1 LJ
0.667 LW
N
1107.5 863 M
1107.5 73 L
S
GR
GS
[0.75 0 0 0.75 0 0.5] CT
0.873 GC
1 LJ
0.667 LW
N
1157 863 M
1157 73 L
S
GR
GS
[0.75 0 0 0.75 0 0.5] CT
0.873 GC
1 LJ
0.667 LW
N
1157 863 M
761 863 L
S
GR
GS
[0.75 0 0 0.75 0 0.5] CT
0.873 GC
1 LJ
0.667 LW
N
1157 764.25 M
761 764.25 L
S
GR
GS
[0.75 0 0 0.75 0 0.5] CT
0.873 GC
1 LJ
0.667 LW
N
1157 665.5 M
761 665.5 L
S
GR
GS
[0.75 0 0 0.75 0 0.5] CT
0.873 GC
1 LJ
0.667 LW
N
1157 566.75 M
761 566.75 L
S
GR
GS
[0.75 0 0 0.75 0 0.5] CT
0.873 GC
1 LJ
0.667 LW
N
1157 468 M
761 468 L
S
GR
GS
[0.75 0 0 0.75 0 0.5] CT
0.873 GC
1 LJ
0.667 LW
N
1157 369.25 M
761 369.25 L
S
GR
GS
[0.75 0 0 0.75 0 0.5] CT
0.873 GC
1 LJ
0.667 LW
N
1157 270.5 M
761 270.5 L
S
GR
GS
[0.75 0 0 0.75 0 0.5] CT
0.873 GC
1 LJ
0.667 LW
N
1157 171.75 M
761 171.75 L
S
GR
GS
[0.75 0 0 0.75 0 0.5] CT
0.873 GC
1 LJ
0.667 LW
N
1157 73 M
761 73 L
S
GR
GS
[0.75 0 0 0.75 0 0.5] CT
0.149 GC
2 setlinecap
1 LJ
0.667 LW
N
761 863 M
1157 863 L
S
GR
GS
[0.75 0 0 0.75 0 0.5] CT
0.149 GC
2 setlinecap
1 LJ
0.667 LW
N
761 73 M
1157 73 L
S
GR
GS
[0.75 0 0 0.75 0 0.5] CT
0.149 GC
2 setlinecap
1 LJ
0.667 LW
N
761 863 M
761 855.1 L
S
GR
GS
[0.75 0 0 0.75 0 0.5] CT
0.149 GC
2 setlinecap
1 LJ
0.667 LW
N
810.5 863 M
810.5 855.1 L
S
GR
GS
[0.75 0 0 0.75 0 0.5] CT
0.149 GC
2 setlinecap
1 LJ
0.667 LW
N
860 863 M
860 855.1 L
S
GR
GS
[0.75 0 0 0.75 0 0.5] CT
0.149 GC
2 setlinecap
1 LJ
0.667 LW
N
909.5 863 M
909.5 855.1 L
S
GR
GS
[0.75 0 0 0.75 0 0.5] CT
0.149 GC
2 setlinecap
1 LJ
0.667 LW
N
959 863 M
959 855.1 L
S
GR
GS
[0.75 0 0 0.75 0 0.5] CT
0.149 GC
2 setlinecap
1 LJ
0.667 LW
N
1008.5 863 M
1008.5 855.1 L
S
GR
GS
[0.75 0 0 0.75 0 0.5] CT
0.149 GC
2 setlinecap
1 LJ
0.667 LW
N
1058 863 M
1058 855.1 L
S
GR
GS
[0.75 0 0 0.75 0 0.5] CT
0.149 GC
2 setlinecap
1 LJ
0.667 LW
N
1107.5 863 M
1107.5 855.1 L
S
GR
GS
[0.75 0 0 0.75 0 0.5] CT
0.149 GC
2 setlinecap
1 LJ
0.667 LW
N
1157 863 M
1157 855.1 L
S
GR
GS
[0.75 0 0 0.75 0 0.5] CT
0.149 GC
2 setlinecap
1 LJ
0.667 LW
N
761 73 M
761 80.9 L
S
GR
GS
[0.75 0 0 0.75 0 0.5] CT
0.149 GC
2 setlinecap
1 LJ
0.667 LW
N
810.5 73 M
810.5 80.9 L
S
GR
GS
[0.75 0 0 0.75 0 0.5] CT
0.149 GC
2 setlinecap
1 LJ
0.667 LW
N
860 73 M
860 80.9 L
S
GR
GS
[0.75 0 0 0.75 0 0.5] CT
0.149 GC
2 setlinecap
1 LJ
0.667 LW
N
909.5 73 M
909.5 80.9 L
S
GR
GS
[0.75 0 0 0.75 0 0.5] CT
0.149 GC
2 setlinecap
1 LJ
0.667 LW
N
959 73 M
959 80.9 L
S
GR
GS
[0.75 0 0 0.75 0 0.5] CT
0.149 GC
2 setlinecap
1 LJ
0.667 LW
N
1008.5 73 M
1008.5 80.9 L
S
GR
GS
[0.75 0 0 0.75 0 0.5] CT
0.149 GC
2 setlinecap
1 LJ
0.667 LW
N
1058 73 M
1058 80.9 L
S
GR
GS
[0.75 0 0 0.75 0 0.5] CT
0.149 GC
2 setlinecap
1 LJ
0.667 LW
N
1107.5 73 M
1107.5 80.9 L
S
GR
GS
[0.75 0 0 0.75 0 0.5] CT
0.149 GC
2 setlinecap
1 LJ
0.667 LW
N
1157 73 M
1157 80.9 L
S
GR
GS
[0.75 0 0 0.75 570.75 651.75003] CT
0.149 GC
/Helvetica 13.333 F
GS
[1 0 0 1 0 0] CT
-4.5 13 moveto 
1 -1 scale
(0) t 
GR
GR
GS
[0.75 0 0 0.75 607.875 651.75003] CT
0.149 GC
/Helvetica 13.333 F
GS
[1 0 0 1 0 0] CT
-8.5 13 moveto 
1 -1 scale
(10) t 
GR
GR
GS
[0.75 0 0 0.75 645 651.75003] CT
0.149 GC
/Helvetica 13.333 F
GS
[1 0 0 1 0 0] CT
-8.5 13 moveto 
1 -1 scale
(20) t 
GR
GR
GS
[0.75 0 0 0.75 682.125 651.75003] CT
0.149 GC
/Helvetica 13.333 F
GS
[1 0 0 1 0 0] CT
-8.5 13 moveto 
1 -1 scale
(30) t 
GR
GR
GS
[0.75 0 0 0.75 719.25 651.75003] CT
0.149 GC
/Helvetica 13.333 F
GS
[1 0 0 1 0 0] CT
-8.5 13 moveto 
1 -1 scale
(40) t 
GR
GR
GS
[0.75 0 0 0.75 756.375 651.75003] CT
0.149 GC
/Helvetica 13.333 F
GS
[1 0 0 1 0 0] CT
-8.5 13 moveto 
1 -1 scale
(50) t 
GR
GR
GS
[0.75 0 0 0.75 793.5 651.75003] CT
0.149 GC
/Helvetica 13.333 F
GS
[1 0 0 1 0 0] CT
-8.5 13 moveto 
1 -1 scale
(60) t 
GR
GR
GS
[0.75 0 0 0.75 830.625 651.75003] CT
0.149 GC
/Helvetica 13.333 F
GS
[1 0 0 1 0 0] CT
-8.5 13 moveto 
1 -1 scale
(70) t 
GR
GR
GS
[0.75 0 0 0.75 867.75 651.75003] CT
0.149 GC
/Helvetica 13.333 F
GS
[1 0 0 1 0 0] CT
-8.5 13 moveto 
1 -1 scale
(80) t 
GR
GR
GS
[0.75 0 0 0.75 719.25014 665.50002] CT
0.149 GC
/Helvetica 14.667 F
GS
[1 0 0 1 0 0] CT
-22.5 14 moveto 
1 -1 scale
(epoch) t 
GR
GR
GS
[0.75 0 0 0.75 0 0.5] CT
0.149 GC
2 setlinecap
1 LJ
0.667 LW
N
761 863 M
761 73 L
S
GR
GS
[0.75 0 0 0.75 0 0.5] CT
0.149 GC
2 setlinecap
1 LJ
0.667 LW
N
1157 863 M
1157 73 L
S
GR
GS
[0.75 0 0 0.75 0 0.5] CT
0.149 GC
2 setlinecap
1 LJ
0.667 LW
N
761 863 M
768.9 863 L
S
GR
GS
[0.75 0 0 0.75 0 0.5] CT
0.149 GC
2 setlinecap
1 LJ
0.667 LW
N
761 764.25 M
768.9 764.25 L
S
GR
GS
[0.75 0 0 0.75 0 0.5] CT
0.149 GC
2 setlinecap
1 LJ
0.667 LW
N
761 665.5 M
768.9 665.5 L
S
GR
GS
[0.75 0 0 0.75 0 0.5] CT
0.149 GC
2 setlinecap
1 LJ
0.667 LW
N
761 566.75 M
768.9 566.75 L
S
GR
GS
[0.75 0 0 0.75 0 0.5] CT
0.149 GC
2 setlinecap
1 LJ
0.667 LW
N
761 468 M
768.9 468 L
S
GR
GS
[0.75 0 0 0.75 0 0.5] CT
0.149 GC
2 setlinecap
1 LJ
0.667 LW
N
761 369.25 M
768.9 369.25 L
S
GR
GS
[0.75 0 0 0.75 0 0.5] CT
0.149 GC
2 setlinecap
1 LJ
0.667 LW
N
761 270.5 M
768.9 270.5 L
S
GR
GS
[0.75 0 0 0.75 0 0.5] CT
0.149 GC
2 setlinecap
1 LJ
0.667 LW
N
761 171.75 M
768.9 171.75 L
S
GR
GS
[0.75 0 0 0.75 0 0.5] CT
0.149 GC
2 setlinecap
1 LJ
0.667 LW
N
761 73 M
768.9 73 L
S
GR
GS
[0.75 0 0 0.75 0 0.5] CT
0.149 GC
2 setlinecap
1 LJ
0.667 LW
N
1157 863 M
1149.1 863 L
S
GR
GS
[0.75 0 0 0.75 0 0.5] CT
0.149 GC
2 setlinecap
1 LJ
0.667 LW
N
1157 764.25 M
1149.1 764.25 L
S
GR
GS
[0.75 0 0 0.75 0 0.5] CT
0.149 GC
2 setlinecap
1 LJ
0.667 LW
N
1157 665.5 M
1149.1 665.5 L
S
GR
GS
[0.75 0 0 0.75 0 0.5] CT
0.149 GC
2 setlinecap
1 LJ
0.667 LW
N
1157 566.75 M
1149.1 566.75 L
S
GR
GS
[0.75 0 0 0.75 0 0.5] CT
0.149 GC
2 setlinecap
1 LJ
0.667 LW
N
1157 468 M
1149.1 468 L
S
GR
GS
[0.75 0 0 0.75 0 0.5] CT
0.149 GC
2 setlinecap
1 LJ
0.667 LW
N
1157 369.25 M
1149.1 369.25 L
S
GR
GS
[0.75 0 0 0.75 0 0.5] CT
0.149 GC
2 setlinecap
1 LJ
0.667 LW
N
1157 270.5 M
1149.1 270.5 L
S
GR
GS
[0.75 0 0 0.75 0 0.5] CT
0.149 GC
2 setlinecap
1 LJ
0.667 LW
N
1157 171.75 M
1149.1 171.75 L
S
GR
GS
[0.75 0 0 0.75 0 0.5] CT
0.149 GC
2 setlinecap
1 LJ
0.667 LW
N
1157 73 M
1149.1 73 L
S
GR
GS
[0.75 0 0 0.75 566.75002 647.75] CT
0.149 GC
/Helvetica 13.333 F
GS
[1 0 0 1 0 0] CT
-30 4.5 moveto 
1 -1 scale
(0.45) t 
GR
GR
GS
[0.75 0 0 0.75 566.75002 573.6875] CT
0.149 GC
/Helvetica 13.333 F
GS
[1 0 0 1 0 0] CT
-22 4.5 moveto 
1 -1 scale
(0.5) t 
GR
GR
GS
[0.75 0 0 0.75 566.75002 499.625] CT
0.149 GC
/Helvetica 13.333 F
GS
[1 0 0 1 0 0] CT
-30 4.5 moveto 
1 -1 scale
(0.55) t 
GR
GR
GS
[0.75 0 0 0.75 566.75002 425.56245] CT
0.149 GC
/Helvetica 13.333 F
GS
[1 0 0 1 0 0] CT
-22 4.5 moveto 
1 -1 scale
(0.6) t 
GR
GR
GS
[0.75 0 0 0.75 566.75002 351.50005] CT
0.149 GC
/Helvetica 13.333 F
GS
[1 0 0 1 0 0] CT
-30 4.5 moveto 
1 -1 scale
(0.65) t 
GR
GR
GS
[0.75 0 0 0.75 566.75002 277.43752] CT
0.149 GC
/Helvetica 13.333 F
GS
[1 0 0 1 0 0] CT
-22 4.5 moveto 
1 -1 scale
(0.7) t 
GR
GR
GS
[0.75 0 0 0.75 566.75002 203.375] CT
0.149 GC
/Helvetica 13.333 F
GS
[1 0 0 1 0 0] CT
-30 4.5 moveto 
1 -1 scale
(0.75) t 
GR
GR
GS
[0.75 0 0 0.75 566.75002 129.31248] CT
0.149 GC
/Helvetica 13.333 F
GS
[1 0 0 1 0 0] CT
-22 4.5 moveto 
1 -1 scale
(0.8) t 
GR
GR
GS
[0.75 0 0 0.75 566.75002 55.24997] CT
0.149 GC
/Helvetica 13.333 F
GS
[1 0 0 1 0 0] CT
-30 4.5 moveto 
1 -1 scale
(0.85) t 
GR
GR
GS
[0.75 0 0 0.75 719.25069 53.18744] CT
/Helvetica-Bold 14.667 F
GS
[1 0 0 1 0 0] CT
-31.5 -4 moveto 
1 -1 scale
(top1err) t 
GR
GR
GS
[0.75 0 0 0.75 0 0.5] CT
0 0.447 0.741 RC
1 LJ
0.667 LW
N
765.95 167.8 M
770.9 277.61 L
775.85 356.61 L
780.8 447.46 L
785.75 535.94 L
790.7 589.66 L
795.65 613.36 L
800.6 635.48 L
805.55 634.69 L
810.5 670.24 L
815.45 673.4 L
820.4 695.52 L
825.35 703.42 L
830.3 711.32 L
835.25 735.02 L
840.2 756.35 L
845.15 765.04 L
850.1 780.05 L
855.05 775.31 L
860 765.83 L
864.95 795.85 L
869.9 799.01 L
874.85 780.84 L
879.8 785.58 L
884.75 791.11 L
889.7 786.37 L
894.65 804.54 L
899.6 800.59 L
904.55 798.22 L
909.5 794.27 L
914.45 810.86 L
919.4 799.01 L
924.35 792.69 L
929.3 808.49 L
934.25 805.33 L
939.2 806.91 L
944.15 806.12 L
949.1 796.64 L
954.05 820.34 L
959 810.07 L
963.95 816.39 L
968.9 823.5 L
973.85 799.01 L
978.8 802.17 L
983.75 812.44 L
988.7 816.39 L
993.65 823.5 L
998.6 816.39 L
1003.55 826.66 L
1008.5 796.64 L
1013.45 824.29 L
1018.4 811.65 L
1023.35 811.65 L
1028.3 822.71 L
1033.25 806.91 L
1038.2 825.87 L
1043.15 812.44 L
1048.1 820.34 L
1053.05 819.55 L
1058 810.07 L
1062.95 826.66 L
1067.9 817.97 L
1072.85 800.59 L
1077.8 808.49 L
1082.75 808.49 L
1087.7 817.18 L
1092.65 824.29 L
1097.6 818.76 L
1102.55 812.44 L
1107.5 830.61 L
1112.45 817.97 L
1117.4 822.71 L
1122.35 810.86 L
1127.3 814.81 L
1132.25 814.81 L
1137.2 818.76 L
1142.15 829.82 L
1147.1 812.44 L
1152.05 817.18 L
1157 824.29 L
S
GR
GS
[0.75 0 0 0.75 574.46251 126.35003] CT
0 0.447 0.741 RC
N
f-862814258
f
GR
GS
[0.75 0 0 0.75 578.17502 208.70751] CT
0 0.447 0.741 RC
N
f-862814258
f
GR
GS
[0.75 0 0 0.75 581.88748 267.95753] CT
0 0.447 0.741 RC
N
f-862814258
f
GR
GS
[0.75 0 0 0.75 585.59999 336.09504] CT
0 0.447 0.741 RC
N
f-862814258
f
GR
GS
[0.75 0 0 0.75 589.3125 402.455] CT
0 0.447 0.741 RC
N
f-862814258
f
GR
GS
[0.75 0 0 0.75 593.02501 442.74498] CT
0 0.447 0.741 RC
N
f-862814258
f
GR
GS
[0.75 0 0 0.75 596.73752 460.52003] CT
0 0.447 0.741 RC
N
f-862814258
f
GR
GS
[0.75 0 0 0.75 600.44998 477.11003] CT
0 0.447 0.741 RC
N
f-862814258
f
GR
GS
[0.75 0 0 0.75 604.16249 476.51755] CT
0 0.447 0.741 RC
N
f-862814258
f
GR
GS
[0.75 0 0 0.75 607.875 503.18004] CT
0 0.447 0.741 RC
N
f-862814258
f
GR
GS
[0.75 0 0 0.75 611.58751 505.54997] CT
0 0.447 0.741 RC
N
f-862814258
f
GR
GS
[0.75 0 0 0.75 615.30002 522.14001] CT
0 0.447 0.741 RC
N
f-862814258
f
GR
GS
[0.75 0 0 0.75 619.01248 528.06503] CT
0 0.447 0.741 RC
N
f-862814258
f
GR
GS
[0.75 0 0 0.75 622.72499 533.99005] CT
0 0.447 0.741 RC
N
f-862814258
f
GR
GS
[0.75 0 0 0.75 626.4375 551.76497] CT
0 0.447 0.741 RC
N
f-862814258
f
GR
GS
[0.75 0 0 0.75 630.15001 567.76248] CT
0 0.447 0.741 RC
N
f-862814258
f
GR
GS
[0.75 0 0 0.75 633.86252 574.28003] CT
0 0.447 0.741 RC
N
f-862814258
f
GR
GS
[0.75 0 0 0.75 637.57498 585.53749] CT
0 0.447 0.741 RC
N
f-862814258
f
GR
GS
[0.75 0 0 0.75 641.28749 581.9825] CT
0 0.447 0.741 RC
N
f-862814258
f
GR
GS
[0.75 0 0 0.75 645 574.87251] CT
0 0.447 0.741 RC
N
f-862814258
f
GR
GS
[0.75 0 0 0.75 648.71251 597.38748] CT
0 0.447 0.741 RC
N
f-862814258
f
GR
GS
[0.75 0 0 0.75 652.42502 599.75751] CT
0 0.447 0.741 RC
N
f-862814258
f
GR
GS
[0.75 0 0 0.75 656.13748 586.12997] CT
0 0.447 0.741 RC
N
f-862814258
f
GR
GS
[0.75 0 0 0.75 659.84999 589.68501] CT
0 0.447 0.741 RC
N
f-862814258
f
GR
GS
[0.75 0 0 0.75 663.5625 593.83249] CT
0 0.447 0.741 RC
N
f-862814258
f
GR
GS
[0.75 0 0 0.75 667.27501 590.2775] CT
0 0.447 0.741 RC
N
f-862814258
f
GR
GS
[0.75 0 0 0.75 670.98752 603.90498] CT
0 0.447 0.741 RC
N
f-862814258
f
GR
GS
[0.75 0 0 0.75 674.69998 600.94252] CT
0 0.447 0.741 RC
N
f-862814258
f
GR
GS
[0.75 0 0 0.75 678.41249 599.16498] CT
0 0.447 0.741 RC
N
f-862814258
f
GR
GS
[0.75 0 0 0.75 682.125 596.20247] CT
0 0.447 0.741 RC
N
f-862814258
f
GR
GS
[0.75 0 0 0.75 685.83751 608.64503] CT
0 0.447 0.741 RC
N
f-862814258
f
GR
GS
[0.75 0 0 0.75 689.55002 599.75751] CT
0 0.447 0.741 RC
N
f-862814258
f
GR
GS
[0.75 0 0 0.75 693.26248 595.0175] CT
0 0.447 0.741 RC
N
f-862814258
f
GR
GS
[0.75 0 0 0.75 696.97499 606.86749] CT
0 0.447 0.741 RC
N
f-862814258
f
GR
GS
[0.75 0 0 0.75 700.6875 604.49751] CT
0 0.447 0.741 RC
N
f-862814258
f
GR
GS
[0.75 0 0 0.75 704.40001 605.68253] CT
0 0.447 0.741 RC
N
f-862814258
f
GR
GS
[0.75 0 0 0.75 708.11252 605.09] CT
0 0.447 0.741 RC
N
f-862814258
f
GR
GS
[0.75 0 0 0.75 711.82498 597.98001] CT
0 0.447 0.741 RC
N
f-862814258
f
GR
GS
[0.75 0 0 0.75 715.53749 615.75502] CT
0 0.447 0.741 RC
N
f-862814258
f
GR
GS
[0.75 0 0 0.75 719.25 608.05251] CT
0 0.447 0.741 RC
N
f-862814258
f
GR
GS
[0.75 0 0 0.75 722.96251 612.79251] CT
0 0.447 0.741 RC
N
f-862814258
f
GR
GS
[0.75 0 0 0.75 726.67502 618.125] CT
0 0.447 0.741 RC
N
f-862814258
f
GR
GS
[0.75 0 0 0.75 730.38748 599.75751] CT
0 0.447 0.741 RC
N
f-862814258
f
GR
GS
[0.75 0 0 0.75 734.09999 602.12749] CT
0 0.447 0.741 RC
N
f-862814258
f
GR
GS
[0.75 0 0 0.75 737.8125 609.83] CT
0 0.447 0.741 RC
N
f-862814258
f
GR
GS
[0.75 0 0 0.75 741.52501 612.79251] CT
0 0.447 0.741 RC
N
f-862814258
f
GR
GS
[0.75 0 0 0.75 745.23752 618.125] CT
0 0.447 0.741 RC
N
f-862814258
f
GR
GS
[0.75 0 0 0.75 748.94998 612.79251] CT
0 0.447 0.741 RC
N
f-862814258
f
GR
GS
[0.75 0 0 0.75 752.66249 620.49498] CT
0 0.447 0.741 RC
N
f-862814258
f
GR
GS
[0.75 0 0 0.75 756.375 597.98001] CT
0 0.447 0.741 RC
N
f-862814258
f
GR
GS
[0.75 0 0 0.75 760.08751 618.71753] CT
0 0.447 0.741 RC
N
f-862814258
f
GR
GS
[0.75 0 0 0.75 763.80002 609.23747] CT
0 0.447 0.741 RC
N
f-862814258
f
GR
GS
[0.75 0 0 0.75 767.51248 609.23747] CT
0 0.447 0.741 RC
N
f-862814258
f
GR
GS
[0.75 0 0 0.75 771.22504 617.53247] CT
0 0.447 0.741 RC
N
f-862814258
f
GR
GS
[0.75 0 0 0.75 774.9375 605.68253] CT
0 0.447 0.741 RC
N
f-862814258
f
GR
GS
[0.75 0 0 0.75 778.64996 619.9025] CT
0 0.447 0.741 RC
N
f-862814258
f
GR
GS
[0.75 0 0 0.75 782.36252 609.83] CT
0 0.447 0.741 RC
N
f-862814258
f
GR
GS
[0.75 0 0 0.75 786.07498 615.75502] CT
0 0.447 0.741 RC
N
f-862814258
f
GR
GS
[0.75 0 0 0.75 789.78754 615.16249] CT
0 0.447 0.741 RC
N
f-862814258
f
GR
GS
[0.75 0 0 0.75 793.5 608.05251] CT
0 0.447 0.741 RC
N
f-862814258
f
GR
GS
[0.75 0 0 0.75 797.21246 620.49498] CT
0 0.447 0.741 RC
N
f-862814258
f
GR
GS
[0.75 0 0 0.75 800.92502 613.97752] CT
0 0.447 0.741 RC
N
f-862814258
f
GR
GS
[0.75 0 0 0.75 804.63748 600.94252] CT
0 0.447 0.741 RC
N
f-862814258
f
GR
GS
[0.75 0 0 0.75 808.35004 606.86749] CT
0 0.447 0.741 RC
N
f-862814258
f
GR
GS
[0.75 0 0 0.75 812.0625 606.86749] CT
0 0.447 0.741 RC
N
f-862814258
f
GR
GS
[0.75 0 0 0.75 815.77496 613.38499] CT
0 0.447 0.741 RC
N
f-862814258
f
GR
GS
[0.75 0 0 0.75 819.48752 618.71753] CT
0 0.447 0.741 RC
N
f-862814258
f
GR
GS
[0.75 0 0 0.75 823.19998 614.57001] CT
0 0.447 0.741 RC
N
f-862814258
f
GR
GS
[0.75 0 0 0.75 826.91254 609.83] CT
0 0.447 0.741 RC
N
f-862814258
f
GR
GS
[0.75 0 0 0.75 830.625 623.45749] CT
0 0.447 0.741 RC
N
f-862814258
f
GR
GS
[0.75 0 0 0.75 834.33746 613.97752] CT
0 0.447 0.741 RC
N
f-862814258
f
GR
GS
[0.75 0 0 0.75 838.05002 617.53247] CT
0 0.447 0.741 RC
N
f-862814258
f
GR
GS
[0.75 0 0 0.75 841.76248 608.64503] CT
0 0.447 0.741 RC
N
f-862814258
f
GR
GS
[0.75 0 0 0.75 845.47504 611.6075] CT
0 0.447 0.741 RC
N
f-862814258
f
GR
GS
[0.75 0 0 0.75 849.1875 611.6075] CT
0 0.447 0.741 RC
N
f-862814258
f
GR
GS
[0.75 0 0 0.75 852.89996 614.57001] CT
0 0.447 0.741 RC
N
f-862814258
f
GR
GS
[0.75 0 0 0.75 856.61252 622.86501] CT
0 0.447 0.741 RC
N
f-862814258
f
GR
GS
[0.75 0 0 0.75 860.32498 609.83] CT
0 0.447 0.741 RC
N
f-862814258
f
GR
GS
[0.75 0 0 0.75 864.03754 613.38499] CT
0 0.447 0.741 RC
N
f-862814258
f
GR
GS
[0.75 0 0 0.75 867.75 618.71753] CT
0 0.447 0.741 RC
N
f-862814258
f
GR
GS
[0.75 0 0 0.75 0 0.5] CT
0.851 0.325 0.098 RC
1 LJ
0.667 LW
N
765.95 200.881 M
770.9 311.975 L
775.85 426.031 L
780.8 496.637 L
785.75 547.494 L
790.7 573.663 L
795.65 597.362 L
800.6 624.519 L
805.55 636.863 L
810.5 670.438 L
815.45 681.794 L
820.4 684.263 L
825.35 709.444 L
830.3 708.95 L
835.25 707.962 L
840.2 740.55 L
845.15 737.094 L
850.1 749.931 L
855.05 760.794 L
860 787.456 L
864.95 767.213 L
869.9 768.2 L
874.85 780.05 L
879.8 793.381 L
884.75 784.988 L
889.7 784.988 L
894.65 800.787 L
899.6 773.138 L
904.55 789.431 L
909.5 790.913 L
914.45 783.506 L
919.4 795.85 L
924.35 786.469 L
929.3 784 L
934.25 796.837 L
939.2 795.85 L
944.15 814.119 L
949.1 804.737 L
954.05 815.6 L
959 804.737 L
963.95 796.837 L
968.9 809.181 L
973.85 802.269 L
978.8 803.256 L
983.75 789.925 L
988.7 802.762 L
993.65 803.256 L
998.6 813.625 L
1003.55 814.612 L
1008.5 809.181 L
1013.45 800.294 L
1018.4 808.688 L
1023.35 801.281 L
1028.3 799.8 L
1033.25 805.725 L
1038.2 808.194 L
1043.15 812.144 L
1048.1 798.319 L
1053.05 804.737 L
1058 810.169 L
1062.95 802.269 L
1067.9 801.775 L
1072.85 814.119 L
1077.8 788.938 L
1082.75 813.625 L
1087.7 810.169 L
1092.65 817.081 L
1097.6 813.625 L
1102.55 802.269 L
1107.5 792.888 L
1112.45 809.181 L
1117.4 800.294 L
1122.35 807.206 L
1127.3 806.712 L
1132.25 818.563 L
1137.2 807.206 L
1142.15 816.094 L
1147.1 796.837 L
1152.05 798.813 L
1157 811.65 L
S
GR
GS
[0.75 0 0 0.75 574.46251 151.16093] CT
0.851 0.325 0.098 RC
N
f-862814258
f
GR
GS
[0.75 0 0 0.75 578.17502 234.4813] CT
0.851 0.325 0.098 RC
N
f-862814258
f
GR
GS
[0.75 0 0 0.75 581.88748 320.02346] CT
0.851 0.325 0.098 RC
N
f-862814258
f
GR
GS
[0.75 0 0 0.75 585.59999 372.97811] CT
0.851 0.325 0.098 RC
N
f-862814258
f
GR
GS
[0.75 0 0 0.75 589.3125 411.12033] CT
0.851 0.325 0.098 RC
N
f-862814258
f
GR
GS
[0.75 0 0 0.75 593.02501 430.7469] CT
0.851 0.325 0.098 RC
N
f-862814258
f
GR
GS
[0.75 0 0 0.75 596.73752 448.52187] CT
0.851 0.325 0.098 RC
N
f-862814258
f
GR
GS
[0.75 0 0 0.75 600.44998 468.88905] CT
0.851 0.325 0.098 RC
N
f-862814258
f
GR
GS
[0.75 0 0 0.75 604.16249 478.14691] CT
0.851 0.325 0.098 RC
N
f-862814258
f
GR
GS
[0.75 0 0 0.75 607.875 503.32813] CT
0.851 0.325 0.098 RC
N
f-862814258
f
GR
GS
[0.75 0 0 0.75 611.58751 511.84528] CT
0.851 0.325 0.098 RC
N
f-862814258
f
GR
GS
[0.75 0 0 0.75 615.30002 513.69688] CT
0.851 0.325 0.098 RC
N
f-862814258
f
GR
GS
[0.75 0 0 0.75 619.01248 532.58279] CT
0.851 0.325 0.098 RC
N
f-862814258
f
GR
GS
[0.75 0 0 0.75 622.72499 532.21251] CT
0.851 0.325 0.098 RC
N
f-862814258
f
GR
GS
[0.75 0 0 0.75 626.4375 531.47185] CT
0.851 0.325 0.098 RC
N
f-862814258
f
GR
GS
[0.75 0 0 0.75 630.15001 555.91245] CT
0.851 0.325 0.098 RC
N
f-862814258
f
GR
GS
[0.75 0 0 0.75 633.86252 553.32027] CT
0.851 0.325 0.098 RC
N
f-862814258
f
GR
GS
[0.75 0 0 0.75 637.57498 562.94841] CT
0.851 0.325 0.098 RC
N
f-862814258
f
GR
GS
[0.75 0 0 0.75 641.28749 571.09532] CT
0.851 0.325 0.098 RC
N
f-862814258
f
GR
GS
[0.75 0 0 0.75 645 591.09222] CT
0.851 0.325 0.098 RC
N
f-862814258
f
GR
GS
[0.75 0 0 0.75 648.71251 575.90939] CT
0.851 0.325 0.098 RC
N
f-862814258
f
GR
GS
[0.75 0 0 0.75 652.42502 576.65001] CT
0.851 0.325 0.098 RC
N
f-862814258
f
GR
GS
[0.75 0 0 0.75 656.13748 585.53749] CT
0.851 0.325 0.098 RC
N
f-862814258
f
GR
GS
[0.75 0 0 0.75 659.84999 595.53596] CT
0.851 0.325 0.098 RC
N
f-862814258
f
GR
GS
[0.75 0 0 0.75 663.5625 589.24066] CT
0.851 0.325 0.098 RC
N
f-862814258
f
GR
GS
[0.75 0 0 0.75 667.27501 589.24066] CT
0.851 0.325 0.098 RC
N
f-862814258
f
GR
GS
[0.75 0 0 0.75 670.98752 601.09061] CT
0.851 0.325 0.098 RC
N
f-862814258
f
GR
GS
[0.75 0 0 0.75 674.69998 580.35313] CT
0.851 0.325 0.098 RC
N
f-862814258
f
GR
GS
[0.75 0 0 0.75 678.41249 592.57346] CT
0.851 0.325 0.098 RC
N
f-862814258
f
GR
GS
[0.75 0 0 0.75 682.125 593.6844] CT
0.851 0.325 0.098 RC
N
f-862814258
f
GR
GS
[0.75 0 0 0.75 685.83751 588.12971] CT
0.851 0.325 0.098 RC
N
f-862814258
f
GR
GS
[0.75 0 0 0.75 689.55002 597.38748] CT
0.851 0.325 0.098 RC
N
f-862814258
f
GR
GS
[0.75 0 0 0.75 693.26248 590.35156] CT
0.851 0.325 0.098 RC
N
f-862814258
f
GR
GS
[0.75 0 0 0.75 696.97499 588.5] CT
0.851 0.325 0.098 RC
N
f-862814258
f
GR
GS
[0.75 0 0 0.75 700.6875 598.1281] CT
0.851 0.325 0.098 RC
N
f-862814258
f
GR
GS
[0.75 0 0 0.75 704.40001 597.38748] CT
0.851 0.325 0.098 RC
N
f-862814258
f
GR
GS
[0.75 0 0 0.75 708.11252 611.08904] CT
0.851 0.325 0.098 RC
N
f-862814258
f
GR
GS
[0.75 0 0 0.75 711.82498 604.05312] CT
0.851 0.325 0.098 RC
N
f-862814258
f
GR
GS
[0.75 0 0 0.75 715.53749 612.19998] CT
0.851 0.325 0.098 RC
N
f-862814258
f
GR
GS
[0.75 0 0 0.75 719.25 604.05312] CT
0.851 0.325 0.098 RC
N
f-862814258
f
GR
GS
[0.75 0 0 0.75 722.96251 598.1281] CT
0.851 0.325 0.098 RC
N
f-862814258
f
GR
GS
[0.75 0 0 0.75 726.67502 607.38591] CT
0.851 0.325 0.098 RC
N
f-862814258
f
GR
GS
[0.75 0 0 0.75 730.38748 602.20155] CT
0.851 0.325 0.098 RC
N
f-862814258
f
GR
GS
[0.75 0 0 0.75 734.09999 602.94217] CT
0.851 0.325 0.098 RC
N
f-862814258
f
GR
GS
[0.75 0 0 0.75 737.8125 592.94379] CT
0.851 0.325 0.098 RC
N
f-862814258
f
GR
GS
[0.75 0 0 0.75 741.52501 602.57184] CT
0.851 0.325 0.098 RC
N
f-862814258
f
GR
GS
[0.75 0 0 0.75 745.23752 602.94217] CT
0.851 0.325 0.098 RC
N
f-862814258
f
GR
GS
[0.75 0 0 0.75 748.94998 610.71875] CT
0.851 0.325 0.098 RC
N
f-862814258
f
GR
GS
[0.75 0 0 0.75 752.66249 611.45937] CT
0.851 0.325 0.098 RC
N
f-862814258
f
GR
GS
[0.75 0 0 0.75 756.375 607.38591] CT
0.851 0.325 0.098 RC
N
f-862814258
f
GR
GS
[0.75 0 0 0.75 760.08751 600.72028] CT
0.851 0.325 0.098 RC
N
f-862814258
f
GR
GS
[0.75 0 0 0.75 763.80002 607.01563] CT
0.851 0.325 0.098 RC
N
f-862814258
f
GR
GS
[0.75 0 0 0.75 767.51248 601.46094] CT
0.851 0.325 0.098 RC
N
f-862814258
f
GR
GS
[0.75 0 0 0.75 771.22504 600.34999] CT
0.851 0.325 0.098 RC
N
f-862814258
f
GR
GS
[0.75 0 0 0.75 774.9375 604.79373] CT
0.851 0.325 0.098 RC
N
f-862814258
f
GR
GS
[0.75 0 0 0.75 778.64996 606.64529] CT
0.851 0.325 0.098 RC
N
f-862814258
f
GR
GS
[0.75 0 0 0.75 782.36252 609.6078] CT
0.851 0.325 0.098 RC
N
f-862814258
f
GR
GS
[0.75 0 0 0.75 786.07498 599.23904] CT
0.851 0.325 0.098 RC
N
f-862814258
f
GR
GS
[0.75 0 0 0.75 789.78754 604.05312] CT
0.851 0.325 0.098 RC
N
f-862814258
f
GR
GS
[0.75 0 0 0.75 793.5 608.12657] CT
0.851 0.325 0.098 RC
N
f-862814258
f
GR
GS
[0.75 0 0 0.75 797.21246 602.20155] CT
0.851 0.325 0.098 RC
N
f-862814258
f
GR
GS
[0.75 0 0 0.75 800.92502 601.83122] CT
0.851 0.325 0.098 RC
N
f-862814258
f
GR
GS
[0.75 0 0 0.75 804.63748 611.08904] CT
0.851 0.325 0.098 RC
N
f-862814258
f
GR
GS
[0.75 0 0 0.75 808.35004 592.20313] CT
0.851 0.325 0.098 RC
N
f-862814258
f
GR
GS
[0.75 0 0 0.75 812.0625 610.71875] CT
0.851 0.325 0.098 RC
N
f-862814258
f
GR
GS
[0.75 0 0 0.75 815.77496 608.12657] CT
0.851 0.325 0.098 RC
N
f-862814258
f
GR
GS
[0.75 0 0 0.75 819.48752 613.31093] CT
0.851 0.325 0.098 RC
N
f-862814258
f
GR
GS
[0.75 0 0 0.75 823.19998 610.71875] CT
0.851 0.325 0.098 RC
N
f-862814258
f
GR
GS
[0.75 0 0 0.75 826.91254 602.20155] CT
0.851 0.325 0.098 RC
N
f-862814258
f
GR
GS
[0.75 0 0 0.75 830.625 595.16563] CT
0.851 0.325 0.098 RC
N
f-862814258
f
GR
GS
[0.75 0 0 0.75 834.33746 607.38591] CT
0.851 0.325 0.098 RC
N
f-862814258
f
GR
GS
[0.75 0 0 0.75 838.05002 600.72028] CT
0.851 0.325 0.098 RC
N
f-862814258
f
GR
GS
[0.75 0 0 0.75 841.76248 605.90468] CT
0.851 0.325 0.098 RC
N
f-862814258
f
GR
GS
[0.75 0 0 0.75 845.47504 605.53435] CT
0.851 0.325 0.098 RC
N
f-862814258
f
GR
GS
[0.75 0 0 0.75 849.1875 614.42188] CT
0.851 0.325 0.098 RC
N
f-862814258
f
GR
GS
[0.75 0 0 0.75 852.89996 605.90468] CT
0.851 0.325 0.098 RC
N
f-862814258
f
GR
GS
[0.75 0 0 0.75 856.61252 612.57031] CT
0.851 0.325 0.098 RC
N
f-862814258
f
GR
GS
[0.75 0 0 0.75 860.32498 598.1281] CT
0.851 0.325 0.098 RC
N
f-862814258
f
GR
GS
[0.75 0 0 0.75 864.03754 599.60938] CT
0.851 0.325 0.098 RC
N
f-862814258
f
GR
GS
[0.75 0 0 0.75 867.75 609.23747] CT
0.851 0.325 0.098 RC
N
f-862814258
f
GR
GS
[0.75 0 0 0.75 0 0.5] CT
1 GC
N
1146 118 M
1146 84 L
1067 84 L
1067 118 L
cp
f
GR
GS
[0.75 0 0 0.75 835.5 70.52174] CT
/Helvetica 12 F
GS
[1 0 0 1 0 0] CT
0 4.5 moveto 
1 -1 scale
(train) t 
GR
GR
GS
[0.75 0 0 0.75 0 0.5] CT
0 0.447 0.741 RC
1 LJ
0.667 LW
N
1071 93.362 M
1111 93.362 L
S
GR
GS
[0.75 0 0 0.75 818.25 70.52174] CT
0 0.447 0.741 RC
N
f-862814258
f
GR
GS
[0.75 0 0 0.75 835.5 81.97826] CT
/Helvetica 12 F
GS
[1 0 0 1 0 0] CT
0 4.5 moveto 
1 -1 scale
(val) t 
GR
GR
GS
[0.75 0 0 0.75 0 0.5] CT
0.851 0.325 0.098 RC
1 LJ
0.667 LW
N
1071 108.638 M
1111 108.638 L
S
GR
GS
[0.75 0 0 0.75 818.25 81.97826] CT
0.851 0.325 0.098 RC
N
f-862814258
f
GR
GS
[0.75 0 0 0.75 0 0.5] CT
0.149 GC
10.0 ML
0.667 LW
N
1067 118 M
1067 84 L
1146 84 L
1146 118 L
cp
S
GR
GS
[0.75 0 0 0.75 0 0.5] CT
1 GC
N
1282 863 M
1677 863 L
1677 73 L
1282 73 L
cp
f
GR
GS
[0.75 0 0 0.75 0 0.5] CT
0.873 GC
1 LJ
0.667 LW
N
1282 863 M
1282 73 L
S
GR
GS
[0.75 0 0 0.75 0 0.5] CT
0.873 GC
1 LJ
0.667 LW
N
1331.375 863 M
1331.375 73 L
S
GR
GS
[0.75 0 0 0.75 0 0.5] CT
0.873 GC
1 LJ
0.667 LW
N
1380.75 863 M
1380.75 73 L
S
GR
GS
[0.75 0 0 0.75 0 0.5] CT
0.873 GC
1 LJ
0.667 LW
N
1430.125 863 M
1430.125 73 L
S
GR
GS
[0.75 0 0 0.75 0 0.5] CT
0.873 GC
1 LJ
0.667 LW
N
1479.5 863 M
1479.5 73 L
S
GR
GS
[0.75 0 0 0.75 0 0.5] CT
0.873 GC
1 LJ
0.667 LW
N
1528.875 863 M
1528.875 73 L
S
GR
GS
[0.75 0 0 0.75 0 0.5] CT
0.873 GC
1 LJ
0.667 LW
N
1578.25 863 M
1578.25 73 L
S
GR
GS
[0.75 0 0 0.75 0 0.5] CT
0.873 GC
1 LJ
0.667 LW
N
1627.625 863 M
1627.625 73 L
S
GR
GS
[0.75 0 0 0.75 0 0.5] CT
0.873 GC
1 LJ
0.667 LW
N
1677 863 M
1677 73 L
S
GR
GS
[0.75 0 0 0.75 0 0.5] CT
0.873 GC
1 LJ
0.667 LW
N
1677 863 M
1282 863 L
S
GR
GS
[0.75 0 0 0.75 0 0.5] CT
0.873 GC
1 LJ
0.667 LW
N
1677 784 M
1282 784 L
S
GR
GS
[0.75 0 0 0.75 0 0.5] CT
0.873 GC
1 LJ
0.667 LW
N
1677 705 M
1282 705 L
S
GR
GS
[0.75 0 0 0.75 0 0.5] CT
0.873 GC
1 LJ
0.667 LW
N
1677 626 M
1282 626 L
S
GR
GS
[0.75 0 0 0.75 0 0.5] CT
0.873 GC
1 LJ
0.667 LW
N
1677 547 M
1282 547 L
S
GR
GS
[0.75 0 0 0.75 0 0.5] CT
0.873 GC
1 LJ
0.667 LW
N
1677 468 M
1282 468 L
S
GR
GS
[0.75 0 0 0.75 0 0.5] CT
0.873 GC
1 LJ
0.667 LW
N
1677 389 M
1282 389 L
S
GR
GS
[0.75 0 0 0.75 0 0.5] CT
0.873 GC
1 LJ
0.667 LW
N
1677 310 M
1282 310 L
S
GR
GS
[0.75 0 0 0.75 0 0.5] CT
0.873 GC
1 LJ
0.667 LW
N
1677 231 M
1282 231 L
S
GR
GS
[0.75 0 0 0.75 0 0.5] CT
0.873 GC
1 LJ
0.667 LW
N
1677 152 M
1282 152 L
S
GR
GS
[0.75 0 0 0.75 0 0.5] CT
0.873 GC
1 LJ
0.667 LW
N
1677 73 M
1282 73 L
S
GR
GS
[0.75 0 0 0.75 0 0.5] CT
0.149 GC
2 setlinecap
1 LJ
0.667 LW
N
1282 863 M
1677 863 L
S
GR
GS
[0.75 0 0 0.75 0 0.5] CT
0.149 GC
2 setlinecap
1 LJ
0.667 LW
N
1282 73 M
1677 73 L
S
GR
GS
[0.75 0 0 0.75 0 0.5] CT
0.149 GC
2 setlinecap
1 LJ
0.667 LW
N
1282 863 M
1282 855.1 L
S
GR
GS
[0.75 0 0 0.75 0 0.5] CT
0.149 GC
2 setlinecap
1 LJ
0.667 LW
N
1331.375 863 M
1331.375 855.1 L
S
GR
GS
[0.75 0 0 0.75 0 0.5] CT
0.149 GC
2 setlinecap
1 LJ
0.667 LW
N
1380.75 863 M
1380.75 855.1 L
S
GR
GS
[0.75 0 0 0.75 0 0.5] CT
0.149 GC
2 setlinecap
1 LJ
0.667 LW
N
1430.125 863 M
1430.125 855.1 L
S
GR
GS
[0.75 0 0 0.75 0 0.5] CT
0.149 GC
2 setlinecap
1 LJ
0.667 LW
N
1479.5 863 M
1479.5 855.1 L
S
GR
GS
[0.75 0 0 0.75 0 0.5] CT
0.149 GC
2 setlinecap
1 LJ
0.667 LW
N
1528.875 863 M
1528.875 855.1 L
S
GR
GS
[0.75 0 0 0.75 0 0.5] CT
0.149 GC
2 setlinecap
1 LJ
0.667 LW
N
1578.25 863 M
1578.25 855.1 L
S
GR
GS
[0.75 0 0 0.75 0 0.5] CT
0.149 GC
2 setlinecap
1 LJ
0.667 LW
N
1627.625 863 M
1627.625 855.1 L
S
GR
GS
[0.75 0 0 0.75 0 0.5] CT
0.149 GC
2 setlinecap
1 LJ
0.667 LW
N
1677 863 M
1677 855.1 L
S
GR
GS
[0.75 0 0 0.75 0 0.5] CT
0.149 GC
2 setlinecap
1 LJ
0.667 LW
N
1282 73 M
1282 80.9 L
S
GR
GS
[0.75 0 0 0.75 0 0.5] CT
0.149 GC
2 setlinecap
1 LJ
0.667 LW
N
1331.375 73 M
1331.375 80.9 L
S
GR
GS
[0.75 0 0 0.75 0 0.5] CT
0.149 GC
2 setlinecap
1 LJ
0.667 LW
N
1380.75 73 M
1380.75 80.9 L
S
GR
GS
[0.75 0 0 0.75 0 0.5] CT
0.149 GC
2 setlinecap
1 LJ
0.667 LW
N
1430.125 73 M
1430.125 80.9 L
S
GR
GS
[0.75 0 0 0.75 0 0.5] CT
0.149 GC
2 setlinecap
1 LJ
0.667 LW
N
1479.5 73 M
1479.5 80.9 L
S
GR
GS
[0.75 0 0 0.75 0 0.5] CT
0.149 GC
2 setlinecap
1 LJ
0.667 LW
N
1528.875 73 M
1528.875 80.9 L
S
GR
GS
[0.75 0 0 0.75 0 0.5] CT
0.149 GC
2 setlinecap
1 LJ
0.667 LW
N
1578.25 73 M
1578.25 80.9 L
S
GR
GS
[0.75 0 0 0.75 0 0.5] CT
0.149 GC
2 setlinecap
1 LJ
0.667 LW
N
1627.625 73 M
1627.625 80.9 L
S
GR
GS
[0.75 0 0 0.75 0 0.5] CT
0.149 GC
2 setlinecap
1 LJ
0.667 LW
N
1677 73 M
1677 80.9 L
S
GR
GS
[0.75 0 0 0.75 961.5 651.74998] CT
0.149 GC
/Helvetica 13.333 F
GS
[1 0 0 1 0 0] CT
-4.5 13 moveto 
1 -1 scale
(0) t 
GR
GR
GS
[0.75 0 0 0.75 998.53125 651.74998] CT
0.149 GC
/Helvetica 13.333 F
GS
[1 0 0 1 0 0] CT
-8.5 13 moveto 
1 -1 scale
(10) t 
GR
GR
GS
[0.75 0 0 0.75 1035.5625 651.74998] CT
0.149 GC
/Helvetica 13.333 F
GS
[1 0 0 1 0 0] CT
-8.5 13 moveto 
1 -1 scale
(20) t 
GR
GR
GS
[0.75 0 0 0.75 1072.59375 651.74998] CT
0.149 GC
/Helvetica 13.333 F
GS
[1 0 0 1 0 0] CT
-8.5 13 moveto 
1 -1 scale
(30) t 
GR
GR
GS
[0.75 0 0 0.75 1109.625 651.74998] CT
0.149 GC
/Helvetica 13.333 F
GS
[1 0 0 1 0 0] CT
-8.5 13 moveto 
1 -1 scale
(40) t 
GR
GR
GS
[0.75 0 0 0.75 1146.65625 651.74998] CT
0.149 GC
/Helvetica 13.333 F
GS
[1 0 0 1 0 0] CT
-8.5 13 moveto 
1 -1 scale
(50) t 
GR
GR
GS
[0.75 0 0 0.75 1183.6875 651.74998] CT
0.149 GC
/Helvetica 13.333 F
GS
[1 0 0 1 0 0] CT
-8.5 13 moveto 
1 -1 scale
(60) t 
GR
GR
GS
[0.75 0 0 0.75 1220.71875 651.74998] CT
0.149 GC
/Helvetica 13.333 F
GS
[1 0 0 1 0 0] CT
-8.5 13 moveto 
1 -1 scale
(70) t 
GR
GR
GS
[0.75 0 0 0.75 1257.75 651.74998] CT
0.149 GC
/Helvetica 13.333 F
GS
[1 0 0 1 0 0] CT
-8.5 13 moveto 
1 -1 scale
(80) t 
GR
GR
GS
[0.75 0 0 0.75 1109.62518 665.50002] CT
0.149 GC
/Helvetica 14.667 F
GS
[1 0 0 1 0 0] CT
-22.5 14 moveto 
1 -1 scale
(epoch) t 
GR
GR
GS
[0.75 0 0 0.75 0 0.5] CT
0.149 GC
2 setlinecap
1 LJ
0.667 LW
N
1282 863 M
1282 73 L
S
GR
GS
[0.75 0 0 0.75 0 0.5] CT
0.149 GC
2 setlinecap
1 LJ
0.667 LW
N
1677 863 M
1677 73 L
S
GR
GS
[0.75 0 0 0.75 0 0.5] CT
0.149 GC
2 setlinecap
1 LJ
0.667 LW
N
1282 863 M
1289.9 863 L
S
GR
GS
[0.75 0 0 0.75 0 0.5] CT
0.149 GC
2 setlinecap
1 LJ
0.667 LW
N
1282 784 M
1289.9 784 L
S
GR
GS
[0.75 0 0 0.75 0 0.5] CT
0.149 GC
2 setlinecap
1 LJ
0.667 LW
N
1282 705 M
1289.9 705 L
S
GR
GS
[0.75 0 0 0.75 0 0.5] CT
0.149 GC
2 setlinecap
1 LJ
0.667 LW
N
1282 626 M
1289.9 626 L
S
GR
GS
[0.75 0 0 0.75 0 0.5] CT
0.149 GC
2 setlinecap
1 LJ
0.667 LW
N
1282 547 M
1289.9 547 L
S
GR
GS
[0.75 0 0 0.75 0 0.5] CT
0.149 GC
2 setlinecap
1 LJ
0.667 LW
N
1282 468 M
1289.9 468 L
S
GR
GS
[0.75 0 0 0.75 0 0.5] CT
0.149 GC
2 setlinecap
1 LJ
0.667 LW
N
1282 389 M
1289.9 389 L
S
GR
GS
[0.75 0 0 0.75 0 0.5] CT
0.149 GC
2 setlinecap
1 LJ
0.667 LW
N
1282 310 M
1289.9 310 L
S
GR
GS
[0.75 0 0 0.75 0 0.5] CT
0.149 GC
2 setlinecap
1 LJ
0.667 LW
N
1282 231 M
1289.9 231 L
S
GR
GS
[0.75 0 0 0.75 0 0.5] CT
0.149 GC
2 setlinecap
1 LJ
0.667 LW
N
1282 152 M
1289.9 152 L
S
GR
GS
[0.75 0 0 0.75 0 0.5] CT
0.149 GC
2 setlinecap
1 LJ
0.667 LW
N
1282 73 M
1289.9 73 L
S
GR
GS
[0.75 0 0 0.75 0 0.5] CT
0.149 GC
2 setlinecap
1 LJ
0.667 LW
N
1677 863 M
1669.1 863 L
S
GR
GS
[0.75 0 0 0.75 0 0.5] CT
0.149 GC
2 setlinecap
1 LJ
0.667 LW
N
1677 784 M
1669.1 784 L
S
GR
GS
[0.75 0 0 0.75 0 0.5] CT
0.149 GC
2 setlinecap
1 LJ
0.667 LW
N
1677 705 M
1669.1 705 L
S
GR
GS
[0.75 0 0 0.75 0 0.5] CT
0.149 GC
2 setlinecap
1 LJ
0.667 LW
N
1677 626 M
1669.1 626 L
S
GR
GS
[0.75 0 0 0.75 0 0.5] CT
0.149 GC
2 setlinecap
1 LJ
0.667 LW
N
1677 547 M
1669.1 547 L
S
GR
GS
[0.75 0 0 0.75 0 0.5] CT
0.149 GC
2 setlinecap
1 LJ
0.667 LW
N
1677 468 M
1669.1 468 L
S
GR
GS
[0.75 0 0 0.75 0 0.5] CT
0.149 GC
2 setlinecap
1 LJ
0.667 LW
N
1677 389 M
1669.1 389 L
S
GR
GS
[0.75 0 0 0.75 0 0.5] CT
0.149 GC
2 setlinecap
1 LJ
0.667 LW
N
1677 310 M
1669.1 310 L
S
GR
GS
[0.75 0 0 0.75 0 0.5] CT
0.149 GC
2 setlinecap
1 LJ
0.667 LW
N
1677 231 M
1669.1 231 L
S
GR
GS
[0.75 0 0 0.75 0 0.5] CT
0.149 GC
2 setlinecap
1 LJ
0.667 LW
N
1677 152 M
1669.1 152 L
S
GR
GS
[0.75 0 0 0.75 0 0.5] CT
0.149 GC
2 setlinecap
1 LJ
0.667 LW
N
1677 73 M
1669.1 73 L
S
GR
GS
[0.75 0 0 0.75 957.49997 647.75] CT
0.149 GC
/Helvetica 13.333 F
GS
[1 0 0 1 0 0] CT
-14 4.5 moveto 
1 -1 scale
(-1) t 
GR
GR
GS
[0.75 0 0 0.75 957.49997 588.5] CT
0.149 GC
/Helvetica 13.333 F
GS
[1 0 0 1 0 0] CT
-26 4.5 moveto 
1 -1 scale
(-0.8) t 
GR
GR
GS
[0.75 0 0 0.75 957.49997 529.25] CT
0.149 GC
/Helvetica 13.333 F
GS
[1 0 0 1 0 0] CT
-26 4.5 moveto 
1 -1 scale
(-0.6) t 
GR
GR
GS
[0.75 0 0 0.75 957.49997 470] CT
0.149 GC
/Helvetica 13.333 F
GS
[1 0 0 1 0 0] CT
-26 4.5 moveto 
1 -1 scale
(-0.4) t 
GR
GR
GS
[0.75 0 0 0.75 957.49997 410.75] CT
0.149 GC
/Helvetica 13.333 F
GS
[1 0 0 1 0 0] CT
-26 4.5 moveto 
1 -1 scale
(-0.2) t 
GR
GR
GS
[0.75 0 0 0.75 957.49997 351.5] CT
0.149 GC
/Helvetica 13.333 F
GS
[1 0 0 1 0 0] CT
-9 4.5 moveto 
1 -1 scale
(0) t 
GR
GR
GS
[0.75 0 0 0.75 957.49997 292.25] CT
0.149 GC
/Helvetica 13.333 F
GS
[1 0 0 1 0 0] CT
-22 4.5 moveto 
1 -1 scale
(0.2) t 
GR
GR
GS
[0.75 0 0 0.75 957.49997 233] CT
0.149 GC
/Helvetica 13.333 F
GS
[1 0 0 1 0 0] CT
-22 4.5 moveto 
1 -1 scale
(0.4) t 
GR
GR
GS
[0.75 0 0 0.75 957.49997 173.74999] CT
0.149 GC
/Helvetica 13.333 F
GS
[1 0 0 1 0 0] CT
-22 4.5 moveto 
1 -1 scale
(0.6) t 
GR
GR
GS
[0.75 0 0 0.75 957.49997 114.5] CT
0.149 GC
/Helvetica 13.333 F
GS
[1 0 0 1 0 0] CT
-22 4.5 moveto 
1 -1 scale
(0.8) t 
GR
GR
GS
[0.75 0 0 0.75 957.49997 55.25] CT
0.149 GC
/Helvetica 13.333 F
GS
[1 0 0 1 0 0] CT
-9 4.5 moveto 
1 -1 scale
(1) t 
GR
GR
GS
[0.75 0 0 0.75 1109.6261 53.18749] CT
/Helvetica-Bold 14.667 F
GS
[1 0 0 1 0 0] CT
-31.5 -4 moveto 
1 -1 scale
(top5err) t 
GR
GR
GS
[0.75 0 0 0.75 0 0.5] CT
0 0.447 0.741 RC
1 LJ
0.667 LW
N
1286.938 468 M
1291.875 468 L
1296.813 468 L
1301.75 468 L
1306.688 468 L
1311.625 468 L
1316.563 468 L
1321.5 468 L
1326.438 468 L
1331.375 468 L
1336.313 468 L
1341.25 468 L
1346.188 468 L
1351.125 468 L
1356.063 468 L
1361 468 L
1365.938 468 L
1370.875 468 L
1375.813 468 L
1380.75 468 L
1385.688 468 L
1390.625 468 L
1395.563 468 L
1400.5 468 L
1405.438 468 L
1410.375 468 L
1415.313 468 L
1420.25 468 L
1425.188 468 L
1430.125 468 L
1435.063 468 L
1440 468 L
1444.938 468 L
1449.875 468 L
1454.813 468 L
1459.75 468 L
1464.688 468 L
1469.625 468 L
1474.563 468 L
1479.5 468 L
1484.438 468 L
1489.375 468 L
1494.313 468 L
1499.25 468 L
1504.188 468 L
1509.125 468 L
1514.063 468 L
1519 468 L
1523.938 468 L
1528.875 468 L
1533.813 468 L
1538.75 468 L
1543.688 468 L
1548.625 468 L
1553.563 468 L
1558.5 468 L
1563.438 468 L
1568.375 468 L
1573.313 468 L
1578.25 468 L
1583.188 468 L
1588.125 468 L
1593.063 468 L
1598 468 L
1602.938 468 L
1607.875 468 L
1612.813 468 L
1617.75 468 L
1622.688 468 L
1627.625 468 L
1632.563 468 L
1637.5 468 L
1642.438 468 L
1647.375 468 L
1652.313 468 L
1657.25 468 L
1662.188 468 L
1667.125 468 L
1672.063 468 L
1677 468 L
S
GR
GS
[0.75 0 0 0.75 965.20313 351.5] CT
0 0.447 0.741 RC
N
f-862814258
f
GR
GS
[0.75 0 0 0.75 968.90625 351.5] CT
0 0.447 0.741 RC
N
f-862814258
f
GR
GS
[0.75 0 0 0.75 972.60938 351.5] CT
0 0.447 0.741 RC
N
f-862814258
f
GR
GS
[0.75 0 0 0.75 976.3125 351.5] CT
0 0.447 0.741 RC
N
f-862814258
f
GR
GS
[0.75 0 0 0.75 980.01563 351.5] CT
0 0.447 0.741 RC
N
f-862814258
f
GR
GS
[0.75 0 0 0.75 983.71875 351.5] CT
0 0.447 0.741 RC
N
f-862814258
f
GR
GS
[0.75 0 0 0.75 987.42188 351.5] CT
0 0.447 0.741 RC
N
f-862814258
f
GR
GS
[0.75 0 0 0.75 991.125 351.5] CT
0 0.447 0.741 RC
N
f-862814258
f
GR
GS
[0.75 0 0 0.75 994.82813 351.5] CT
0 0.447 0.741 RC
N
f-862814258
f
GR
GS
[0.75 0 0 0.75 998.53125 351.5] CT
0 0.447 0.741 RC
N
f-862814258
f
GR
GS
[0.75 0 0 0.75 1002.23438 351.5] CT
0 0.447 0.741 RC
N
f-862814258
f
GR
GS
[0.75 0 0 0.75 1005.9375 351.5] CT
0 0.447 0.741 RC
N
f-862814258
f
GR
GS
[0.75 0 0 0.75 1009.64063 351.5] CT
0 0.447 0.741 RC
N
f-862814258
f
GR
GS
[0.75 0 0 0.75 1013.34375 351.5] CT
0 0.447 0.741 RC
N
f-862814258
f
GR
GS
[0.75 0 0 0.75 1017.04688 351.5] CT
0 0.447 0.741 RC
N
f-862814258
f
GR
GS
[0.75 0 0 0.75 1020.75 351.5] CT
0 0.447 0.741 RC
N
f-862814258
f
GR
GS
[0.75 0 0 0.75 1024.45313 351.5] CT
0 0.447 0.741 RC
N
f-862814258
f
GR
GS
[0.75 0 0 0.75 1028.15625 351.5] CT
0 0.447 0.741 RC
N
f-862814258
f
GR
GS
[0.75 0 0 0.75 1031.85938 351.5] CT
0 0.447 0.741 RC
N
f-862814258
f
GR
GS
[0.75 0 0 0.75 1035.5625 351.5] CT
0 0.447 0.741 RC
N
f-862814258
f
GR
GS
[0.75 0 0 0.75 1039.26563 351.5] CT
0 0.447 0.741 RC
N
f-862814258
f
GR
GS
[0.75 0 0 0.75 1042.96875 351.5] CT
0 0.447 0.741 RC
N
f-862814258
f
GR
GS
[0.75 0 0 0.75 1046.67188 351.5] CT
0 0.447 0.741 RC
N
f-862814258
f
GR
GS
[0.75 0 0 0.75 1050.375 351.5] CT
0 0.447 0.741 RC
N
f-862814258
f
GR
GS
[0.75 0 0 0.75 1054.07813 351.5] CT
0 0.447 0.741 RC
N
f-862814258
f
GR
GS
[0.75 0 0 0.75 1057.78125 351.5] CT
0 0.447 0.741 RC
N
f-862814258
f
GR
GS
[0.75 0 0 0.75 1061.48438 351.5] CT
0 0.447 0.741 RC
N
f-862814258
f
GR
GS
[0.75 0 0 0.75 1065.1875 351.5] CT
0 0.447 0.741 RC
N
f-862814258
f
GR
GS
[0.75 0 0 0.75 1068.89063 351.5] CT
0 0.447 0.741 RC
N
f-862814258
f
GR
GS
[0.75 0 0 0.75 1072.59375 351.5] CT
0 0.447 0.741 RC
N
f-862814258
f
GR
GS
[0.75 0 0 0.75 1076.29688 351.5] CT
0 0.447 0.741 RC
N
f-862814258
f
GR
GS
[0.75 0 0 0.75 1080 351.5] CT
0 0.447 0.741 RC
N
f-862814258
f
GR
GS
[0.75 0 0 0.75 1083.70313 351.5] CT
0 0.447 0.741 RC
N
f-862814258
f
GR
GS
[0.75 0 0 0.75 1087.40625 351.5] CT
0 0.447 0.741 RC
N
f-862814258
f
GR
GS
[0.75 0 0 0.75 1091.10938 351.5] CT
0 0.447 0.741 RC
N
f-862814258
f
GR
GS
[0.75 0 0 0.75 1094.8125 351.5] CT
0 0.447 0.741 RC
N
f-862814258
f
GR
GS
[0.75 0 0 0.75 1098.51563 351.5] CT
0 0.447 0.741 RC
N
f-862814258
f
GR
GS
[0.75 0 0 0.75 1102.21875 351.5] CT
0 0.447 0.741 RC
N
f-862814258
f
GR
GS
[0.75 0 0 0.75 1105.92188 351.5] CT
0 0.447 0.741 RC
N
f-862814258
f
GR
GS
[0.75 0 0 0.75 1109.625 351.5] CT
0 0.447 0.741 RC
N
f-862814258
f
GR
GS
[0.75 0 0 0.75 1113.32813 351.5] CT
0 0.447 0.741 RC
N
f-862814258
f
GR
GS
[0.75 0 0 0.75 1117.03125 351.5] CT
0 0.447 0.741 RC
N
f-862814258
f
GR
GS
[0.75 0 0 0.75 1120.73438 351.5] CT
0 0.447 0.741 RC
N
f-862814258
f
GR
GS
[0.75 0 0 0.75 1124.4375 351.5] CT
0 0.447 0.741 RC
N
f-862814258
f
GR
GS
[0.75 0 0 0.75 1128.14063 351.5] CT
0 0.447 0.741 RC
N
f-862814258
f
GR
GS
[0.75 0 0 0.75 1131.84375 351.5] CT
0 0.447 0.741 RC
N
f-862814258
f
GR
GS
[0.75 0 0 0.75 1135.54688 351.5] CT
0 0.447 0.741 RC
N
f-862814258
f
GR
GS
[0.75 0 0 0.75 1139.25 351.5] CT
0 0.447 0.741 RC
N
f-862814258
f
GR
GS
[0.75 0 0 0.75 1142.95313 351.5] CT
0 0.447 0.741 RC
N
f-862814258
f
GR
GS
[0.75 0 0 0.75 1146.65625 351.5] CT
0 0.447 0.741 RC
N
f-862814258
f
GR
GS
[0.75 0 0 0.75 1150.35938 351.5] CT
0 0.447 0.741 RC
N
f-862814258
f
GR
GS
[0.75 0 0 0.75 1154.0625 351.5] CT
0 0.447 0.741 RC
N
f-862814258
f
GR
GS
[0.75 0 0 0.75 1157.76563 351.5] CT
0 0.447 0.741 RC
N
f-862814258
f
GR
GS
[0.75 0 0 0.75 1161.46875 351.5] CT
0 0.447 0.741 RC
N
f-862814258
f
GR
GS
[0.75 0 0 0.75 1165.17188 351.5] CT
0 0.447 0.741 RC
N
f-862814258
f
GR
GS
[0.75 0 0 0.75 1168.875 351.5] CT
0 0.447 0.741 RC
N
f-862814258
f
GR
GS
[0.75 0 0 0.75 1172.57813 351.5] CT
0 0.447 0.741 RC
N
f-862814258
f
GR
GS
[0.75 0 0 0.75 1176.28125 351.5] CT
0 0.447 0.741 RC
N
f-862814258
f
GR
GS
[0.75 0 0 0.75 1179.98438 351.5] CT
0 0.447 0.741 RC
N
f-862814258
f
GR
GS
[0.75 0 0 0.75 1183.6875 351.5] CT
0 0.447 0.741 RC
N
f-862814258
f
GR
GS
[0.75 0 0 0.75 1187.39063 351.5] CT
0 0.447 0.741 RC
N
f-862814258
f
GR
GS
[0.75 0 0 0.75 1191.09375 351.5] CT
0 0.447 0.741 RC
N
f-862814258
f
GR
GS
[0.75 0 0 0.75 1194.79688 351.5] CT
0 0.447 0.741 RC
N
f-862814258
f
GR
GS
[0.75 0 0 0.75 1198.5 351.5] CT
0 0.447 0.741 RC
N
f-862814258
f
GR
GS
[0.75 0 0 0.75 1202.20313 351.5] CT
0 0.447 0.741 RC
N
f-862814258
f
GR
GS
[0.75 0 0 0.75 1205.90625 351.5] CT
0 0.447 0.741 RC
N
f-862814258
f
GR
GS
[0.75 0 0 0.75 1209.60938 351.5] CT
0 0.447 0.741 RC
N
f-862814258
f
GR
GS
[0.75 0 0 0.75 1213.3125 351.5] CT
0 0.447 0.741 RC
N
f-862814258
f
GR
GS
[0.75 0 0 0.75 1217.01563 351.5] CT
0 0.447 0.741 RC
N
f-862814258
f
GR
GS
[0.75 0 0 0.75 1220.71875 351.5] CT
0 0.447 0.741 RC
N
f-862814258
f
GR
GS
[0.75 0 0 0.75 1224.42188 351.5] CT
0 0.447 0.741 RC
N
f-862814258
f
GR
GS
[0.75 0 0 0.75 1228.125 351.5] CT
0 0.447 0.741 RC
N
f-862814258
f
GR
GS
[0.75 0 0 0.75 1231.82813 351.5] CT
0 0.447 0.741 RC
N
f-862814258
f
GR
GS
[0.75 0 0 0.75 1235.53125 351.5] CT
0 0.447 0.741 RC
N
f-862814258
f
GR
GS
[0.75 0 0 0.75 1239.23438 351.5] CT
0 0.447 0.741 RC
N
f-862814258
f
GR
GS
[0.75 0 0 0.75 1242.9375 351.5] CT
0 0.447 0.741 RC
N
f-862814258
f
GR
GS
[0.75 0 0 0.75 1246.64063 351.5] CT
0 0.447 0.741 RC
N
f-862814258
f
GR
GS
[0.75 0 0 0.75 1250.34375 351.5] CT
0 0.447 0.741 RC
N
f-862814258
f
GR
GS
[0.75 0 0 0.75 1254.04688 351.5] CT
0 0.447 0.741 RC
N
f-862814258
f
GR
GS
[0.75 0 0 0.75 1257.75 351.5] CT
0 0.447 0.741 RC
N
f-862814258
f
GR
GS
[0.75 0 0 0.75 0 0.5] CT
0.851 0.325 0.098 RC
1 LJ
0.667 LW
N
1286.938 468 M
1291.875 468 L
1296.813 468 L
1301.75 468 L
1306.688 468 L
1311.625 468 L
1316.563 468 L
1321.5 468 L
1326.438 468 L
1331.375 468 L
1336.313 468 L
1341.25 468 L
1346.188 468 L
1351.125 468 L
1356.063 468 L
1361 468 L
1365.938 468 L
1370.875 468 L
1375.813 468 L
1380.75 468 L
1385.688 468 L
1390.625 468 L
1395.563 468 L
1400.5 468 L
1405.438 468 L
1410.375 468 L
1415.313 468 L
1420.25 468 L
1425.188 468 L
1430.125 468 L
1435.063 468 L
1440 468 L
1444.938 468 L
1449.875 468 L
1454.813 468 L
1459.75 468 L
1464.688 468 L
1469.625 468 L
1474.563 468 L
1479.5 468 L
1484.438 468 L
1489.375 468 L
1494.313 468 L
1499.25 468 L
1504.188 468 L
1509.125 468 L
1514.063 468 L
1519 468 L
1523.938 468 L
1528.875 468 L
1533.813 468 L
1538.75 468 L
1543.688 468 L
1548.625 468 L
1553.563 468 L
1558.5 468 L
1563.438 468 L
1568.375 468 L
1573.313 468 L
1578.25 468 L
1583.188 468 L
1588.125 468 L
1593.063 468 L
1598 468 L
1602.938 468 L
1607.875 468 L
1612.813 468 L
1617.75 468 L
1622.688 468 L
1627.625 468 L
1632.563 468 L
1637.5 468 L
1642.438 468 L
1647.375 468 L
1652.313 468 L
1657.25 468 L
1662.188 468 L
1667.125 468 L
1672.063 468 L
1677 468 L
S
GR
GS
[0.75 0 0 0.75 965.20313 351.5] CT
0.851 0.325 0.098 RC
N
f-862814258
f
GR
GS
[0.75 0 0 0.75 968.90625 351.5] CT
0.851 0.325 0.098 RC
N
f-862814258
f
GR
GS
[0.75 0 0 0.75 972.60938 351.5] CT
0.851 0.325 0.098 RC
N
f-862814258
f
GR
GS
[0.75 0 0 0.75 976.3125 351.5] CT
0.851 0.325 0.098 RC
N
f-862814258
f
GR
GS
[0.75 0 0 0.75 980.01563 351.5] CT
0.851 0.325 0.098 RC
N
f-862814258
f
GR
GS
[0.75 0 0 0.75 983.71875 351.5] CT
0.851 0.325 0.098 RC
N
f-862814258
f
GR
GS
[0.75 0 0 0.75 987.42188 351.5] CT
0.851 0.325 0.098 RC
N
f-862814258
f
GR
GS
[0.75 0 0 0.75 991.125 351.5] CT
0.851 0.325 0.098 RC
N
f-862814258
f
GR
GS
[0.75 0 0 0.75 994.82813 351.5] CT
0.851 0.325 0.098 RC
N
f-862814258
f
GR
GS
[0.75 0 0 0.75 998.53125 351.5] CT
0.851 0.325 0.098 RC
N
f-862814258
f
GR
GS
[0.75 0 0 0.75 1002.23438 351.5] CT
0.851 0.325 0.098 RC
N
f-862814258
f
GR
GS
[0.75 0 0 0.75 1005.9375 351.5] CT
0.851 0.325 0.098 RC
N
f-862814258
f
GR
GS
[0.75 0 0 0.75 1009.64063 351.5] CT
0.851 0.325 0.098 RC
N
f-862814258
f
GR
GS
[0.75 0 0 0.75 1013.34375 351.5] CT
0.851 0.325 0.098 RC
N
f-862814258
f
GR
GS
[0.75 0 0 0.75 1017.04688 351.5] CT
0.851 0.325 0.098 RC
N
f-862814258
f
GR
GS
[0.75 0 0 0.75 1020.75 351.5] CT
0.851 0.325 0.098 RC
N
f-862814258
f
GR
GS
[0.75 0 0 0.75 1024.45313 351.5] CT
0.851 0.325 0.098 RC
N
f-862814258
f
GR
GS
[0.75 0 0 0.75 1028.15625 351.5] CT
0.851 0.325 0.098 RC
N
f-862814258
f
GR
GS
[0.75 0 0 0.75 1031.85938 351.5] CT
0.851 0.325 0.098 RC
N
f-862814258
f
GR
GS
[0.75 0 0 0.75 1035.5625 351.5] CT
0.851 0.325 0.098 RC
N
f-862814258
f
GR
GS
[0.75 0 0 0.75 1039.26563 351.5] CT
0.851 0.325 0.098 RC
N
f-862814258
f
GR
GS
[0.75 0 0 0.75 1042.96875 351.5] CT
0.851 0.325 0.098 RC
N
f-862814258
f
GR
GS
[0.75 0 0 0.75 1046.67188 351.5] CT
0.851 0.325 0.098 RC
N
f-862814258
f
GR
GS
[0.75 0 0 0.75 1050.375 351.5] CT
0.851 0.325 0.098 RC
N
f-862814258
f
GR
GS
[0.75 0 0 0.75 1054.07813 351.5] CT
0.851 0.325 0.098 RC
N
f-862814258
f
GR
GS
[0.75 0 0 0.75 1057.78125 351.5] CT
0.851 0.325 0.098 RC
N
f-862814258
f
GR
GS
[0.75 0 0 0.75 1061.48438 351.5] CT
0.851 0.325 0.098 RC
N
f-862814258
f
GR
GS
[0.75 0 0 0.75 1065.1875 351.5] CT
0.851 0.325 0.098 RC
N
f-862814258
f
GR
GS
[0.75 0 0 0.75 1068.89063 351.5] CT
0.851 0.325 0.098 RC
N
f-862814258
f
GR
GS
[0.75 0 0 0.75 1072.59375 351.5] CT
0.851 0.325 0.098 RC
N
f-862814258
f
GR
GS
[0.75 0 0 0.75 1076.29688 351.5] CT
0.851 0.325 0.098 RC
N
f-862814258
f
GR
GS
[0.75 0 0 0.75 1080 351.5] CT
0.851 0.325 0.098 RC
N
f-862814258
f
GR
GS
[0.75 0 0 0.75 1083.70313 351.5] CT
0.851 0.325 0.098 RC
N
f-862814258
f
GR
GS
[0.75 0 0 0.75 1087.40625 351.5] CT
0.851 0.325 0.098 RC
N
f-862814258
f
GR
GS
[0.75 0 0 0.75 1091.10938 351.5] CT
0.851 0.325 0.098 RC
N
f-862814258
f
GR
GS
[0.75 0 0 0.75 1094.8125 351.5] CT
0.851 0.325 0.098 RC
N
f-862814258
f
GR
GS
[0.75 0 0 0.75 1098.51563 351.5] CT
0.851 0.325 0.098 RC
N
f-862814258
f
GR
GS
[0.75 0 0 0.75 1102.21875 351.5] CT
0.851 0.325 0.098 RC
N
f-862814258
f
GR
GS
[0.75 0 0 0.75 1105.92188 351.5] CT
0.851 0.325 0.098 RC
N
f-862814258
f
GR
GS
[0.75 0 0 0.75 1109.625 351.5] CT
0.851 0.325 0.098 RC
N
f-862814258
f
GR
GS
[0.75 0 0 0.75 1113.32813 351.5] CT
0.851 0.325 0.098 RC
N
f-862814258
f
GR
GS
[0.75 0 0 0.75 1117.03125 351.5] CT
0.851 0.325 0.098 RC
N
f-862814258
f
GR
GS
[0.75 0 0 0.75 1120.73438 351.5] CT
0.851 0.325 0.098 RC
N
f-862814258
f
GR
GS
[0.75 0 0 0.75 1124.4375 351.5] CT
0.851 0.325 0.098 RC
N
f-862814258
f
GR
GS
[0.75 0 0 0.75 1128.14063 351.5] CT
0.851 0.325 0.098 RC
N
f-862814258
f
GR
GS
[0.75 0 0 0.75 1131.84375 351.5] CT
0.851 0.325 0.098 RC
N
f-862814258
f
GR
GS
[0.75 0 0 0.75 1135.54688 351.5] CT
0.851 0.325 0.098 RC
N
f-862814258
f
GR
GS
[0.75 0 0 0.75 1139.25 351.5] CT
0.851 0.325 0.098 RC
N
f-862814258
f
GR
GS
[0.75 0 0 0.75 1142.95313 351.5] CT
0.851 0.325 0.098 RC
N
f-862814258
f
GR
GS
[0.75 0 0 0.75 1146.65625 351.5] CT
0.851 0.325 0.098 RC
N
f-862814258
f
GR
GS
[0.75 0 0 0.75 1150.35938 351.5] CT
0.851 0.325 0.098 RC
N
f-862814258
f
GR
GS
[0.75 0 0 0.75 1154.0625 351.5] CT
0.851 0.325 0.098 RC
N
f-862814258
f
GR
GS
[0.75 0 0 0.75 1157.76563 351.5] CT
0.851 0.325 0.098 RC
N
f-862814258
f
GR
GS
[0.75 0 0 0.75 1161.46875 351.5] CT
0.851 0.325 0.098 RC
N
f-862814258
f
GR
GS
[0.75 0 0 0.75 1165.17188 351.5] CT
0.851 0.325 0.098 RC
N
f-862814258
f
GR
GS
[0.75 0 0 0.75 1168.875 351.5] CT
0.851 0.325 0.098 RC
N
f-862814258
f
GR
GS
[0.75 0 0 0.75 1172.57813 351.5] CT
0.851 0.325 0.098 RC
N
f-862814258
f
GR
GS
[0.75 0 0 0.75 1176.28125 351.5] CT
0.851 0.325 0.098 RC
N
f-862814258
f
GR
GS
[0.75 0 0 0.75 1179.98438 351.5] CT
0.851 0.325 0.098 RC
N
f-862814258
f
GR
GS
[0.75 0 0 0.75 1183.6875 351.5] CT
0.851 0.325 0.098 RC
N
f-862814258
f
GR
GS
[0.75 0 0 0.75 1187.39063 351.5] CT
0.851 0.325 0.098 RC
N
f-862814258
f
GR
GS
[0.75 0 0 0.75 1191.09375 351.5] CT
0.851 0.325 0.098 RC
N
f-862814258
f
GR
GS
[0.75 0 0 0.75 1194.79688 351.5] CT
0.851 0.325 0.098 RC
N
f-862814258
f
GR
GS
[0.75 0 0 0.75 1198.5 351.5] CT
0.851 0.325 0.098 RC
N
f-862814258
f
GR
GS
[0.75 0 0 0.75 1202.20313 351.5] CT
0.851 0.325 0.098 RC
N
f-862814258
f
GR
GS
[0.75 0 0 0.75 1205.90625 351.5] CT
0.851 0.325 0.098 RC
N
f-862814258
f
GR
GS
[0.75 0 0 0.75 1209.60938 351.5] CT
0.851 0.325 0.098 RC
N
f-862814258
f
GR
GS
[0.75 0 0 0.75 1213.3125 351.5] CT
0.851 0.325 0.098 RC
N
f-862814258
f
GR
GS
[0.75 0 0 0.75 1217.01563 351.5] CT
0.851 0.325 0.098 RC
N
f-862814258
f
GR
GS
[0.75 0 0 0.75 1220.71875 351.5] CT
0.851 0.325 0.098 RC
N
f-862814258
f
GR
GS
[0.75 0 0 0.75 1224.42188 351.5] CT
0.851 0.325 0.098 RC
N
f-862814258
f
GR
GS
[0.75 0 0 0.75 1228.125 351.5] CT
0.851 0.325 0.098 RC
N
f-862814258
f
GR
GS
[0.75 0 0 0.75 1231.82813 351.5] CT
0.851 0.325 0.098 RC
N
f-862814258
f
GR
GS
[0.75 0 0 0.75 1235.53125 351.5] CT
0.851 0.325 0.098 RC
N
f-862814258
f
GR
GS
[0.75 0 0 0.75 1239.23438 351.5] CT
0.851 0.325 0.098 RC
N
f-862814258
f
GR
GS
[0.75 0 0 0.75 1242.9375 351.5] CT
0.851 0.325 0.098 RC
N
f-862814258
f
GR
GS
[0.75 0 0 0.75 1246.64063 351.5] CT
0.851 0.325 0.098 RC
N
f-862814258
f
GR
GS
[0.75 0 0 0.75 1250.34375 351.5] CT
0.851 0.325 0.098 RC
N
f-862814258
f
GR
GS
[0.75 0 0 0.75 1254.04688 351.5] CT
0.851 0.325 0.098 RC
N
f-862814258
f
GR
GS
[0.75 0 0 0.75 1257.75 351.5] CT
0.851 0.325 0.098 RC
N
f-862814258
f
GR
GS
[0.75 0 0 0.75 0 0.5] CT
1 GC
N
1666 118 M
1666 84 L
1587 84 L
1587 118 L
cp
f
GR
GS
[0.75 0 0 0.75 1225.5 70.52174] CT
/Helvetica 12 F
GS
[1 0 0 1 0 0] CT
0 4.5 moveto 
1 -1 scale
(train) t 
GR
GR
GS
[0.75 0 0 0.75 0 0.5] CT
0 0.447 0.741 RC
1 LJ
0.667 LW
N
1591 93.362 M
1631 93.362 L
S
GR
GS
[0.75 0 0 0.75 1208.25 70.52174] CT
0 0.447 0.741 RC
N
f-862814258
f
GR
GS
[0.75 0 0 0.75 1225.5 81.97826] CT
/Helvetica 12 F
GS
[1 0 0 1 0 0] CT
0 4.5 moveto 
1 -1 scale
(val) t 
GR
GR
GS
[0.75 0 0 0.75 0 0.5] CT
0.851 0.325 0.098 RC
1 LJ
0.667 LW
N
1591 108.638 M
1631 108.638 L
S
GR
GS
[0.75 0 0 0.75 1208.25 81.97826] CT
0.851 0.325 0.098 RC
N
f-862814258
f
GR
GS
[0.75 0 0 0.75 0 0.5] CT
0.149 GC
10.0 ML
0.667 LW
N
1587 118 M
1587 84 L
1666 84 L
1666 118 L
cp
S
GR
%%Trailer
%%Pages: 1
%%EOF
