%!PS-Adobe-3.0 EPSF-3.0
%%Creator: (MATLAB, The Mathworks, Inc. Version 9.7.0.1190202 \(R2019b\). Operating System: Linux)
%%Title: /mnt/windows_drive_d/AmsterdamUniversity/Year_1/CV1/FinalProject/Part2/param_sweep/net-train-batch-50-epoch-40.eps
%%CreationDate: 2019-10-27T20:52:43
%%Pages: (atend)
%%BoundingBox: 0 0 1390 728
%%LanguageLevel: 3
%%EndComments
%%BeginProlog
%%BeginResource: procset (Apache XML Graphics Std ProcSet) 1.2 0
%%Version: 1.2 0
%%Copyright: (Copyright 2001-2003,2010 The Apache Software Foundation. License terms: http://www.apache.org/licenses/LICENSE-2.0)
/bd{bind def}bind def
/ld{load def}bd
/GR/grestore ld
/GS/gsave ld
/RM/rmoveto ld
/C/curveto ld
/t/show ld
/L/lineto ld
/ML/setmiterlimit ld
/CT/concat ld
/f/fill ld
/N/newpath ld
/S/stroke ld
/CC/setcmykcolor ld
/A/ashow ld
/cp/closepath ld
/RC/setrgbcolor ld
/LJ/setlinejoin ld
/GC/setgray ld
/LW/setlinewidth ld
/M/moveto ld
/re {4 2 roll M
1 index 0 rlineto
0 exch rlineto
neg 0 rlineto
cp } bd
/_ctm matrix def
/_tm matrix def
/BT { _ctm currentmatrix pop matrix _tm copy pop 0 0 moveto } bd
/ET { _ctm setmatrix } bd
/iTm { _ctm setmatrix _tm concat } bd
/Tm { _tm astore pop iTm 0 0 moveto } bd
/ux 0.0 def
/uy 0.0 def
/F {
  /Tp exch def
  /Tf exch def
  Tf findfont Tp scalefont setfont
  /cf Tf def  /cs Tp def
} bd
/ULS {currentpoint /uy exch def /ux exch def} bd
/ULE {
  /Tcx currentpoint pop def
  gsave
  newpath
  cf findfont cs scalefont dup
  /FontMatrix get 0 get /Ts exch def /FontInfo get dup
  /UnderlinePosition get Ts mul /To exch def
  /UnderlineThickness get Ts mul /Tt exch def
  ux uy To add moveto  Tcx uy To add lineto
  Tt setlinewidth stroke
  grestore
} bd
/OLE {
  /Tcx currentpoint pop def
  gsave
  newpath
  cf findfont cs scalefont dup
  /FontMatrix get 0 get /Ts exch def /FontInfo get dup
  /UnderlinePosition get Ts mul /To exch def
  /UnderlineThickness get Ts mul /Tt exch def
  ux uy To add cs add moveto Tcx uy To add cs add lineto
  Tt setlinewidth stroke
  grestore
} bd
/SOE {
  /Tcx currentpoint pop def
  gsave
  newpath
  cf findfont cs scalefont dup
  /FontMatrix get 0 get /Ts exch def /FontInfo get dup
  /UnderlinePosition get Ts mul /To exch def
  /UnderlineThickness get Ts mul /Tt exch def
  ux uy To add cs 10 mul 26 idiv add moveto Tcx uy To add cs 10 mul 26 idiv add lineto
  Tt setlinewidth stroke
  grestore
} bd
/QT {
/Y22 exch store
/X22 exch store
/Y21 exch store
/X21 exch store
currentpoint
/Y21 load 2 mul add 3 div exch
/X21 load 2 mul add 3 div exch
/X21 load 2 mul /X22 load add 3 div
/Y21 load 2 mul /Y22 load add 3 div
/X22 load /Y22 load curveto
} bd
/SSPD {
dup length /d exch dict def
{
/v exch def
/k exch def
currentpagedevice k known {
/cpdv currentpagedevice k get def
v cpdv ne {
/upd false def
/nullv v type /nulltype eq def
/nullcpdv cpdv type /nulltype eq def
nullv nullcpdv or
{
/upd true def
} {
/sametype v type cpdv type eq def
sametype {
v type /arraytype eq {
/vlen v length def
/cpdvlen cpdv length def
vlen cpdvlen eq {
0 1 vlen 1 sub {
/i exch def
/obj v i get def
/cpdobj cpdv i get def
obj cpdobj ne {
/upd true def
exit
} if
} for
} {
/upd true def
} ifelse
} {
v type /dicttype eq {
v {
/dv exch def
/dk exch def
/cpddv cpdv dk get def
dv cpddv ne {
/upd true def
exit
} if
} forall
} {
/upd true def
} ifelse
} ifelse
} if
} ifelse
upd true eq {
d k v put
} if
} if
} if
} forall
d length 0 gt {
d setpagedevice
} if
} bd
/RE { % /NewFontName [NewEncodingArray] /FontName RE -
  findfont dup length dict begin
  {
    1 index /FID ne
    {def} {pop pop} ifelse
  } forall
  /Encoding exch def
  /FontName 1 index def
  currentdict definefont pop
  end
} bind def
%%EndResource
%%BeginResource: procset (Apache XML Graphics EPS ProcSet) 1.0 0
%%Version: 1.0 0
%%Copyright: (Copyright 2002-2003 The Apache Software Foundation. License terms: http://www.apache.org/licenses/LICENSE-2.0)
/BeginEPSF { %def
/b4_Inc_state save def         % Save state for cleanup
/dict_count countdictstack def % Count objects on dict stack
/op_count count 1 sub def      % Count objects on operand stack
userdict begin                 % Push userdict on dict stack
/showpage { } def              % Redefine showpage, { } = null proc
0 setgray 0 setlinecap         % Prepare graphics state
1 setlinewidth 0 setlinejoin
10 setmiterlimit [ ] 0 setdash newpath
/languagelevel where           % If level not equal to 1 then
{pop languagelevel             % set strokeadjust and
1 ne                           % overprint to their defaults.
{false setstrokeadjust false setoverprint
} if
} if
} bd
/EndEPSF { %def
count op_count sub {pop} repeat            % Clean up stacks
countdictstack dict_count sub {end} repeat
b4_Inc_state restore
} bd
%%EndResource
%FOPBeginFontDict
%%IncludeResource: font Courier-Oblique
%%IncludeResource: font Courier-BoldOblique
%%IncludeResource: font Courier-Bold
%%IncludeResource: font ZapfDingbats
%%IncludeResource: font Symbol
%%IncludeResource: font Helvetica
%%IncludeResource: font Helvetica-Oblique
%%IncludeResource: font Helvetica-Bold
%%IncludeResource: font Helvetica-BoldOblique
%%IncludeResource: font Times-Roman
%%IncludeResource: font Times-Italic
%%IncludeResource: font Times-Bold
%%IncludeResource: font Times-BoldItalic
%%IncludeResource: font Courier
%FOPEndFontDict
%%BeginResource: encoding WinAnsiEncoding
/WinAnsiEncoding [
/.notdef /.notdef /.notdef /.notdef /.notdef
/.notdef /.notdef /.notdef /.notdef /.notdef
/.notdef /.notdef /.notdef /.notdef /.notdef
/.notdef /.notdef /.notdef /.notdef /.notdef
/.notdef /.notdef /.notdef /.notdef /.notdef
/.notdef /.notdef /.notdef /.notdef /.notdef
/.notdef /.notdef /space /exclam /quotedbl
/numbersign /dollar /percent /ampersand /quotesingle
/parenleft /parenright /asterisk /plus /comma
/hyphen /period /slash /zero /one
/two /three /four /five /six
/seven /eight /nine /colon /semicolon
/less /equal /greater /question /at
/A /B /C /D /E
/F /G /H /I /J
/K /L /M /N /O
/P /Q /R /S /T
/U /V /W /X /Y
/Z /bracketleft /backslash /bracketright /asciicircum
/underscore /quoteleft /a /b /c
/d /e /f /g /h
/i /j /k /l /m
/n /o /p /q /r
/s /t /u /v /w
/x /y /z /braceleft /bar
/braceright /asciitilde /bullet /Euro /bullet
/quotesinglbase /florin /quotedblbase /ellipsis /dagger
/daggerdbl /circumflex /perthousand /Scaron /guilsinglleft
/OE /bullet /Zcaron /bullet /bullet
/quoteleft /quoteright /quotedblleft /quotedblright /bullet
/endash /emdash /asciitilde /trademark /scaron
/guilsinglright /oe /bullet /zcaron /Ydieresis
/space /exclamdown /cent /sterling /currency
/yen /brokenbar /section /dieresis /copyright
/ordfeminine /guillemotleft /logicalnot /sfthyphen /registered
/macron /degree /plusminus /twosuperior /threesuperior
/acute /mu /paragraph /middot /cedilla
/onesuperior /ordmasculine /guillemotright /onequarter /onehalf
/threequarters /questiondown /Agrave /Aacute /Acircumflex
/Atilde /Adieresis /Aring /AE /Ccedilla
/Egrave /Eacute /Ecircumflex /Edieresis /Igrave
/Iacute /Icircumflex /Idieresis /Eth /Ntilde
/Ograve /Oacute /Ocircumflex /Otilde /Odieresis
/multiply /Oslash /Ugrave /Uacute /Ucircumflex
/Udieresis /Yacute /Thorn /germandbls /agrave
/aacute /acircumflex /atilde /adieresis /aring
/ae /ccedilla /egrave /eacute /ecircumflex
/edieresis /igrave /iacute /icircumflex /idieresis
/eth /ntilde /ograve /oacute /ocircumflex
/otilde /odieresis /divide /oslash /ugrave
/uacute /ucircumflex /udieresis /yacute /thorn
/ydieresis
] def
%%EndResource
%FOPBeginFontReencode
/Courier-Oblique findfont
dup length dict begin
  {1 index /FID ne {def} {pop pop} ifelse} forall
  /Encoding WinAnsiEncoding def
  currentdict
end
/Courier-Oblique exch definefont pop
/Courier-BoldOblique findfont
dup length dict begin
  {1 index /FID ne {def} {pop pop} ifelse} forall
  /Encoding WinAnsiEncoding def
  currentdict
end
/Courier-BoldOblique exch definefont pop
/Courier-Bold findfont
dup length dict begin
  {1 index /FID ne {def} {pop pop} ifelse} forall
  /Encoding WinAnsiEncoding def
  currentdict
end
/Courier-Bold exch definefont pop
/Helvetica findfont
dup length dict begin
  {1 index /FID ne {def} {pop pop} ifelse} forall
  /Encoding WinAnsiEncoding def
  currentdict
end
/Helvetica exch definefont pop
/Helvetica-Oblique findfont
dup length dict begin
  {1 index /FID ne {def} {pop pop} ifelse} forall
  /Encoding WinAnsiEncoding def
  currentdict
end
/Helvetica-Oblique exch definefont pop
/Helvetica-Bold findfont
dup length dict begin
  {1 index /FID ne {def} {pop pop} ifelse} forall
  /Encoding WinAnsiEncoding def
  currentdict
end
/Helvetica-Bold exch definefont pop
/Helvetica-BoldOblique findfont
dup length dict begin
  {1 index /FID ne {def} {pop pop} ifelse} forall
  /Encoding WinAnsiEncoding def
  currentdict
end
/Helvetica-BoldOblique exch definefont pop
/Times-Roman findfont
dup length dict begin
  {1 index /FID ne {def} {pop pop} ifelse} forall
  /Encoding WinAnsiEncoding def
  currentdict
end
/Times-Roman exch definefont pop
/Times-Italic findfont
dup length dict begin
  {1 index /FID ne {def} {pop pop} ifelse} forall
  /Encoding WinAnsiEncoding def
  currentdict
end
/Times-Italic exch definefont pop
/Times-Bold findfont
dup length dict begin
  {1 index /FID ne {def} {pop pop} ifelse} forall
  /Encoding WinAnsiEncoding def
  currentdict
end
/Times-Bold exch definefont pop
/Times-BoldItalic findfont
dup length dict begin
  {1 index /FID ne {def} {pop pop} ifelse} forall
  /Encoding WinAnsiEncoding def
  currentdict
end
/Times-BoldItalic exch definefont pop
/Courier findfont
dup length dict begin
  {1 index /FID ne {def} {pop pop} ifelse} forall
  /Encoding WinAnsiEncoding def
  currentdict
end
/Courier exch definefont pop
%FOPEndFontReencode
%%EndProlog
%%Page: 1 1
%%PageBoundingBox: 0 0 1390 728
%%BeginPageSetup
[1 0 0 -1 0 728] CT
%%EndPageSetup
GS
[0.75 0 0 0.75 0 0.5] CT
1 GC
N
0 0 1853 970 re
f
GR
GS
[0.75 0 0 0.75 0 0.5] CT
1 GC
N
0 0 1853 970 re
f
GR
GS
[0.75 0 0 0.75 0 0.5] CT
1 GC
N
241 863 M
632 863 L
632 73 L
241 73 L
cp
f
GR
GS
[0.75 0 0 0.75 0 0.5] CT
0.873 GC
1 LJ
0.667 LW
N
241 863 M
241 73 L
S
GR
GS
[0.75 0 0 0.75 0 0.5] CT
0.873 GC
1 LJ
0.667 LW
N
289.875 863 M
289.875 73 L
S
GR
GS
[0.75 0 0 0.75 0 0.5] CT
0.873 GC
1 LJ
0.667 LW
N
338.75 863 M
338.75 73 L
S
GR
GS
[0.75 0 0 0.75 0 0.5] CT
0.873 GC
1 LJ
0.667 LW
N
387.625 863 M
387.625 73 L
S
GR
GS
[0.75 0 0 0.75 0 0.5] CT
0.873 GC
1 LJ
0.667 LW
N
436.5 863 M
436.5 73 L
S
GR
GS
[0.75 0 0 0.75 0 0.5] CT
0.873 GC
1 LJ
0.667 LW
N
485.375 863 M
485.375 73 L
S
GR
GS
[0.75 0 0 0.75 0 0.5] CT
0.873 GC
1 LJ
0.667 LW
N
534.25 863 M
534.25 73 L
S
GR
GS
[0.75 0 0 0.75 0 0.5] CT
0.873 GC
1 LJ
0.667 LW
N
583.125 863 M
583.125 73 L
S
GR
GS
[0.75 0 0 0.75 0 0.5] CT
0.873 GC
1 LJ
0.667 LW
N
632 863 M
632 73 L
S
GR
GS
[0.75 0 0 0.75 0 0.5] CT
0.873 GC
1 LJ
0.667 LW
N
632 863 M
241 863 L
S
GR
GS
[0.75 0 0 0.75 0 0.5] CT
0.873 GC
1 LJ
0.667 LW
N
632 750.143 M
241 750.143 L
S
GR
GS
[0.75 0 0 0.75 0 0.5] CT
0.873 GC
1 LJ
0.667 LW
N
632 637.286 M
241 637.286 L
S
GR
GS
[0.75 0 0 0.75 0 0.5] CT
0.873 GC
1 LJ
0.667 LW
N
632 524.429 M
241 524.429 L
S
GR
GS
[0.75 0 0 0.75 0 0.5] CT
0.873 GC
1 LJ
0.667 LW
N
632 411.571 M
241 411.571 L
S
GR
GS
[0.75 0 0 0.75 0 0.5] CT
0.873 GC
1 LJ
0.667 LW
N
632 298.714 M
241 298.714 L
S
GR
GS
[0.75 0 0 0.75 0 0.5] CT
0.873 GC
1 LJ
0.667 LW
N
632 185.857 M
241 185.857 L
S
GR
GS
[0.75 0 0 0.75 0 0.5] CT
0.873 GC
1 LJ
0.667 LW
N
632 73 M
241 73 L
S
GR
GS
[0.75 0 0 0.75 0 0.5] CT
0.149 GC
2 setlinecap
1 LJ
0.667 LW
N
241 863 M
632 863 L
S
GR
GS
[0.75 0 0 0.75 0 0.5] CT
0.149 GC
2 setlinecap
1 LJ
0.667 LW
N
241 73 M
632 73 L
S
GR
GS
[0.75 0 0 0.75 0 0.5] CT
0.149 GC
2 setlinecap
1 LJ
0.667 LW
N
241 863 M
241 855.1 L
S
GR
GS
[0.75 0 0 0.75 0 0.5] CT
0.149 GC
2 setlinecap
1 LJ
0.667 LW
N
289.875 863 M
289.875 855.1 L
S
GR
GS
[0.75 0 0 0.75 0 0.5] CT
0.149 GC
2 setlinecap
1 LJ
0.667 LW
N
338.75 863 M
338.75 855.1 L
S
GR
GS
[0.75 0 0 0.75 0 0.5] CT
0.149 GC
2 setlinecap
1 LJ
0.667 LW
N
387.625 863 M
387.625 855.1 L
S
GR
GS
[0.75 0 0 0.75 0 0.5] CT
0.149 GC
2 setlinecap
1 LJ
0.667 LW
N
436.5 863 M
436.5 855.1 L
S
GR
GS
[0.75 0 0 0.75 0 0.5] CT
0.149 GC
2 setlinecap
1 LJ
0.667 LW
N
485.375 863 M
485.375 855.1 L
S
GR
GS
[0.75 0 0 0.75 0 0.5] CT
0.149 GC
2 setlinecap
1 LJ
0.667 LW
N
534.25 863 M
534.25 855.1 L
S
GR
GS
[0.75 0 0 0.75 0 0.5] CT
0.149 GC
2 setlinecap
1 LJ
0.667 LW
N
583.125 863 M
583.125 855.1 L
S
GR
GS
[0.75 0 0 0.75 0 0.5] CT
0.149 GC
2 setlinecap
1 LJ
0.667 LW
N
632 863 M
632 855.1 L
S
GR
GS
[0.75 0 0 0.75 0 0.5] CT
0.149 GC
2 setlinecap
1 LJ
0.667 LW
N
241 73 M
241 80.9 L
S
GR
GS
[0.75 0 0 0.75 0 0.5] CT
0.149 GC
2 setlinecap
1 LJ
0.667 LW
N
289.875 73 M
289.875 80.9 L
S
GR
GS
[0.75 0 0 0.75 0 0.5] CT
0.149 GC
2 setlinecap
1 LJ
0.667 LW
N
338.75 73 M
338.75 80.9 L
S
GR
GS
[0.75 0 0 0.75 0 0.5] CT
0.149 GC
2 setlinecap
1 LJ
0.667 LW
N
387.625 73 M
387.625 80.9 L
S
GR
GS
[0.75 0 0 0.75 0 0.5] CT
0.149 GC
2 setlinecap
1 LJ
0.667 LW
N
436.5 73 M
436.5 80.9 L
S
GR
GS
[0.75 0 0 0.75 0 0.5] CT
0.149 GC
2 setlinecap
1 LJ
0.667 LW
N
485.375 73 M
485.375 80.9 L
S
GR
GS
[0.75 0 0 0.75 0 0.5] CT
0.149 GC
2 setlinecap
1 LJ
0.667 LW
N
534.25 73 M
534.25 80.9 L
S
GR
GS
[0.75 0 0 0.75 0 0.5] CT
0.149 GC
2 setlinecap
1 LJ
0.667 LW
N
583.125 73 M
583.125 80.9 L
S
GR
GS
[0.75 0 0 0.75 0 0.5] CT
0.149 GC
2 setlinecap
1 LJ
0.667 LW
N
632 73 M
632 80.9 L
S
GR
GS
[0.75 0 0 0.75 180.75 651.75003] CT
0.149 GC
/Helvetica 13.333 F
GS
[1 0 0 1 0 0] CT
-4.5 13 moveto 
1 -1 scale
(0) t 
GR
GR
GS
[0.75 0 0 0.75 217.40625 651.75003] CT
0.149 GC
/Helvetica 13.333 F
GS
[1 0 0 1 0 0] CT
-4.5 13 moveto 
1 -1 scale
(5) t 
GR
GR
GS
[0.75 0 0 0.75 254.0625 651.75003] CT
0.149 GC
/Helvetica 13.333 F
GS
[1 0 0 1 0 0] CT
-8.5 13 moveto 
1 -1 scale
(10) t 
GR
GR
GS
[0.75 0 0 0.75 290.71875 651.75003] CT
0.149 GC
/Helvetica 13.333 F
GS
[1 0 0 1 0 0] CT
-8.5 13 moveto 
1 -1 scale
(15) t 
GR
GR
GS
[0.75 0 0 0.75 327.375 651.75003] CT
0.149 GC
/Helvetica 13.333 F
GS
[1 0 0 1 0 0] CT
-8.5 13 moveto 
1 -1 scale
(20) t 
GR
GR
GS
[0.75 0 0 0.75 364.03125 651.75003] CT
0.149 GC
/Helvetica 13.333 F
GS
[1 0 0 1 0 0] CT
-8.5 13 moveto 
1 -1 scale
(25) t 
GR
GR
GS
[0.75 0 0 0.75 400.6875 651.75003] CT
0.149 GC
/Helvetica 13.333 F
GS
[1 0 0 1 0 0] CT
-8.5 13 moveto 
1 -1 scale
(30) t 
GR
GR
GS
[0.75 0 0 0.75 437.34375 651.75003] CT
0.149 GC
/Helvetica 13.333 F
GS
[1 0 0 1 0 0] CT
-8.5 13 moveto 
1 -1 scale
(35) t 
GR
GR
GS
[0.75 0 0 0.75 474 651.75003] CT
0.149 GC
/Helvetica 13.333 F
GS
[1 0 0 1 0 0] CT
-8.5 13 moveto 
1 -1 scale
(40) t 
GR
GR
GS
[0.75 0 0 0.75 327.37514 665.50002] CT
0.149 GC
/Helvetica 14.667 F
GS
[1 0 0 1 0 0] CT
-22.5 14 moveto 
1 -1 scale
(epoch) t 
GR
GR
GS
[0.75 0 0 0.75 0 0.5] CT
0.149 GC
2 setlinecap
1 LJ
0.667 LW
N
241 863 M
241 73 L
S
GR
GS
[0.75 0 0 0.75 0 0.5] CT
0.149 GC
2 setlinecap
1 LJ
0.667 LW
N
632 863 M
632 73 L
S
GR
GS
[0.75 0 0 0.75 0 0.5] CT
0.149 GC
2 setlinecap
1 LJ
0.667 LW
N
241 863 M
248.9 863 L
S
GR
GS
[0.75 0 0 0.75 0 0.5] CT
0.149 GC
2 setlinecap
1 LJ
0.667 LW
N
241 750.143 M
248.9 750.143 L
S
GR
GS
[0.75 0 0 0.75 0 0.5] CT
0.149 GC
2 setlinecap
1 LJ
0.667 LW
N
241 637.286 M
248.9 637.286 L
S
GR
GS
[0.75 0 0 0.75 0 0.5] CT
0.149 GC
2 setlinecap
1 LJ
0.667 LW
N
241 524.429 M
248.9 524.429 L
S
GR
GS
[0.75 0 0 0.75 0 0.5] CT
0.149 GC
2 setlinecap
1 LJ
0.667 LW
N
241 411.571 M
248.9 411.571 L
S
GR
GS
[0.75 0 0 0.75 0 0.5] CT
0.149 GC
2 setlinecap
1 LJ
0.667 LW
N
241 298.714 M
248.9 298.714 L
S
GR
GS
[0.75 0 0 0.75 0 0.5] CT
0.149 GC
2 setlinecap
1 LJ
0.667 LW
N
241 185.857 M
248.9 185.857 L
S
GR
GS
[0.75 0 0 0.75 0 0.5] CT
0.149 GC
2 setlinecap
1 LJ
0.667 LW
N
241 73 M
248.9 73 L
S
GR
GS
[0.75 0 0 0.75 0 0.5] CT
0.149 GC
2 setlinecap
1 LJ
0.667 LW
N
632 863 M
624.1 863 L
S
GR
GS
[0.75 0 0 0.75 0 0.5] CT
0.149 GC
2 setlinecap
1 LJ
0.667 LW
N
632 750.143 M
624.1 750.143 L
S
GR
GS
[0.75 0 0 0.75 0 0.5] CT
0.149 GC
2 setlinecap
1 LJ
0.667 LW
N
632 637.286 M
624.1 637.286 L
S
GR
GS
[0.75 0 0 0.75 0 0.5] CT
0.149 GC
2 setlinecap
1 LJ
0.667 LW
N
632 524.429 M
624.1 524.429 L
S
GR
GS
[0.75 0 0 0.75 0 0.5] CT
0.149 GC
2 setlinecap
1 LJ
0.667 LW
N
632 411.571 M
624.1 411.571 L
S
GR
GS
[0.75 0 0 0.75 0 0.5] CT
0.149 GC
2 setlinecap
1 LJ
0.667 LW
N
632 298.714 M
624.1 298.714 L
S
GR
GS
[0.75 0 0 0.75 0 0.5] CT
0.149 GC
2 setlinecap
1 LJ
0.667 LW
N
632 185.857 M
624.1 185.857 L
S
GR
GS
[0.75 0 0 0.75 0 0.5] CT
0.149 GC
2 setlinecap
1 LJ
0.667 LW
N
632 73 M
624.1 73 L
S
GR
GS
[0.75 0 0 0.75 176.75 647.75] CT
0.149 GC
/Helvetica 13.333 F
GS
[1 0 0 1 0 0] CT
-9 4.5 moveto 
1 -1 scale
(1) t 
GR
GR
GS
[0.75 0 0 0.75 176.75 563.10712] CT
0.149 GC
/Helvetica 13.333 F
GS
[1 0 0 1 0 0] CT
-22 4.5 moveto 
1 -1 scale
(1.1) t 
GR
GR
GS
[0.75 0 0 0.75 176.75 478.46423] CT
0.149 GC
/Helvetica 13.333 F
GS
[1 0 0 1 0 0] CT
-22 4.5 moveto 
1 -1 scale
(1.2) t 
GR
GR
GS
[0.75 0 0 0.75 176.75 393.82149] CT
0.149 GC
/Helvetica 13.333 F
GS
[1 0 0 1 0 0] CT
-22 4.5 moveto 
1 -1 scale
(1.3) t 
GR
GR
GS
[0.75 0 0 0.75 176.75 309.17858] CT
0.149 GC
/Helvetica 13.333 F
GS
[1 0 0 1 0 0] CT
-22 4.5 moveto 
1 -1 scale
(1.4) t 
GR
GR
GS
[0.75 0 0 0.75 176.75 224.53572] CT
0.149 GC
/Helvetica 13.333 F
GS
[1 0 0 1 0 0] CT
-22 4.5 moveto 
1 -1 scale
(1.5) t 
GR
GR
GS
[0.75 0 0 0.75 176.75 139.89284] CT
0.149 GC
/Helvetica 13.333 F
GS
[1 0 0 1 0 0] CT
-22 4.5 moveto 
1 -1 scale
(1.6) t 
GR
GR
GS
[0.75 0 0 0.75 176.75 55.24996] CT
0.149 GC
/Helvetica 13.333 F
GS
[1 0 0 1 0 0] CT
-22 4.5 moveto 
1 -1 scale
(1.7) t 
GR
GR
GS
[0.75 0 0 0.75 327.3753 53.18742] CT
/Helvetica-Bold 14.667 F
GS
[1 0 0 1 0 0] CT
-38 -4 moveto 
1 -1 scale
(objective) t 
GR
GR
GS
[0.75 0 0 0.75 0 0.5] CT
0 0.447 0.741 RC
1 LJ
0.667 LW
N
250.775 179.598 M
260.55 292.939 L
270.325 357.484 L
280.1 407.954 L
289.875 460.737 L
299.65 502.512 L
309.425 542.233 L
319.2 579.37 L
328.975 606.852 L
338.75 633.044 L
348.525 655.139 L
358.3 676.91 L
368.075 698.71 L
377.85 709.672 L
387.625 719.828 L
397.4 738.201 L
407.175 748.082 L
416.95 765.315 L
426.725 773.303 L
436.5 779.679 L
446.275 790.233 L
456.05 794.915 L
465.825 792.834 L
475.6 799.538 L
485.375 795.574 L
495.15 797.614 L
504.925 798.824 L
514.7 798.655 L
524.475 796.86 L
534.25 800.007 L
544.025 810.116 L
553.8 805.889 L
563.575 803.177 L
573.35 808.278 L
583.125 810.676 L
592.9 805.527 L
602.675 812.645 L
612.45 802.922 L
622.225 811.943 L
632 815.063 L
S
GR
GS
[0.75 0 0 0.75 188.08125 135.19827] CT
0 0.447 0.741 RC
N
0 -3.667 M
2.025 -3.667 3.667 -2.025 3.667 0 C
3.667 0 L
3.667 2.025 2.025 3.667 0 3.667 C
-2.025 3.667 -3.667 2.025 -3.667 0 C
-3.667 -2.025 -2.025 -3.667 0 -3.667 C
cp
0 -4.333 M
-2.393 -4.333 -4.333 -2.393 -4.333 0 C
-4.333 2.393 -2.393 4.333 0 4.333 C
2.393 4.333 4.333 2.393 4.333 0 C
4.333 0 L
4.333 -2.393 2.393 -4.333 0 -4.333 C
cp
f
GR
GS
[0.75 0 0 0.75 195.41249 220.20388] CT
0 0.447 0.741 RC
N
/f-862814258{0 -3.667 M
2.025 -3.667 3.667 -2.025 3.667 0 C
3.667 0 L
3.667 2.025 2.025 3.667 0 3.667 C
-2.025 3.667 -3.667 2.025 -3.667 0 C
-3.667 -2.025 -2.025 -3.667 0 -3.667 C
cp
0 -4.333 M
-2.393 -4.333 -4.333 -2.393 -4.333 0 C
-4.333 2.393 -2.393 4.333 0 4.333 C
2.393 4.333 4.333 2.393 4.333 0 C
4.333 0 L
4.333 -2.393 2.393 -4.333 0 -4.333 C
cp}def
f-862814258
f
GR
GS
[0.75 0 0 0.75 202.74376 268.61289] CT
0 0.447 0.741 RC
N
f-862814258
f
GR
GS
[0.75 0 0 0.75 210.075 306.46574] CT
0 0.447 0.741 RC
N
f-862814258
f
GR
GS
[0.75 0 0 0.75 217.40625 346.05298] CT
0 0.447 0.741 RC
N
f-862814258
f
GR
GS
[0.75 0 0 0.75 224.7375 377.38432] CT
0 0.447 0.741 RC
N
f-862814258
f
GR
GS
[0.75 0 0 0.75 232.06874 407.17445] CT
0 0.447 0.741 RC
N
f-862814258
f
GR
GS
[0.75 0 0 0.75 239.40001 435.0275] CT
0 0.447 0.741 RC
N
f-862814258
f
GR
GS
[0.75 0 0 0.75 246.73125 455.63927] CT
0 0.447 0.741 RC
N
f-862814258
f
GR
GS
[0.75 0 0 0.75 254.0625 475.28282] CT
0 0.447 0.741 RC
N
f-862814258
f
GR
GS
[0.75 0 0 0.75 261.39375 491.85428] CT
0 0.447 0.741 RC
N
f-862814258
f
GR
GS
[0.75 0 0 0.75 268.72499 508.18266] CT
0 0.447 0.741 RC
N
f-862814258
f
GR
GS
[0.75 0 0 0.75 276.05626 524.53215] CT
0 0.447 0.741 RC
N
f-862814258
f
GR
GS
[0.75 0 0 0.75 283.3875 532.75404] CT
0 0.447 0.741 RC
N
f-862814258
f
GR
GS
[0.75 0 0 0.75 290.71875 540.37123] CT
0 0.447 0.741 RC
N
f-862814258
f
GR
GS
[0.75 0 0 0.75 298.05 554.15042] CT
0 0.447 0.741 RC
N
f-862814258
f
GR
GS
[0.75 0 0 0.75 305.38124 561.56152] CT
0 0.447 0.741 RC
N
f-862814258
f
GR
GS
[0.75 0 0 0.75 312.71251 574.48634] CT
0 0.447 0.741 RC
N
f-862814258
f
GR
GS
[0.75 0 0 0.75 320.04375 580.47691] CT
0 0.447 0.741 RC
N
f-862814258
f
GR
GS
[0.75 0 0 0.75 327.375 585.25899] CT
0 0.447 0.741 RC
N
f-862814258
f
GR
GS
[0.75 0 0 0.75 334.70625 593.17464] CT
0 0.447 0.741 RC
N
f-862814258
f
GR
GS
[0.75 0 0 0.75 342.03749 596.68623] CT
0 0.447 0.741 RC
N
f-862814258
f
GR
GS
[0.75 0 0 0.75 349.36876 595.1254] CT
0 0.447 0.741 RC
N
f-862814258
f
GR
GS
[0.75 0 0 0.75 356.7 600.15356] CT
0 0.447 0.741 RC
N
f-862814258
f
GR
GS
[0.75 0 0 0.75 364.03125 597.18057] CT
0 0.447 0.741 RC
N
f-862814258
f
GR
GS
[0.75 0 0 0.75 371.3625 598.71074] CT
0 0.447 0.741 RC
N
f-862814258
f
GR
GS
[0.75 0 0 0.75 378.69374 599.61775] CT
0 0.447 0.741 RC
N
f-862814258
f
GR
GS
[0.75 0 0 0.75 386.02501 599.49141] CT
0 0.447 0.741 RC
N
f-862814258
f
GR
GS
[0.75 0 0 0.75 393.35623 598.1449] CT
0 0.447 0.741 RC
N
f-862814258
f
GR
GS
[0.75 0 0 0.75 400.6875 600.5049] CT
0 0.447 0.741 RC
N
f-862814258
f
GR
GS
[0.75 0 0 0.75 408.01877 608.0872] CT
0 0.447 0.741 RC
N
f-862814258
f
GR
GS
[0.75 0 0 0.75 415.34999 604.91655] CT
0 0.447 0.741 RC
N
f-862814258
f
GR
GS
[0.75 0 0 0.75 422.68126 602.88307] CT
0 0.447 0.741 RC
N
f-862814258
f
GR
GS
[0.75 0 0 0.75 430.01248 606.70865] CT
0 0.447 0.741 RC
N
f-862814258
f
GR
GS
[0.75 0 0 0.75 437.34375 608.50665] CT
0 0.447 0.741 RC
N
f-862814258
f
GR
GS
[0.75 0 0 0.75 444.67502 604.64519] CT
0 0.447 0.741 RC
N
f-862814258
f
GR
GS
[0.75 0 0 0.75 452.00624 609.98404] CT
0 0.447 0.741 RC
N
f-862814258
f
GR
GS
[0.75 0 0 0.75 459.33751 602.69113] CT
0 0.447 0.741 RC
N
f-862814258
f
GR
GS
[0.75 0 0 0.75 466.66873 609.45692] CT
0 0.447 0.741 RC
N
f-862814258
f
GR
GS
[0.75 0 0 0.75 474 611.79756] CT
0 0.447 0.741 RC
N
f-862814258
f
GR
GS
[0.75 0 0 0.75 0 0.5] CT
0.851 0.325 0.098 RC
1 LJ
0.667 LW
N
250.775 254.191 M
260.55 326.049 L
270.325 381.958 L
280.1 429.75 L
289.875 476.417 L
299.65 509.397 L
309.425 545.043 L
319.2 573.726 L
328.975 599.231 L
338.75 625.176 L
348.525 641.863 L
358.3 661.873 L
368.075 677.667 L
377.85 686.946 L
387.625 709.186 L
397.4 716.401 L
407.175 726.525 L
416.95 741.368 L
426.725 750.922 L
436.5 761.286 L
446.275 758.203 L
456.05 761.356 L
465.825 763 L
475.6 765.377 L
485.375 766.635 L
495.15 765.179 L
504.925 768.627 L
514.7 766.458 L
524.475 769.424 L
534.25 766.879 L
544.025 769.7 L
553.8 772.309 L
563.575 771.592 L
573.35 772.531 L
583.125 775.092 L
592.9 773.813 L
602.675 775.806 L
612.45 778.344 L
622.225 778.385 L
632 779.182 L
S
GR
GS
[0.75 0 0 0.75 188.08125 191.14315] CT
0.851 0.325 0.098 RC
N
f-862814258
f
GR
GS
[0.75 0 0 0.75 195.41249 245.03651] CT
0.851 0.325 0.098 RC
N
f-862814258
f
GR
GS
[0.75 0 0 0.75 202.74376 286.96821] CT
0.851 0.325 0.098 RC
N
f-862814258
f
GR
GS
[0.75 0 0 0.75 210.075 322.81268] CT
0.851 0.325 0.098 RC
N
f-862814258
f
GR
GS
[0.75 0 0 0.75 217.40625 357.81242] CT
0.851 0.325 0.098 RC
N
f-862814258
f
GR
GS
[0.75 0 0 0.75 224.7375 382.54766] CT
0.851 0.325 0.098 RC
N
f-862814258
f
GR
GS
[0.75 0 0 0.75 232.06874 409.282] CT
0.851 0.325 0.098 RC
N
f-862814258
f
GR
GS
[0.75 0 0 0.75 239.40001 430.79483] CT
0.851 0.325 0.098 RC
N
f-862814258
f
GR
GS
[0.75 0 0 0.75 246.73125 449.92345] CT
0.851 0.325 0.098 RC
N
f-862814258
f
GR
GS
[0.75 0 0 0.75 254.0625 469.38193] CT
0.851 0.325 0.098 RC
N
f-862814258
f
GR
GS
[0.75 0 0 0.75 261.39375 481.89714] CT
0.851 0.325 0.098 RC
N
f-862814258
f
GR
GS
[0.75 0 0 0.75 268.72499 496.90442] CT
0.851 0.325 0.098 RC
N
f-862814258
f
GR
GS
[0.75 0 0 0.75 276.05626 508.75043] CT
0.851 0.325 0.098 RC
N
f-862814258
f
GR
GS
[0.75 0 0 0.75 283.3875 515.70926] CT
0.851 0.325 0.098 RC
N
f-862814258
f
GR
GS
[0.75 0 0 0.75 290.71875 532.38957] CT
0.851 0.325 0.098 RC
N
f-862814258
f
GR
GS
[0.75 0 0 0.75 298.05 537.80057] CT
0.851 0.325 0.098 RC
N
f-862814258
f
GR
GS
[0.75 0 0 0.75 305.38124 545.39404] CT
0.851 0.325 0.098 RC
N
f-862814258
f
GR
GS
[0.75 0 0 0.75 312.71251 556.52599] CT
0.851 0.325 0.098 RC
N
f-862814258
f
GR
GS
[0.75 0 0 0.75 320.04375 563.69136] CT
0.851 0.325 0.098 RC
N
f-862814258
f
GR
GS
[0.75 0 0 0.75 327.375 571.46432] CT
0.851 0.325 0.098 RC
N
f-862814258
f
GR
GS
[0.75 0 0 0.75 334.70625 569.15248] CT
0.851 0.325 0.098 RC
N
f-862814258
f
GR
GS
[0.75 0 0 0.75 342.03749 571.51701] CT
0.851 0.325 0.098 RC
N
f-862814258
f
GR
GS
[0.75 0 0 0.75 349.36876 572.74973] CT
0.851 0.325 0.098 RC
N
f-862814258
f
GR
GS
[0.75 0 0 0.75 356.7 574.53299] CT
0.851 0.325 0.098 RC
N
f-862814258
f
GR
GS
[0.75 0 0 0.75 364.03125 575.47653] CT
0.851 0.325 0.098 RC
N
f-862814258
f
GR
GS
[0.75 0 0 0.75 371.3625 574.38426] CT
0.851 0.325 0.098 RC
N
f-862814258
f
GR
GS
[0.75 0 0 0.75 378.69374 576.97026] CT
0.851 0.325 0.098 RC
N
f-862814258
f
GR
GS
[0.75 0 0 0.75 386.02501 575.34332] CT
0.851 0.325 0.098 RC
N
f-862814258
f
GR
GS
[0.75 0 0 0.75 393.35623 577.5681] CT
0.851 0.325 0.098 RC
N
f-862814258
f
GR
GS
[0.75 0 0 0.75 400.6875 575.65913] CT
0.851 0.325 0.098 RC
N
f-862814258
f
GR
GS
[0.75 0 0 0.75 408.01877 577.77515] CT
0.851 0.325 0.098 RC
N
f-862814258
f
GR
GS
[0.75 0 0 0.75 415.34999 579.73145] CT
0.851 0.325 0.098 RC
N
f-862814258
f
GR
GS
[0.75 0 0 0.75 422.68126 579.19417] CT
0.851 0.325 0.098 RC
N
f-862814258
f
GR
GS
[0.75 0 0 0.75 430.01248 579.89835] CT
0.851 0.325 0.098 RC
N
f-862814258
f
GR
GS
[0.75 0 0 0.75 437.34375 581.81903] CT
0.851 0.325 0.098 RC
N
f-862814258
f
GR
GS
[0.75 0 0 0.75 444.67502 580.85942] CT
0.851 0.325 0.098 RC
N
f-862814258
f
GR
GS
[0.75 0 0 0.75 452.00624 582.3548] CT
0.851 0.325 0.098 RC
N
f-862814258
f
GR
GS
[0.75 0 0 0.75 459.33751 584.25795] CT
0.851 0.325 0.098 RC
N
f-862814258
f
GR
GS
[0.75 0 0 0.75 466.66873 584.2888] CT
0.851 0.325 0.098 RC
N
f-862814258
f
GR
GS
[0.75 0 0 0.75 474 584.88673] CT
0.851 0.325 0.098 RC
N
f-862814258
f
GR
GS
[0.75 0 0 0.75 0 0.5] CT
1 GC
N
621 118 M
621 84 L
542 84 L
542 118 L
cp
f
GR
GS
[0.75 0 0 0.75 441.75 70.52174] CT
/Helvetica 12 F
GS
[1 0 0 1 0 0] CT
0 4.5 moveto 
1 -1 scale
(train) t 
GR
GR
GS
[0.75 0 0 0.75 0 0.5] CT
0 0.447 0.741 RC
1 LJ
0.667 LW
N
546 93.362 M
586 93.362 L
S
GR
GS
[0.75 0 0 0.75 424.5 70.52174] CT
0 0.447 0.741 RC
N
f-862814258
f
GR
GS
[0.75 0 0 0.75 441.75 81.97826] CT
/Helvetica 12 F
GS
[1 0 0 1 0 0] CT
0 4.5 moveto 
1 -1 scale
(val) t 
GR
GR
GS
[0.75 0 0 0.75 0 0.5] CT
0.851 0.325 0.098 RC
1 LJ
0.667 LW
N
546 108.638 M
586 108.638 L
S
GR
GS
[0.75 0 0 0.75 424.5 81.97826] CT
0.851 0.325 0.098 RC
N
f-862814258
f
GR
GS
[0.75 0 0 0.75 0 0.5] CT
0.149 GC
10.0 ML
0.667 LW
N
542 118 M
542 84 L
621 84 L
621 118 L
cp
S
GR
GS
[0.75 0 0 0.75 0 0.5] CT
1 GC
N
761 863 M
1153 863 L
1153 73 L
761 73 L
cp
f
GR
GS
[0.75 0 0 0.75 0 0.5] CT
0.873 GC
1 LJ
0.667 LW
N
761 863 M
761 73 L
S
GR
GS
[0.75 0 0 0.75 0 0.5] CT
0.873 GC
1 LJ
0.667 LW
N
810 863 M
810 73 L
S
GR
GS
[0.75 0 0 0.75 0 0.5] CT
0.873 GC
1 LJ
0.667 LW
N
859 863 M
859 73 L
S
GR
GS
[0.75 0 0 0.75 0 0.5] CT
0.873 GC
1 LJ
0.667 LW
N
908 863 M
908 73 L
S
GR
GS
[0.75 0 0 0.75 0 0.5] CT
0.873 GC
1 LJ
0.667 LW
N
957 863 M
957 73 L
S
GR
GS
[0.75 0 0 0.75 0 0.5] CT
0.873 GC
1 LJ
0.667 LW
N
1006 863 M
1006 73 L
S
GR
GS
[0.75 0 0 0.75 0 0.5] CT
0.873 GC
1 LJ
0.667 LW
N
1055 863 M
1055 73 L
S
GR
GS
[0.75 0 0 0.75 0 0.5] CT
0.873 GC
1 LJ
0.667 LW
N
1104 863 M
1104 73 L
S
GR
GS
[0.75 0 0 0.75 0 0.5] CT
0.873 GC
1 LJ
0.667 LW
N
1153 863 M
1153 73 L
S
GR
GS
[0.75 0 0 0.75 0 0.5] CT
0.873 GC
1 LJ
0.667 LW
N
1153 863 M
761 863 L
S
GR
GS
[0.75 0 0 0.75 0 0.5] CT
0.873 GC
1 LJ
0.667 LW
N
1153 764.25 M
761 764.25 L
S
GR
GS
[0.75 0 0 0.75 0 0.5] CT
0.873 GC
1 LJ
0.667 LW
N
1153 665.5 M
761 665.5 L
S
GR
GS
[0.75 0 0 0.75 0 0.5] CT
0.873 GC
1 LJ
0.667 LW
N
1153 566.75 M
761 566.75 L
S
GR
GS
[0.75 0 0 0.75 0 0.5] CT
0.873 GC
1 LJ
0.667 LW
N
1153 468 M
761 468 L
S
GR
GS
[0.75 0 0 0.75 0 0.5] CT
0.873 GC
1 LJ
0.667 LW
N
1153 369.25 M
761 369.25 L
S
GR
GS
[0.75 0 0 0.75 0 0.5] CT
0.873 GC
1 LJ
0.667 LW
N
1153 270.5 M
761 270.5 L
S
GR
GS
[0.75 0 0 0.75 0 0.5] CT
0.873 GC
1 LJ
0.667 LW
N
1153 171.75 M
761 171.75 L
S
GR
GS
[0.75 0 0 0.75 0 0.5] CT
0.873 GC
1 LJ
0.667 LW
N
1153 73 M
761 73 L
S
GR
GS
[0.75 0 0 0.75 0 0.5] CT
0.149 GC
2 setlinecap
1 LJ
0.667 LW
N
761 863 M
1153 863 L
S
GR
GS
[0.75 0 0 0.75 0 0.5] CT
0.149 GC
2 setlinecap
1 LJ
0.667 LW
N
761 73 M
1153 73 L
S
GR
GS
[0.75 0 0 0.75 0 0.5] CT
0.149 GC
2 setlinecap
1 LJ
0.667 LW
N
761 863 M
761 855.1 L
S
GR
GS
[0.75 0 0 0.75 0 0.5] CT
0.149 GC
2 setlinecap
1 LJ
0.667 LW
N
810 863 M
810 855.1 L
S
GR
GS
[0.75 0 0 0.75 0 0.5] CT
0.149 GC
2 setlinecap
1 LJ
0.667 LW
N
859 863 M
859 855.1 L
S
GR
GS
[0.75 0 0 0.75 0 0.5] CT
0.149 GC
2 setlinecap
1 LJ
0.667 LW
N
908 863 M
908 855.1 L
S
GR
GS
[0.75 0 0 0.75 0 0.5] CT
0.149 GC
2 setlinecap
1 LJ
0.667 LW
N
957 863 M
957 855.1 L
S
GR
GS
[0.75 0 0 0.75 0 0.5] CT
0.149 GC
2 setlinecap
1 LJ
0.667 LW
N
1006 863 M
1006 855.1 L
S
GR
GS
[0.75 0 0 0.75 0 0.5] CT
0.149 GC
2 setlinecap
1 LJ
0.667 LW
N
1055 863 M
1055 855.1 L
S
GR
GS
[0.75 0 0 0.75 0 0.5] CT
0.149 GC
2 setlinecap
1 LJ
0.667 LW
N
1104 863 M
1104 855.1 L
S
GR
GS
[0.75 0 0 0.75 0 0.5] CT
0.149 GC
2 setlinecap
1 LJ
0.667 LW
N
1153 863 M
1153 855.1 L
S
GR
GS
[0.75 0 0 0.75 0 0.5] CT
0.149 GC
2 setlinecap
1 LJ
0.667 LW
N
761 73 M
761 80.9 L
S
GR
GS
[0.75 0 0 0.75 0 0.5] CT
0.149 GC
2 setlinecap
1 LJ
0.667 LW
N
810 73 M
810 80.9 L
S
GR
GS
[0.75 0 0 0.75 0 0.5] CT
0.149 GC
2 setlinecap
1 LJ
0.667 LW
N
859 73 M
859 80.9 L
S
GR
GS
[0.75 0 0 0.75 0 0.5] CT
0.149 GC
2 setlinecap
1 LJ
0.667 LW
N
908 73 M
908 80.9 L
S
GR
GS
[0.75 0 0 0.75 0 0.5] CT
0.149 GC
2 setlinecap
1 LJ
0.667 LW
N
957 73 M
957 80.9 L
S
GR
GS
[0.75 0 0 0.75 0 0.5] CT
0.149 GC
2 setlinecap
1 LJ
0.667 LW
N
1006 73 M
1006 80.9 L
S
GR
GS
[0.75 0 0 0.75 0 0.5] CT
0.149 GC
2 setlinecap
1 LJ
0.667 LW
N
1055 73 M
1055 80.9 L
S
GR
GS
[0.75 0 0 0.75 0 0.5] CT
0.149 GC
2 setlinecap
1 LJ
0.667 LW
N
1104 73 M
1104 80.9 L
S
GR
GS
[0.75 0 0 0.75 0 0.5] CT
0.149 GC
2 setlinecap
1 LJ
0.667 LW
N
1153 73 M
1153 80.9 L
S
GR
GS
[0.75 0 0 0.75 570.75 651.74998] CT
0.149 GC
/Helvetica 13.333 F
GS
[1 0 0 1 0 0] CT
-4.5 13 moveto 
1 -1 scale
(0) t 
GR
GR
GS
[0.75 0 0 0.75 607.5 651.74998] CT
0.149 GC
/Helvetica 13.333 F
GS
[1 0 0 1 0 0] CT
-4.5 13 moveto 
1 -1 scale
(5) t 
GR
GR
GS
[0.75 0 0 0.75 644.25 651.74998] CT
0.149 GC
/Helvetica 13.333 F
GS
[1 0 0 1 0 0] CT
-8.5 13 moveto 
1 -1 scale
(10) t 
GR
GR
GS
[0.75 0 0 0.75 681 651.74998] CT
0.149 GC
/Helvetica 13.333 F
GS
[1 0 0 1 0 0] CT
-8.5 13 moveto 
1 -1 scale
(15) t 
GR
GR
GS
[0.75 0 0 0.75 717.75 651.74998] CT
0.149 GC
/Helvetica 13.333 F
GS
[1 0 0 1 0 0] CT
-8.5 13 moveto 
1 -1 scale
(20) t 
GR
GR
GS
[0.75 0 0 0.75 754.5 651.74998] CT
0.149 GC
/Helvetica 13.333 F
GS
[1 0 0 1 0 0] CT
-8.5 13 moveto 
1 -1 scale
(25) t 
GR
GR
GS
[0.75 0 0 0.75 791.25 651.74998] CT
0.149 GC
/Helvetica 13.333 F
GS
[1 0 0 1 0 0] CT
-8.5 13 moveto 
1 -1 scale
(30) t 
GR
GR
GS
[0.75 0 0 0.75 828 651.74998] CT
0.149 GC
/Helvetica 13.333 F
GS
[1 0 0 1 0 0] CT
-8.5 13 moveto 
1 -1 scale
(35) t 
GR
GR
GS
[0.75 0 0 0.75 864.75 651.74998] CT
0.149 GC
/Helvetica 13.333 F
GS
[1 0 0 1 0 0] CT
-8.5 13 moveto 
1 -1 scale
(40) t 
GR
GR
GS
[0.75 0 0 0.75 717.75014 665.50002] CT
0.149 GC
/Helvetica 14.667 F
GS
[1 0 0 1 0 0] CT
-22.5 14 moveto 
1 -1 scale
(epoch) t 
GR
GR
GS
[0.75 0 0 0.75 0 0.5] CT
0.149 GC
2 setlinecap
1 LJ
0.667 LW
N
761 863 M
761 73 L
S
GR
GS
[0.75 0 0 0.75 0 0.5] CT
0.149 GC
2 setlinecap
1 LJ
0.667 LW
N
1153 863 M
1153 73 L
S
GR
GS
[0.75 0 0 0.75 0 0.5] CT
0.149 GC
2 setlinecap
1 LJ
0.667 LW
N
761 863 M
768.9 863 L
S
GR
GS
[0.75 0 0 0.75 0 0.5] CT
0.149 GC
2 setlinecap
1 LJ
0.667 LW
N
761 764.25 M
768.9 764.25 L
S
GR
GS
[0.75 0 0 0.75 0 0.5] CT
0.149 GC
2 setlinecap
1 LJ
0.667 LW
N
761 665.5 M
768.9 665.5 L
S
GR
GS
[0.75 0 0 0.75 0 0.5] CT
0.149 GC
2 setlinecap
1 LJ
0.667 LW
N
761 566.75 M
768.9 566.75 L
S
GR
GS
[0.75 0 0 0.75 0 0.5] CT
0.149 GC
2 setlinecap
1 LJ
0.667 LW
N
761 468 M
768.9 468 L
S
GR
GS
[0.75 0 0 0.75 0 0.5] CT
0.149 GC
2 setlinecap
1 LJ
0.667 LW
N
761 369.25 M
768.9 369.25 L
S
GR
GS
[0.75 0 0 0.75 0 0.5] CT
0.149 GC
2 setlinecap
1 LJ
0.667 LW
N
761 270.5 M
768.9 270.5 L
S
GR
GS
[0.75 0 0 0.75 0 0.5] CT
0.149 GC
2 setlinecap
1 LJ
0.667 LW
N
761 171.75 M
768.9 171.75 L
S
GR
GS
[0.75 0 0 0.75 0 0.5] CT
0.149 GC
2 setlinecap
1 LJ
0.667 LW
N
761 73 M
768.9 73 L
S
GR
GS
[0.75 0 0 0.75 0 0.5] CT
0.149 GC
2 setlinecap
1 LJ
0.667 LW
N
1153 863 M
1145.1 863 L
S
GR
GS
[0.75 0 0 0.75 0 0.5] CT
0.149 GC
2 setlinecap
1 LJ
0.667 LW
N
1153 764.25 M
1145.1 764.25 L
S
GR
GS
[0.75 0 0 0.75 0 0.5] CT
0.149 GC
2 setlinecap
1 LJ
0.667 LW
N
1153 665.5 M
1145.1 665.5 L
S
GR
GS
[0.75 0 0 0.75 0 0.5] CT
0.149 GC
2 setlinecap
1 LJ
0.667 LW
N
1153 566.75 M
1145.1 566.75 L
S
GR
GS
[0.75 0 0 0.75 0 0.5] CT
0.149 GC
2 setlinecap
1 LJ
0.667 LW
N
1153 468 M
1145.1 468 L
S
GR
GS
[0.75 0 0 0.75 0 0.5] CT
0.149 GC
2 setlinecap
1 LJ
0.667 LW
N
1153 369.25 M
1145.1 369.25 L
S
GR
GS
[0.75 0 0 0.75 0 0.5] CT
0.149 GC
2 setlinecap
1 LJ
0.667 LW
N
1153 270.5 M
1145.1 270.5 L
S
GR
GS
[0.75 0 0 0.75 0 0.5] CT
0.149 GC
2 setlinecap
1 LJ
0.667 LW
N
1153 171.75 M
1145.1 171.75 L
S
GR
GS
[0.75 0 0 0.75 0 0.5] CT
0.149 GC
2 setlinecap
1 LJ
0.667 LW
N
1153 73 M
1145.1 73 L
S
GR
GS
[0.75 0 0 0.75 566.75002 647.75] CT
0.149 GC
/Helvetica 13.333 F
GS
[1 0 0 1 0 0] CT
-30 4.5 moveto 
1 -1 scale
(0.35) t 
GR
GR
GS
[0.75 0 0 0.75 566.75002 573.6875] CT
0.149 GC
/Helvetica 13.333 F
GS
[1 0 0 1 0 0] CT
-22 4.5 moveto 
1 -1 scale
(0.4) t 
GR
GR
GS
[0.75 0 0 0.75 566.75002 499.625] CT
0.149 GC
/Helvetica 13.333 F
GS
[1 0 0 1 0 0] CT
-30 4.5 moveto 
1 -1 scale
(0.45) t 
GR
GR
GS
[0.75 0 0 0.75 566.75002 425.5625] CT
0.149 GC
/Helvetica 13.333 F
GS
[1 0 0 1 0 0] CT
-22 4.5 moveto 
1 -1 scale
(0.5) t 
GR
GR
GS
[0.75 0 0 0.75 566.75002 351.49998] CT
0.149 GC
/Helvetica 13.333 F
GS
[1 0 0 1 0 0] CT
-30 4.5 moveto 
1 -1 scale
(0.55) t 
GR
GR
GS
[0.75 0 0 0.75 566.75002 277.43745] CT
0.149 GC
/Helvetica 13.333 F
GS
[1 0 0 1 0 0] CT
-22 4.5 moveto 
1 -1 scale
(0.6) t 
GR
GR
GS
[0.75 0 0 0.75 566.75002 203.37505] CT
0.149 GC
/Helvetica 13.333 F
GS
[1 0 0 1 0 0] CT
-30 4.5 moveto 
1 -1 scale
(0.65) t 
GR
GR
GS
[0.75 0 0 0.75 566.75002 129.31252] CT
0.149 GC
/Helvetica 13.333 F
GS
[1 0 0 1 0 0] CT
-22 4.5 moveto 
1 -1 scale
(0.7) t 
GR
GR
GS
[0.75 0 0 0.75 566.75002 55.25] CT
0.149 GC
/Helvetica 13.333 F
GS
[1 0 0 1 0 0] CT
-30 4.5 moveto 
1 -1 scale
(0.75) t 
GR
GR
GS
[0.75 0 0 0.75 717.75069 53.18747] CT
/Helvetica-Bold 14.667 F
GS
[1 0 0 1 0 0] CT
-31.5 -4 moveto 
1 -1 scale
(top1err) t 
GR
GR
GS
[0.75 0 0 0.75 0 0.5] CT
0 0.447 0.741 RC
1 LJ
0.667 LW
N
770.8 111.71 M
780.6 302.89 L
790.4 408.75 L
800.2 464.05 L
810 526.46 L
819.8 547.79 L
829.6 584.13 L
839.4 596.77 L
849.2 612.57 L
859 626.79 L
868.8 663.13 L
878.6 673.4 L
888.4 689.2 L
898.2 694.73 L
908 703.42 L
917.8 709.74 L
927.6 715.27 L
937.4 723.96 L
947.2 742.92 L
957 729.49 L
966.8 735.02 L
976.6 749.24 L
986.4 749.24 L
996.2 766.62 L
1006 759.51 L
1015.8 745.29 L
1025.6 761.88 L
1035.4 746.87 L
1045.2 751.61 L
1055 752.4 L
1064.8 768.99 L
1074.6 754.77 L
1084.4 753.98 L
1094.2 760.3 L
1104 762.67 L
1113.8 757.93 L
1123.6 766.62 L
1133.4 746.87 L
1143.2 747.66 L
1153 772.94 L
S
GR
GS
[0.75 0 0 0.75 578.09999 84.28246] CT
0 0.447 0.741 RC
N
f-862814258
f
GR
GS
[0.75 0 0 0.75 585.44998 227.66751] CT
0 0.447 0.741 RC
N
f-862814258
f
GR
GS
[0.75 0 0 0.75 592.80002 307.06252] CT
0 0.447 0.741 RC
N
f-862814258
f
GR
GS
[0.75 0 0 0.75 600.15001 348.53751] CT
0 0.447 0.741 RC
N
f-862814258
f
GR
GS
[0.75 0 0 0.75 607.5 395.34502] CT
0 0.447 0.741 RC
N
f-862814258
f
GR
GS
[0.75 0 0 0.75 614.84999 411.34253] CT
0 0.447 0.741 RC
N
f-862814258
f
GR
GS
[0.75 0 0 0.75 622.19998 438.5975] CT
0 0.447 0.741 RC
N
f-862814258
f
GR
GS
[0.75 0 0 0.75 629.55002 448.07747] CT
0 0.447 0.741 RC
N
f-862814258
f
GR
GS
[0.75 0 0 0.75 636.90001 459.92751] CT
0 0.447 0.741 RC
N
f-862814258
f
GR
GS
[0.75 0 0 0.75 644.25 470.59253] CT
0 0.447 0.741 RC
N
f-862814258
f
GR
GS
[0.75 0 0 0.75 651.59999 497.8475] CT
0 0.447 0.741 RC
N
f-862814258
f
GR
GS
[0.75 0 0 0.75 658.94998 505.54997] CT
0 0.447 0.741 RC
N
f-862814258
f
GR
GS
[0.75 0 0 0.75 666.30002 517.40001] CT
0 0.447 0.741 RC
N
f-862814258
f
GR
GS
[0.75 0 0 0.75 673.65001 521.54749] CT
0 0.447 0.741 RC
N
f-862814258
f
GR
GS
[0.75 0 0 0.75 681 528.06503] CT
0 0.447 0.741 RC
N
f-862814258
f
GR
GS
[0.75 0 0 0.75 688.34999 532.80499] CT
0 0.447 0.741 RC
N
f-862814258
f
GR
GS
[0.75 0 0 0.75 695.69998 536.95247] CT
0 0.447 0.741 RC
N
f-862814258
f
GR
GS
[0.75 0 0 0.75 703.05002 543.47002] CT
0 0.447 0.741 RC
N
f-862814258
f
GR
GS
[0.75 0 0 0.75 710.40001 557.68999] CT
0 0.447 0.741 RC
N
f-862814258
f
GR
GS
[0.75 0 0 0.75 717.75 547.61749] CT
0 0.447 0.741 RC
N
f-862814258
f
GR
GS
[0.75 0 0 0.75 725.09999 551.76501] CT
0 0.447 0.741 RC
N
f-862814258
f
GR
GS
[0.75 0 0 0.75 732.44998 562.43004] CT
0 0.447 0.741 RC
N
f-862814258
f
GR
GS
[0.75 0 0 0.75 739.80002 562.43004] CT
0 0.447 0.741 RC
N
f-862814258
f
GR
GS
[0.75 0 0 0.75 747.15001 575.46504] CT
0 0.447 0.741 RC
N
f-862814258
f
GR
GS
[0.75 0 0 0.75 754.5 570.13251] CT
0 0.447 0.741 RC
N
f-862814258
f
GR
GS
[0.75 0 0 0.75 761.84999 559.46753] CT
0 0.447 0.741 RC
N
f-862814258
f
GR
GS
[0.75 0 0 0.75 769.19998 571.91] CT
0 0.447 0.741 RC
N
f-862814258
f
GR
GS
[0.75 0 0 0.75 776.55002 560.6525] CT
0 0.447 0.741 RC
N
f-862814258
f
GR
GS
[0.75 0 0 0.75 783.89996 564.20749] CT
0 0.447 0.741 RC
N
f-862814258
f
GR
GS
[0.75 0 0 0.75 791.25 564.80002] CT
0 0.447 0.741 RC
N
f-862814258
f
GR
GS
[0.75 0 0 0.75 798.60004 577.24249] CT
0 0.447 0.741 RC
N
f-862814258
f
GR
GS
[0.75 0 0 0.75 805.94998 566.57751] CT
0 0.447 0.741 RC
N
f-862814258
f
GR
GS
[0.75 0 0 0.75 813.30002 565.98499] CT
0 0.447 0.741 RC
N
f-862814258
f
GR
GS
[0.75 0 0 0.75 820.64996 570.72499] CT
0 0.447 0.741 RC
N
f-862814258
f
GR
GS
[0.75 0 0 0.75 828 572.50253] CT
0 0.447 0.741 RC
N
f-862814258
f
GR
GS
[0.75 0 0 0.75 835.35004 568.94749] CT
0 0.447 0.741 RC
N
f-862814258
f
GR
GS
[0.75 0 0 0.75 842.69998 575.46504] CT
0 0.447 0.741 RC
N
f-862814258
f
GR
GS
[0.75 0 0 0.75 850.05002 560.6525] CT
0 0.447 0.741 RC
N
f-862814258
f
GR
GS
[0.75 0 0 0.75 857.39996 561.24498] CT
0 0.447 0.741 RC
N
f-862814258
f
GR
GS
[0.75 0 0 0.75 864.75 580.205] CT
0 0.447 0.741 RC
N
f-862814258
f
GR
GS
[0.75 0 0 0.75 0 0.5] CT
0.851 0.325 0.098 RC
1 LJ
0.667 LW
N
770.8 247.294 M
780.6 384.063 L
790.4 459.113 L
800.2 513.425 L
810 554.9 L
819.8 580.575 L
829.6 599.337 L
839.4 621.556 L
849.2 645.256 L
859 651.181 L
868.8 664.019 L
878.6 678.337 L
888.4 693.644 L
898.2 687.225 L
908 713.394 L
917.8 704.506 L
927.6 725.737 L
937.4 735.119 L
947.2 735.612 L
957 746.475 L
966.8 745.487 L
976.6 753.388 L
986.4 752.894 L
996.2 759.313 L
1006 746.475 L
1015.8 747.956 L
1025.6 748.45 L
1035.4 757.338 L
1045.2 762.769 L
1055 747.956 L
1064.8 760.794 L
1074.6 759.313 L
1084.4 744.006 L
1094.2 754.869 L
1104 753.388 L
1113.8 752.4 L
1123.6 758.819 L
1133.4 759.806 L
1143.2 756.844 L
1153 762.769 L
S
GR
GS
[0.75 0 0 0.75 578.09999 185.97029] CT
0.851 0.325 0.098 RC
N
f-862814258
f
GR
GS
[0.75 0 0 0.75 585.44998 288.54692] CT
0.851 0.325 0.098 RC
N
f-862814258
f
GR
GS
[0.75 0 0 0.75 592.80002 344.83439] CT
0.851 0.325 0.098 RC
N
f-862814258
f
GR
GS
[0.75 0 0 0.75 600.15001 385.56874] CT
0.851 0.325 0.098 RC
N
f-862814258
f
GR
GS
[0.75 0 0 0.75 607.5 416.67502] CT
0.851 0.325 0.098 RC
N
f-862814258
f
GR
GS
[0.75 0 0 0.75 614.84999 435.93126] CT
0.851 0.325 0.098 RC
N
f-862814258
f
GR
GS
[0.75 0 0 0.75 622.19998 450.0031] CT
0.851 0.325 0.098 RC
N
f-862814258
f
GR
GS
[0.75 0 0 0.75 629.55002 466.66716] CT
0.851 0.325 0.098 RC
N
f-862814258
f
GR
GS
[0.75 0 0 0.75 636.90001 484.44221] CT
0.851 0.325 0.098 RC
N
f-862814258
f
GR
GS
[0.75 0 0 0.75 644.25 488.88596] CT
0.851 0.325 0.098 RC
N
f-862814258
f
GR
GS
[0.75 0 0 0.75 651.59999 498.51405] CT
0.851 0.325 0.098 RC
N
f-862814258
f
GR
GS
[0.75 0 0 0.75 658.94998 509.2531] CT
0.851 0.325 0.098 RC
N
f-862814258
f
GR
GS
[0.75 0 0 0.75 666.30002 520.7328] CT
0.851 0.325 0.098 RC
N
f-862814258
f
GR
GS
[0.75 0 0 0.75 673.65001 515.91873] CT
0.851 0.325 0.098 RC
N
f-862814258
f
GR
GS
[0.75 0 0 0.75 681 535.54535] CT
0.851 0.325 0.098 RC
N
f-862814258
f
GR
GS
[0.75 0 0 0.75 688.34999 528.87971] CT
0.851 0.325 0.098 RC
N
f-862814258
f
GR
GS
[0.75 0 0 0.75 695.69998 544.80312] CT
0.851 0.325 0.098 RC
N
f-862814258
f
GR
GS
[0.75 0 0 0.75 703.05002 551.83904] CT
0.851 0.325 0.098 RC
N
f-862814258
f
GR
GS
[0.75 0 0 0.75 710.40001 552.20937] CT
0.851 0.325 0.098 RC
N
f-862814258
f
GR
GS
[0.75 0 0 0.75 717.75 560.35623] CT
0.851 0.325 0.098 RC
N
f-862814258
f
GR
GS
[0.75 0 0 0.75 725.09999 559.61562] CT
0.851 0.325 0.098 RC
N
f-862814258
f
GR
GS
[0.75 0 0 0.75 732.44998 565.54063] CT
0.851 0.325 0.098 RC
N
f-862814258
f
GR
GS
[0.75 0 0 0.75 739.80002 565.1703] CT
0.851 0.325 0.098 RC
N
f-862814258
f
GR
GS
[0.75 0 0 0.75 747.15001 569.98438] CT
0.851 0.325 0.098 RC
N
f-862814258
f
GR
GS
[0.75 0 0 0.75 754.5 560.35623] CT
0.851 0.325 0.098 RC
N
f-862814258
f
GR
GS
[0.75 0 0 0.75 761.84999 561.46718] CT
0.851 0.325 0.098 RC
N
f-862814258
f
GR
GS
[0.75 0 0 0.75 769.19998 561.83751] CT
0.851 0.325 0.098 RC
N
f-862814258
f
GR
GS
[0.75 0 0 0.75 776.55002 568.50314] CT
0.851 0.325 0.098 RC
N
f-862814258
f
GR
GS
[0.75 0 0 0.75 783.89996 572.57655] CT
0.851 0.325 0.098 RC
N
f-862814258
f
GR
GS
[0.75 0 0 0.75 791.25 561.46718] CT
0.851 0.325 0.098 RC
N
f-862814258
f
GR
GS
[0.75 0 0 0.75 798.60004 571.09532] CT
0.851 0.325 0.098 RC
N
f-862814258
f
GR
GS
[0.75 0 0 0.75 805.94998 569.98438] CT
0.851 0.325 0.098 RC
N
f-862814258
f
GR
GS
[0.75 0 0 0.75 813.30002 558.50467] CT
0.851 0.325 0.098 RC
N
f-862814258
f
GR
GS
[0.75 0 0 0.75 820.64996 566.65158] CT
0.851 0.325 0.098 RC
N
f-862814258
f
GR
GS
[0.75 0 0 0.75 828 565.54063] CT
0.851 0.325 0.098 RC
N
f-862814258
f
GR
GS
[0.75 0 0 0.75 835.35004 564.80002] CT
0.851 0.325 0.098 RC
N
f-862814258
f
GR
GS
[0.75 0 0 0.75 842.69998 569.61409] CT
0.851 0.325 0.098 RC
N
f-862814258
f
GR
GS
[0.75 0 0 0.75 850.05002 570.35471] CT
0.851 0.325 0.098 RC
N
f-862814258
f
GR
GS
[0.75 0 0 0.75 857.39996 568.13281] CT
0.851 0.325 0.098 RC
N
f-862814258
f
GR
GS
[0.75 0 0 0.75 864.75 572.57655] CT
0.851 0.325 0.098 RC
N
f-862814258
f
GR
GS
[0.75 0 0 0.75 0 0.5] CT
1 GC
N
1142 118 M
1142 84 L
1063 84 L
1063 118 L
cp
f
GR
GS
[0.75 0 0 0.75 832.5 70.52174] CT
/Helvetica 12 F
GS
[1 0 0 1 0 0] CT
0 4.5 moveto 
1 -1 scale
(train) t 
GR
GR
GS
[0.75 0 0 0.75 0 0.5] CT
0 0.447 0.741 RC
1 LJ
0.667 LW
N
1067 93.362 M
1107 93.362 L
S
GR
GS
[0.75 0 0 0.75 815.25 70.52174] CT
0 0.447 0.741 RC
N
f-862814258
f
GR
GS
[0.75 0 0 0.75 832.5 81.97826] CT
/Helvetica 12 F
GS
[1 0 0 1 0 0] CT
0 4.5 moveto 
1 -1 scale
(val) t 
GR
GR
GS
[0.75 0 0 0.75 0 0.5] CT
0.851 0.325 0.098 RC
1 LJ
0.667 LW
N
1067 108.638 M
1107 108.638 L
S
GR
GS
[0.75 0 0 0.75 815.25 81.97826] CT
0.851 0.325 0.098 RC
N
f-862814258
f
GR
GS
[0.75 0 0 0.75 0 0.5] CT
0.149 GC
10.0 ML
0.667 LW
N
1063 118 M
1063 84 L
1142 84 L
1142 118 L
cp
S
GR
GS
[0.75 0 0 0.75 0 0.5] CT
1 GC
N
1282 863 M
1673 863 L
1673 73 L
1282 73 L
cp
f
GR
GS
[0.75 0 0 0.75 0 0.5] CT
0.873 GC
1 LJ
0.667 LW
N
1282 863 M
1282 73 L
S
GR
GS
[0.75 0 0 0.75 0 0.5] CT
0.873 GC
1 LJ
0.667 LW
N
1330.875 863 M
1330.875 73 L
S
GR
GS
[0.75 0 0 0.75 0 0.5] CT
0.873 GC
1 LJ
0.667 LW
N
1379.75 863 M
1379.75 73 L
S
GR
GS
[0.75 0 0 0.75 0 0.5] CT
0.873 GC
1 LJ
0.667 LW
N
1428.625 863 M
1428.625 73 L
S
GR
GS
[0.75 0 0 0.75 0 0.5] CT
0.873 GC
1 LJ
0.667 LW
N
1477.5 863 M
1477.5 73 L
S
GR
GS
[0.75 0 0 0.75 0 0.5] CT
0.873 GC
1 LJ
0.667 LW
N
1526.375 863 M
1526.375 73 L
S
GR
GS
[0.75 0 0 0.75 0 0.5] CT
0.873 GC
1 LJ
0.667 LW
N
1575.25 863 M
1575.25 73 L
S
GR
GS
[0.75 0 0 0.75 0 0.5] CT
0.873 GC
1 LJ
0.667 LW
N
1624.125 863 M
1624.125 73 L
S
GR
GS
[0.75 0 0 0.75 0 0.5] CT
0.873 GC
1 LJ
0.667 LW
N
1673 863 M
1673 73 L
S
GR
GS
[0.75 0 0 0.75 0 0.5] CT
0.873 GC
1 LJ
0.667 LW
N
1673 863 M
1282 863 L
S
GR
GS
[0.75 0 0 0.75 0 0.5] CT
0.873 GC
1 LJ
0.667 LW
N
1673 784 M
1282 784 L
S
GR
GS
[0.75 0 0 0.75 0 0.5] CT
0.873 GC
1 LJ
0.667 LW
N
1673 705 M
1282 705 L
S
GR
GS
[0.75 0 0 0.75 0 0.5] CT
0.873 GC
1 LJ
0.667 LW
N
1673 626 M
1282 626 L
S
GR
GS
[0.75 0 0 0.75 0 0.5] CT
0.873 GC
1 LJ
0.667 LW
N
1673 547 M
1282 547 L
S
GR
GS
[0.75 0 0 0.75 0 0.5] CT
0.873 GC
1 LJ
0.667 LW
N
1673 468 M
1282 468 L
S
GR
GS
[0.75 0 0 0.75 0 0.5] CT
0.873 GC
1 LJ
0.667 LW
N
1673 389 M
1282 389 L
S
GR
GS
[0.75 0 0 0.75 0 0.5] CT
0.873 GC
1 LJ
0.667 LW
N
1673 310 M
1282 310 L
S
GR
GS
[0.75 0 0 0.75 0 0.5] CT
0.873 GC
1 LJ
0.667 LW
N
1673 231 M
1282 231 L
S
GR
GS
[0.75 0 0 0.75 0 0.5] CT
0.873 GC
1 LJ
0.667 LW
N
1673 152 M
1282 152 L
S
GR
GS
[0.75 0 0 0.75 0 0.5] CT
0.873 GC
1 LJ
0.667 LW
N
1673 73 M
1282 73 L
S
GR
GS
[0.75 0 0 0.75 0 0.5] CT
0.149 GC
2 setlinecap
1 LJ
0.667 LW
N
1282 863 M
1673 863 L
S
GR
GS
[0.75 0 0 0.75 0 0.5] CT
0.149 GC
2 setlinecap
1 LJ
0.667 LW
N
1282 73 M
1673 73 L
S
GR
GS
[0.75 0 0 0.75 0 0.5] CT
0.149 GC
2 setlinecap
1 LJ
0.667 LW
N
1282 863 M
1282 855.1 L
S
GR
GS
[0.75 0 0 0.75 0 0.5] CT
0.149 GC
2 setlinecap
1 LJ
0.667 LW
N
1330.875 863 M
1330.875 855.1 L
S
GR
GS
[0.75 0 0 0.75 0 0.5] CT
0.149 GC
2 setlinecap
1 LJ
0.667 LW
N
1379.75 863 M
1379.75 855.1 L
S
GR
GS
[0.75 0 0 0.75 0 0.5] CT
0.149 GC
2 setlinecap
1 LJ
0.667 LW
N
1428.625 863 M
1428.625 855.1 L
S
GR
GS
[0.75 0 0 0.75 0 0.5] CT
0.149 GC
2 setlinecap
1 LJ
0.667 LW
N
1477.5 863 M
1477.5 855.1 L
S
GR
GS
[0.75 0 0 0.75 0 0.5] CT
0.149 GC
2 setlinecap
1 LJ
0.667 LW
N
1526.375 863 M
1526.375 855.1 L
S
GR
GS
[0.75 0 0 0.75 0 0.5] CT
0.149 GC
2 setlinecap
1 LJ
0.667 LW
N
1575.25 863 M
1575.25 855.1 L
S
GR
GS
[0.75 0 0 0.75 0 0.5] CT
0.149 GC
2 setlinecap
1 LJ
0.667 LW
N
1624.125 863 M
1624.125 855.1 L
S
GR
GS
[0.75 0 0 0.75 0 0.5] CT
0.149 GC
2 setlinecap
1 LJ
0.667 LW
N
1673 863 M
1673 855.1 L
S
GR
GS
[0.75 0 0 0.75 0 0.5] CT
0.149 GC
2 setlinecap
1 LJ
0.667 LW
N
1282 73 M
1282 80.9 L
S
GR
GS
[0.75 0 0 0.75 0 0.5] CT
0.149 GC
2 setlinecap
1 LJ
0.667 LW
N
1330.875 73 M
1330.875 80.9 L
S
GR
GS
[0.75 0 0 0.75 0 0.5] CT
0.149 GC
2 setlinecap
1 LJ
0.667 LW
N
1379.75 73 M
1379.75 80.9 L
S
GR
GS
[0.75 0 0 0.75 0 0.5] CT
0.149 GC
2 setlinecap
1 LJ
0.667 LW
N
1428.625 73 M
1428.625 80.9 L
S
GR
GS
[0.75 0 0 0.75 0 0.5] CT
0.149 GC
2 setlinecap
1 LJ
0.667 LW
N
1477.5 73 M
1477.5 80.9 L
S
GR
GS
[0.75 0 0 0.75 0 0.5] CT
0.149 GC
2 setlinecap
1 LJ
0.667 LW
N
1526.375 73 M
1526.375 80.9 L
S
GR
GS
[0.75 0 0 0.75 0 0.5] CT
0.149 GC
2 setlinecap
1 LJ
0.667 LW
N
1575.25 73 M
1575.25 80.9 L
S
GR
GS
[0.75 0 0 0.75 0 0.5] CT
0.149 GC
2 setlinecap
1 LJ
0.667 LW
N
1624.125 73 M
1624.125 80.9 L
S
GR
GS
[0.75 0 0 0.75 0 0.5] CT
0.149 GC
2 setlinecap
1 LJ
0.667 LW
N
1673 73 M
1673 80.9 L
S
GR
GS
[0.75 0 0 0.75 961.5 651.74998] CT
0.149 GC
/Helvetica 13.333 F
GS
[1 0 0 1 0 0] CT
-4.5 13 moveto 
1 -1 scale
(0) t 
GR
GR
GS
[0.75 0 0 0.75 998.15625 651.74998] CT
0.149 GC
/Helvetica 13.333 F
GS
[1 0 0 1 0 0] CT
-4.5 13 moveto 
1 -1 scale
(5) t 
GR
GR
GS
[0.75 0 0 0.75 1034.8125 651.74998] CT
0.149 GC
/Helvetica 13.333 F
GS
[1 0 0 1 0 0] CT
-8.5 13 moveto 
1 -1 scale
(10) t 
GR
GR
GS
[0.75 0 0 0.75 1071.46875 651.74998] CT
0.149 GC
/Helvetica 13.333 F
GS
[1 0 0 1 0 0] CT
-8.5 13 moveto 
1 -1 scale
(15) t 
GR
GR
GS
[0.75 0 0 0.75 1108.125 651.74998] CT
0.149 GC
/Helvetica 13.333 F
GS
[1 0 0 1 0 0] CT
-8.5 13 moveto 
1 -1 scale
(20) t 
GR
GR
GS
[0.75 0 0 0.75 1144.78125 651.74998] CT
0.149 GC
/Helvetica 13.333 F
GS
[1 0 0 1 0 0] CT
-8.5 13 moveto 
1 -1 scale
(25) t 
GR
GR
GS
[0.75 0 0 0.75 1181.4375 651.74998] CT
0.149 GC
/Helvetica 13.333 F
GS
[1 0 0 1 0 0] CT
-8.5 13 moveto 
1 -1 scale
(30) t 
GR
GR
GS
[0.75 0 0 0.75 1218.09375 651.74998] CT
0.149 GC
/Helvetica 13.333 F
GS
[1 0 0 1 0 0] CT
-8.5 13 moveto 
1 -1 scale
(35) t 
GR
GR
GS
[0.75 0 0 0.75 1254.75 651.74998] CT
0.149 GC
/Helvetica 13.333 F
GS
[1 0 0 1 0 0] CT
-8.5 13 moveto 
1 -1 scale
(40) t 
GR
GR
GS
[0.75 0 0 0.75 1108.12518 665.50002] CT
0.149 GC
/Helvetica 14.667 F
GS
[1 0 0 1 0 0] CT
-22.5 14 moveto 
1 -1 scale
(epoch) t 
GR
GR
GS
[0.75 0 0 0.75 0 0.5] CT
0.149 GC
2 setlinecap
1 LJ
0.667 LW
N
1282 863 M
1282 73 L
S
GR
GS
[0.75 0 0 0.75 0 0.5] CT
0.149 GC
2 setlinecap
1 LJ
0.667 LW
N
1673 863 M
1673 73 L
S
GR
GS
[0.75 0 0 0.75 0 0.5] CT
0.149 GC
2 setlinecap
1 LJ
0.667 LW
N
1282 863 M
1289.9 863 L
S
GR
GS
[0.75 0 0 0.75 0 0.5] CT
0.149 GC
2 setlinecap
1 LJ
0.667 LW
N
1282 784 M
1289.9 784 L
S
GR
GS
[0.75 0 0 0.75 0 0.5] CT
0.149 GC
2 setlinecap
1 LJ
0.667 LW
N
1282 705 M
1289.9 705 L
S
GR
GS
[0.75 0 0 0.75 0 0.5] CT
0.149 GC
2 setlinecap
1 LJ
0.667 LW
N
1282 626 M
1289.9 626 L
S
GR
GS
[0.75 0 0 0.75 0 0.5] CT
0.149 GC
2 setlinecap
1 LJ
0.667 LW
N
1282 547 M
1289.9 547 L
S
GR
GS
[0.75 0 0 0.75 0 0.5] CT
0.149 GC
2 setlinecap
1 LJ
0.667 LW
N
1282 468 M
1289.9 468 L
S
GR
GS
[0.75 0 0 0.75 0 0.5] CT
0.149 GC
2 setlinecap
1 LJ
0.667 LW
N
1282 389 M
1289.9 389 L
S
GR
GS
[0.75 0 0 0.75 0 0.5] CT
0.149 GC
2 setlinecap
1 LJ
0.667 LW
N
1282 310 M
1289.9 310 L
S
GR
GS
[0.75 0 0 0.75 0 0.5] CT
0.149 GC
2 setlinecap
1 LJ
0.667 LW
N
1282 231 M
1289.9 231 L
S
GR
GS
[0.75 0 0 0.75 0 0.5] CT
0.149 GC
2 setlinecap
1 LJ
0.667 LW
N
1282 152 M
1289.9 152 L
S
GR
GS
[0.75 0 0 0.75 0 0.5] CT
0.149 GC
2 setlinecap
1 LJ
0.667 LW
N
1282 73 M
1289.9 73 L
S
GR
GS
[0.75 0 0 0.75 0 0.5] CT
0.149 GC
2 setlinecap
1 LJ
0.667 LW
N
1673 863 M
1665.1 863 L
S
GR
GS
[0.75 0 0 0.75 0 0.5] CT
0.149 GC
2 setlinecap
1 LJ
0.667 LW
N
1673 784 M
1665.1 784 L
S
GR
GS
[0.75 0 0 0.75 0 0.5] CT
0.149 GC
2 setlinecap
1 LJ
0.667 LW
N
1673 705 M
1665.1 705 L
S
GR
GS
[0.75 0 0 0.75 0 0.5] CT
0.149 GC
2 setlinecap
1 LJ
0.667 LW
N
1673 626 M
1665.1 626 L
S
GR
GS
[0.75 0 0 0.75 0 0.5] CT
0.149 GC
2 setlinecap
1 LJ
0.667 LW
N
1673 547 M
1665.1 547 L
S
GR
GS
[0.75 0 0 0.75 0 0.5] CT
0.149 GC
2 setlinecap
1 LJ
0.667 LW
N
1673 468 M
1665.1 468 L
S
GR
GS
[0.75 0 0 0.75 0 0.5] CT
0.149 GC
2 setlinecap
1 LJ
0.667 LW
N
1673 389 M
1665.1 389 L
S
GR
GS
[0.75 0 0 0.75 0 0.5] CT
0.149 GC
2 setlinecap
1 LJ
0.667 LW
N
1673 310 M
1665.1 310 L
S
GR
GS
[0.75 0 0 0.75 0 0.5] CT
0.149 GC
2 setlinecap
1 LJ
0.667 LW
N
1673 231 M
1665.1 231 L
S
GR
GS
[0.75 0 0 0.75 0 0.5] CT
0.149 GC
2 setlinecap
1 LJ
0.667 LW
N
1673 152 M
1665.1 152 L
S
GR
GS
[0.75 0 0 0.75 0 0.5] CT
0.149 GC
2 setlinecap
1 LJ
0.667 LW
N
1673 73 M
1665.1 73 L
S
GR
GS
[0.75 0 0 0.75 957.49997 647.75] CT
0.149 GC
/Helvetica 13.333 F
GS
[1 0 0 1 0 0] CT
-14 4.5 moveto 
1 -1 scale
(-1) t 
GR
GR
GS
[0.75 0 0 0.75 957.49997 588.5] CT
0.149 GC
/Helvetica 13.333 F
GS
[1 0 0 1 0 0] CT
-26 4.5 moveto 
1 -1 scale
(-0.8) t 
GR
GR
GS
[0.75 0 0 0.75 957.49997 529.25] CT
0.149 GC
/Helvetica 13.333 F
GS
[1 0 0 1 0 0] CT
-26 4.5 moveto 
1 -1 scale
(-0.6) t 
GR
GR
GS
[0.75 0 0 0.75 957.49997 470] CT
0.149 GC
/Helvetica 13.333 F
GS
[1 0 0 1 0 0] CT
-26 4.5 moveto 
1 -1 scale
(-0.4) t 
GR
GR
GS
[0.75 0 0 0.75 957.49997 410.75] CT
0.149 GC
/Helvetica 13.333 F
GS
[1 0 0 1 0 0] CT
-26 4.5 moveto 
1 -1 scale
(-0.2) t 
GR
GR
GS
[0.75 0 0 0.75 957.49997 351.5] CT
0.149 GC
/Helvetica 13.333 F
GS
[1 0 0 1 0 0] CT
-9 4.5 moveto 
1 -1 scale
(0) t 
GR
GR
GS
[0.75 0 0 0.75 957.49997 292.25] CT
0.149 GC
/Helvetica 13.333 F
GS
[1 0 0 1 0 0] CT
-22 4.5 moveto 
1 -1 scale
(0.2) t 
GR
GR
GS
[0.75 0 0 0.75 957.49997 233] CT
0.149 GC
/Helvetica 13.333 F
GS
[1 0 0 1 0 0] CT
-22 4.5 moveto 
1 -1 scale
(0.4) t 
GR
GR
GS
[0.75 0 0 0.75 957.49997 173.74999] CT
0.149 GC
/Helvetica 13.333 F
GS
[1 0 0 1 0 0] CT
-22 4.5 moveto 
1 -1 scale
(0.6) t 
GR
GR
GS
[0.75 0 0 0.75 957.49997 114.5] CT
0.149 GC
/Helvetica 13.333 F
GS
[1 0 0 1 0 0] CT
-22 4.5 moveto 
1 -1 scale
(0.8) t 
GR
GR
GS
[0.75 0 0 0.75 957.49997 55.25] CT
0.149 GC
/Helvetica 13.333 F
GS
[1 0 0 1 0 0] CT
-9 4.5 moveto 
1 -1 scale
(1) t 
GR
GR
GS
[0.75 0 0 0.75 1108.1261 53.18749] CT
/Helvetica-Bold 14.667 F
GS
[1 0 0 1 0 0] CT
-31.5 -4 moveto 
1 -1 scale
(top5err) t 
GR
GR
GS
[0.75 0 0 0.75 0 0.5] CT
0 0.447 0.741 RC
1 LJ
0.667 LW
N
1291.775 468 M
1301.55 468 L
1311.325 468 L
1321.1 468 L
1330.875 468 L
1340.65 468 L
1350.425 468 L
1360.2 468 L
1369.975 468 L
1379.75 468 L
1389.525 468 L
1399.3 468 L
1409.075 468 L
1418.85 468 L
1428.625 468 L
1438.4 468 L
1448.175 468 L
1457.95 468 L
1467.725 468 L
1477.5 468 L
1487.275 468 L
1497.05 468 L
1506.825 468 L
1516.6 468 L
1526.375 468 L
1536.15 468 L
1545.925 468 L
1555.7 468 L
1565.475 468 L
1575.25 468 L
1585.025 468 L
1594.8 468 L
1604.575 468 L
1614.35 468 L
1624.125 468 L
1633.9 468 L
1643.675 468 L
1653.45 468 L
1663.225 468 L
1673 468 L
S
GR
GS
[0.75 0 0 0.75 968.83127 351.5] CT
0 0.447 0.741 RC
N
f-862814258
f
GR
GS
[0.75 0 0 0.75 976.16254 351.5] CT
0 0.447 0.741 RC
N
f-862814258
f
GR
GS
[0.75 0 0 0.75 983.49371 351.5] CT
0 0.447 0.741 RC
N
f-862814258
f
GR
GS
[0.75 0 0 0.75 990.82498 351.5] CT
0 0.447 0.741 RC
N
f-862814258
f
GR
GS
[0.75 0 0 0.75 998.15625 351.5] CT
0 0.447 0.741 RC
N
f-862814258
f
GR
GS
[0.75 0 0 0.75 1005.48752 351.5] CT
0 0.447 0.741 RC
N
f-862814258
f
GR
GS
[0.75 0 0 0.75 1012.81879 351.5] CT
0 0.447 0.741 RC
N
f-862814258
f
GR
GS
[0.75 0 0 0.75 1020.14996 351.5] CT
0 0.447 0.741 RC
N
f-862814258
f
GR
GS
[0.75 0 0 0.75 1027.48123 351.5] CT
0 0.447 0.741 RC
N
f-862814258
f
GR
GS
[0.75 0 0 0.75 1034.8125 351.5] CT
0 0.447 0.741 RC
N
f-862814258
f
GR
GS
[0.75 0 0 0.75 1042.14377 351.5] CT
0 0.447 0.741 RC
N
f-862814258
f
GR
GS
[0.75 0 0 0.75 1049.47504 351.5] CT
0 0.447 0.741 RC
N
f-862814258
f
GR
GS
[0.75 0 0 0.75 1056.80621 351.5] CT
0 0.447 0.741 RC
N
f-862814258
f
GR
GS
[0.75 0 0 0.75 1064.13748 351.5] CT
0 0.447 0.741 RC
N
f-862814258
f
GR
GS
[0.75 0 0 0.75 1071.46875 351.5] CT
0 0.447 0.741 RC
N
f-862814258
f
GR
GS
[0.75 0 0 0.75 1078.80002 351.5] CT
0 0.447 0.741 RC
N
f-862814258
f
GR
GS
[0.75 0 0 0.75 1086.13129 351.5] CT
0 0.447 0.741 RC
N
f-862814258
f
GR
GS
[0.75 0 0 0.75 1093.46246 351.5] CT
0 0.447 0.741 RC
N
f-862814258
f
GR
GS
[0.75 0 0 0.75 1100.79373 351.5] CT
0 0.447 0.741 RC
N
f-862814258
f
GR
GS
[0.75 0 0 0.75 1108.125 351.5] CT
0 0.447 0.741 RC
N
f-862814258
f
GR
GS
[0.75 0 0 0.75 1115.45627 351.5] CT
0 0.447 0.741 RC
N
f-862814258
f
GR
GS
[0.75 0 0 0.75 1122.78754 351.5] CT
0 0.447 0.741 RC
N
f-862814258
f
GR
GS
[0.75 0 0 0.75 1130.11871 351.5] CT
0 0.447 0.741 RC
N
f-862814258
f
GR
GS
[0.75 0 0 0.75 1137.44998 351.5] CT
0 0.447 0.741 RC
N
f-862814258
f
GR
GS
[0.75 0 0 0.75 1144.78125 351.5] CT
0 0.447 0.741 RC
N
f-862814258
f
GR
GS
[0.75 0 0 0.75 1152.11252 351.5] CT
0 0.447 0.741 RC
N
f-862814258
f
GR
GS
[0.75 0 0 0.75 1159.44379 351.5] CT
0 0.447 0.741 RC
N
f-862814258
f
GR
GS
[0.75 0 0 0.75 1166.77496 351.5] CT
0 0.447 0.741 RC
N
f-862814258
f
GR
GS
[0.75 0 0 0.75 1174.10623 351.5] CT
0 0.447 0.741 RC
N
f-862814258
f
GR
GS
[0.75 0 0 0.75 1181.4375 351.5] CT
0 0.447 0.741 RC
N
f-862814258
f
GR
GS
[0.75 0 0 0.75 1188.76877 351.5] CT
0 0.447 0.741 RC
N
f-862814258
f
GR
GS
[0.75 0 0 0.75 1196.10004 351.5] CT
0 0.447 0.741 RC
N
f-862814258
f
GR
GS
[0.75 0 0 0.75 1203.43121 351.5] CT
0 0.447 0.741 RC
N
f-862814258
f
GR
GS
[0.75 0 0 0.75 1210.76248 351.5] CT
0 0.447 0.741 RC
N
f-862814258
f
GR
GS
[0.75 0 0 0.75 1218.09375 351.5] CT
0 0.447 0.741 RC
N
f-862814258
f
GR
GS
[0.75 0 0 0.75 1225.42502 351.5] CT
0 0.447 0.741 RC
N
f-862814258
f
GR
GS
[0.75 0 0 0.75 1232.75629 351.5] CT
0 0.447 0.741 RC
N
f-862814258
f
GR
GS
[0.75 0 0 0.75 1240.08746 351.5] CT
0 0.447 0.741 RC
N
f-862814258
f
GR
GS
[0.75 0 0 0.75 1247.41873 351.5] CT
0 0.447 0.741 RC
N
f-862814258
f
GR
GS
[0.75 0 0 0.75 1254.75 351.5] CT
0 0.447 0.741 RC
N
f-862814258
f
GR
GS
[0.75 0 0 0.75 0 0.5] CT
0.851 0.325 0.098 RC
1 LJ
0.667 LW
N
1291.775 468 M
1301.55 468 L
1311.325 468 L
1321.1 468 L
1330.875 468 L
1340.65 468 L
1350.425 468 L
1360.2 468 L
1369.975 468 L
1379.75 468 L
1389.525 468 L
1399.3 468 L
1409.075 468 L
1418.85 468 L
1428.625 468 L
1438.4 468 L
1448.175 468 L
1457.95 468 L
1467.725 468 L
1477.5 468 L
1487.275 468 L
1497.05 468 L
1506.825 468 L
1516.6 468 L
1526.375 468 L
1536.15 468 L
1545.925 468 L
1555.7 468 L
1565.475 468 L
1575.25 468 L
1585.025 468 L
1594.8 468 L
1604.575 468 L
1614.35 468 L
1624.125 468 L
1633.9 468 L
1643.675 468 L
1653.45 468 L
1663.225 468 L
1673 468 L
S
GR
GS
[0.75 0 0 0.75 968.83127 351.5] CT
0.851 0.325 0.098 RC
N
f-862814258
f
GR
GS
[0.75 0 0 0.75 976.16254 351.5] CT
0.851 0.325 0.098 RC
N
f-862814258
f
GR
GS
[0.75 0 0 0.75 983.49371 351.5] CT
0.851 0.325 0.098 RC
N
f-862814258
f
GR
GS
[0.75 0 0 0.75 990.82498 351.5] CT
0.851 0.325 0.098 RC
N
f-862814258
f
GR
GS
[0.75 0 0 0.75 998.15625 351.5] CT
0.851 0.325 0.098 RC
N
f-862814258
f
GR
GS
[0.75 0 0 0.75 1005.48752 351.5] CT
0.851 0.325 0.098 RC
N
f-862814258
f
GR
GS
[0.75 0 0 0.75 1012.81879 351.5] CT
0.851 0.325 0.098 RC
N
f-862814258
f
GR
GS
[0.75 0 0 0.75 1020.14996 351.5] CT
0.851 0.325 0.098 RC
N
f-862814258
f
GR
GS
[0.75 0 0 0.75 1027.48123 351.5] CT
0.851 0.325 0.098 RC
N
f-862814258
f
GR
GS
[0.75 0 0 0.75 1034.8125 351.5] CT
0.851 0.325 0.098 RC
N
f-862814258
f
GR
GS
[0.75 0 0 0.75 1042.14377 351.5] CT
0.851 0.325 0.098 RC
N
f-862814258
f
GR
GS
[0.75 0 0 0.75 1049.47504 351.5] CT
0.851 0.325 0.098 RC
N
f-862814258
f
GR
GS
[0.75 0 0 0.75 1056.80621 351.5] CT
0.851 0.325 0.098 RC
N
f-862814258
f
GR
GS
[0.75 0 0 0.75 1064.13748 351.5] CT
0.851 0.325 0.098 RC
N
f-862814258
f
GR
GS
[0.75 0 0 0.75 1071.46875 351.5] CT
0.851 0.325 0.098 RC
N
f-862814258
f
GR
GS
[0.75 0 0 0.75 1078.80002 351.5] CT
0.851 0.325 0.098 RC
N
f-862814258
f
GR
GS
[0.75 0 0 0.75 1086.13129 351.5] CT
0.851 0.325 0.098 RC
N
f-862814258
f
GR
GS
[0.75 0 0 0.75 1093.46246 351.5] CT
0.851 0.325 0.098 RC
N
f-862814258
f
GR
GS
[0.75 0 0 0.75 1100.79373 351.5] CT
0.851 0.325 0.098 RC
N
f-862814258
f
GR
GS
[0.75 0 0 0.75 1108.125 351.5] CT
0.851 0.325 0.098 RC
N
f-862814258
f
GR
GS
[0.75 0 0 0.75 1115.45627 351.5] CT
0.851 0.325 0.098 RC
N
f-862814258
f
GR
GS
[0.75 0 0 0.75 1122.78754 351.5] CT
0.851 0.325 0.098 RC
N
f-862814258
f
GR
GS
[0.75 0 0 0.75 1130.11871 351.5] CT
0.851 0.325 0.098 RC
N
f-862814258
f
GR
GS
[0.75 0 0 0.75 1137.44998 351.5] CT
0.851 0.325 0.098 RC
N
f-862814258
f
GR
GS
[0.75 0 0 0.75 1144.78125 351.5] CT
0.851 0.325 0.098 RC
N
f-862814258
f
GR
GS
[0.75 0 0 0.75 1152.11252 351.5] CT
0.851 0.325 0.098 RC
N
f-862814258
f
GR
GS
[0.75 0 0 0.75 1159.44379 351.5] CT
0.851 0.325 0.098 RC
N
f-862814258
f
GR
GS
[0.75 0 0 0.75 1166.77496 351.5] CT
0.851 0.325 0.098 RC
N
f-862814258
f
GR
GS
[0.75 0 0 0.75 1174.10623 351.5] CT
0.851 0.325 0.098 RC
N
f-862814258
f
GR
GS
[0.75 0 0 0.75 1181.4375 351.5] CT
0.851 0.325 0.098 RC
N
f-862814258
f
GR
GS
[0.75 0 0 0.75 1188.76877 351.5] CT
0.851 0.325 0.098 RC
N
f-862814258
f
GR
GS
[0.75 0 0 0.75 1196.10004 351.5] CT
0.851 0.325 0.098 RC
N
f-862814258
f
GR
GS
[0.75 0 0 0.75 1203.43121 351.5] CT
0.851 0.325 0.098 RC
N
f-862814258
f
GR
GS
[0.75 0 0 0.75 1210.76248 351.5] CT
0.851 0.325 0.098 RC
N
f-862814258
f
GR
GS
[0.75 0 0 0.75 1218.09375 351.5] CT
0.851 0.325 0.098 RC
N
f-862814258
f
GR
GS
[0.75 0 0 0.75 1225.42502 351.5] CT
0.851 0.325 0.098 RC
N
f-862814258
f
GR
GS
[0.75 0 0 0.75 1232.75629 351.5] CT
0.851 0.325 0.098 RC
N
f-862814258
f
GR
GS
[0.75 0 0 0.75 1240.08746 351.5] CT
0.851 0.325 0.098 RC
N
f-862814258
f
GR
GS
[0.75 0 0 0.75 1247.41873 351.5] CT
0.851 0.325 0.098 RC
N
f-862814258
f
GR
GS
[0.75 0 0 0.75 1254.75 351.5] CT
0.851 0.325 0.098 RC
N
f-862814258
f
GR
GS
[0.75 0 0 0.75 0 0.5] CT
1 GC
N
1662 118 M
1662 84 L
1583 84 L
1583 118 L
cp
f
GR
GS
[0.75 0 0 0.75 1222.5 70.52174] CT
/Helvetica 12 F
GS
[1 0 0 1 0 0] CT
0 4.5 moveto 
1 -1 scale
(train) t 
GR
GR
GS
[0.75 0 0 0.75 0 0.5] CT
0 0.447 0.741 RC
1 LJ
0.667 LW
N
1587 93.362 M
1627 93.362 L
S
GR
GS
[0.75 0 0 0.75 1205.25 70.52174] CT
0 0.447 0.741 RC
N
f-862814258
f
GR
GS
[0.75 0 0 0.75 1222.5 81.97826] CT
/Helvetica 12 F
GS
[1 0 0 1 0 0] CT
0 4.5 moveto 
1 -1 scale
(val) t 
GR
GR
GS
[0.75 0 0 0.75 0 0.5] CT
0.851 0.325 0.098 RC
1 LJ
0.667 LW
N
1587 108.638 M
1627 108.638 L
S
GR
GS
[0.75 0 0 0.75 1205.25 81.97826] CT
0.851 0.325 0.098 RC
N
f-862814258
f
GR
GS
[0.75 0 0 0.75 0 0.5] CT
0.149 GC
10.0 ML
0.667 LW
N
1583 118 M
1583 84 L
1662 84 L
1662 118 L
cp
S
GR
%%Trailer
%%Pages: 1
%%EOF
