%!PS-Adobe-3.0 EPSF-3.0
%%Creator: (MATLAB, The Mathworks, Inc. Version 9.7.0.1190202 \(R2019b\). Operating System: Linux)
%%Title: /mnt/windows_drive_d/AmsterdamUniversity/Year_1/CV1/FinalProject/Part2/param_sweep/net-train-batch-100-epoch-40.eps
%%CreationDate: 2019-10-27T21:20:24
%%Pages: (atend)
%%BoundingBox: 0 0 1390 728
%%LanguageLevel: 3
%%EndComments
%%BeginProlog
%%BeginResource: procset (Apache XML Graphics Std ProcSet) 1.2 0
%%Version: 1.2 0
%%Copyright: (Copyright 2001-2003,2010 The Apache Software Foundation. License terms: http://www.apache.org/licenses/LICENSE-2.0)
/bd{bind def}bind def
/ld{load def}bd
/GR/grestore ld
/GS/gsave ld
/RM/rmoveto ld
/C/curveto ld
/t/show ld
/L/lineto ld
/ML/setmiterlimit ld
/CT/concat ld
/f/fill ld
/N/newpath ld
/S/stroke ld
/CC/setcmykcolor ld
/A/ashow ld
/cp/closepath ld
/RC/setrgbcolor ld
/LJ/setlinejoin ld
/GC/setgray ld
/LW/setlinewidth ld
/M/moveto ld
/re {4 2 roll M
1 index 0 rlineto
0 exch rlineto
neg 0 rlineto
cp } bd
/_ctm matrix def
/_tm matrix def
/BT { _ctm currentmatrix pop matrix _tm copy pop 0 0 moveto } bd
/ET { _ctm setmatrix } bd
/iTm { _ctm setmatrix _tm concat } bd
/Tm { _tm astore pop iTm 0 0 moveto } bd
/ux 0.0 def
/uy 0.0 def
/F {
  /Tp exch def
  /Tf exch def
  Tf findfont Tp scalefont setfont
  /cf Tf def  /cs Tp def
} bd
/ULS {currentpoint /uy exch def /ux exch def} bd
/ULE {
  /Tcx currentpoint pop def
  gsave
  newpath
  cf findfont cs scalefont dup
  /FontMatrix get 0 get /Ts exch def /FontInfo get dup
  /UnderlinePosition get Ts mul /To exch def
  /UnderlineThickness get Ts mul /Tt exch def
  ux uy To add moveto  Tcx uy To add lineto
  Tt setlinewidth stroke
  grestore
} bd
/OLE {
  /Tcx currentpoint pop def
  gsave
  newpath
  cf findfont cs scalefont dup
  /FontMatrix get 0 get /Ts exch def /FontInfo get dup
  /UnderlinePosition get Ts mul /To exch def
  /UnderlineThickness get Ts mul /Tt exch def
  ux uy To add cs add moveto Tcx uy To add cs add lineto
  Tt setlinewidth stroke
  grestore
} bd
/SOE {
  /Tcx currentpoint pop def
  gsave
  newpath
  cf findfont cs scalefont dup
  /FontMatrix get 0 get /Ts exch def /FontInfo get dup
  /UnderlinePosition get Ts mul /To exch def
  /UnderlineThickness get Ts mul /Tt exch def
  ux uy To add cs 10 mul 26 idiv add moveto Tcx uy To add cs 10 mul 26 idiv add lineto
  Tt setlinewidth stroke
  grestore
} bd
/QT {
/Y22 exch store
/X22 exch store
/Y21 exch store
/X21 exch store
currentpoint
/Y21 load 2 mul add 3 div exch
/X21 load 2 mul add 3 div exch
/X21 load 2 mul /X22 load add 3 div
/Y21 load 2 mul /Y22 load add 3 div
/X22 load /Y22 load curveto
} bd
/SSPD {
dup length /d exch dict def
{
/v exch def
/k exch def
currentpagedevice k known {
/cpdv currentpagedevice k get def
v cpdv ne {
/upd false def
/nullv v type /nulltype eq def
/nullcpdv cpdv type /nulltype eq def
nullv nullcpdv or
{
/upd true def
} {
/sametype v type cpdv type eq def
sametype {
v type /arraytype eq {
/vlen v length def
/cpdvlen cpdv length def
vlen cpdvlen eq {
0 1 vlen 1 sub {
/i exch def
/obj v i get def
/cpdobj cpdv i get def
obj cpdobj ne {
/upd true def
exit
} if
} for
} {
/upd true def
} ifelse
} {
v type /dicttype eq {
v {
/dv exch def
/dk exch def
/cpddv cpdv dk get def
dv cpddv ne {
/upd true def
exit
} if
} forall
} {
/upd true def
} ifelse
} ifelse
} if
} ifelse
upd true eq {
d k v put
} if
} if
} if
} forall
d length 0 gt {
d setpagedevice
} if
} bd
/RE { % /NewFontName [NewEncodingArray] /FontName RE -
  findfont dup length dict begin
  {
    1 index /FID ne
    {def} {pop pop} ifelse
  } forall
  /Encoding exch def
  /FontName 1 index def
  currentdict definefont pop
  end
} bind def
%%EndResource
%%BeginResource: procset (Apache XML Graphics EPS ProcSet) 1.0 0
%%Version: 1.0 0
%%Copyright: (Copyright 2002-2003 The Apache Software Foundation. License terms: http://www.apache.org/licenses/LICENSE-2.0)
/BeginEPSF { %def
/b4_Inc_state save def         % Save state for cleanup
/dict_count countdictstack def % Count objects on dict stack
/op_count count 1 sub def      % Count objects on operand stack
userdict begin                 % Push userdict on dict stack
/showpage { } def              % Redefine showpage, { } = null proc
0 setgray 0 setlinecap         % Prepare graphics state
1 setlinewidth 0 setlinejoin
10 setmiterlimit [ ] 0 setdash newpath
/languagelevel where           % If level not equal to 1 then
{pop languagelevel             % set strokeadjust and
1 ne                           % overprint to their defaults.
{false setstrokeadjust false setoverprint
} if
} if
} bd
/EndEPSF { %def
count op_count sub {pop} repeat            % Clean up stacks
countdictstack dict_count sub {end} repeat
b4_Inc_state restore
} bd
%%EndResource
%FOPBeginFontDict
%%IncludeResource: font Courier-Oblique
%%IncludeResource: font Courier-BoldOblique
%%IncludeResource: font Courier-Bold
%%IncludeResource: font ZapfDingbats
%%IncludeResource: font Symbol
%%IncludeResource: font Helvetica
%%IncludeResource: font Helvetica-Oblique
%%IncludeResource: font Helvetica-Bold
%%IncludeResource: font Helvetica-BoldOblique
%%IncludeResource: font Times-Roman
%%IncludeResource: font Times-Italic
%%IncludeResource: font Times-Bold
%%IncludeResource: font Times-BoldItalic
%%IncludeResource: font Courier
%FOPEndFontDict
%%BeginResource: encoding WinAnsiEncoding
/WinAnsiEncoding [
/.notdef /.notdef /.notdef /.notdef /.notdef
/.notdef /.notdef /.notdef /.notdef /.notdef
/.notdef /.notdef /.notdef /.notdef /.notdef
/.notdef /.notdef /.notdef /.notdef /.notdef
/.notdef /.notdef /.notdef /.notdef /.notdef
/.notdef /.notdef /.notdef /.notdef /.notdef
/.notdef /.notdef /space /exclam /quotedbl
/numbersign /dollar /percent /ampersand /quotesingle
/parenleft /parenright /asterisk /plus /comma
/hyphen /period /slash /zero /one
/two /three /four /five /six
/seven /eight /nine /colon /semicolon
/less /equal /greater /question /at
/A /B /C /D /E
/F /G /H /I /J
/K /L /M /N /O
/P /Q /R /S /T
/U /V /W /X /Y
/Z /bracketleft /backslash /bracketright /asciicircum
/underscore /quoteleft /a /b /c
/d /e /f /g /h
/i /j /k /l /m
/n /o /p /q /r
/s /t /u /v /w
/x /y /z /braceleft /bar
/braceright /asciitilde /bullet /Euro /bullet
/quotesinglbase /florin /quotedblbase /ellipsis /dagger
/daggerdbl /circumflex /perthousand /Scaron /guilsinglleft
/OE /bullet /Zcaron /bullet /bullet
/quoteleft /quoteright /quotedblleft /quotedblright /bullet
/endash /emdash /asciitilde /trademark /scaron
/guilsinglright /oe /bullet /zcaron /Ydieresis
/space /exclamdown /cent /sterling /currency
/yen /brokenbar /section /dieresis /copyright
/ordfeminine /guillemotleft /logicalnot /sfthyphen /registered
/macron /degree /plusminus /twosuperior /threesuperior
/acute /mu /paragraph /middot /cedilla
/onesuperior /ordmasculine /guillemotright /onequarter /onehalf
/threequarters /questiondown /Agrave /Aacute /Acircumflex
/Atilde /Adieresis /Aring /AE /Ccedilla
/Egrave /Eacute /Ecircumflex /Edieresis /Igrave
/Iacute /Icircumflex /Idieresis /Eth /Ntilde
/Ograve /Oacute /Ocircumflex /Otilde /Odieresis
/multiply /Oslash /Ugrave /Uacute /Ucircumflex
/Udieresis /Yacute /Thorn /germandbls /agrave
/aacute /acircumflex /atilde /adieresis /aring
/ae /ccedilla /egrave /eacute /ecircumflex
/edieresis /igrave /iacute /icircumflex /idieresis
/eth /ntilde /ograve /oacute /ocircumflex
/otilde /odieresis /divide /oslash /ugrave
/uacute /ucircumflex /udieresis /yacute /thorn
/ydieresis
] def
%%EndResource
%FOPBeginFontReencode
/Courier-Oblique findfont
dup length dict begin
  {1 index /FID ne {def} {pop pop} ifelse} forall
  /Encoding WinAnsiEncoding def
  currentdict
end
/Courier-Oblique exch definefont pop
/Courier-BoldOblique findfont
dup length dict begin
  {1 index /FID ne {def} {pop pop} ifelse} forall
  /Encoding WinAnsiEncoding def
  currentdict
end
/Courier-BoldOblique exch definefont pop
/Courier-Bold findfont
dup length dict begin
  {1 index /FID ne {def} {pop pop} ifelse} forall
  /Encoding WinAnsiEncoding def
  currentdict
end
/Courier-Bold exch definefont pop
/Helvetica findfont
dup length dict begin
  {1 index /FID ne {def} {pop pop} ifelse} forall
  /Encoding WinAnsiEncoding def
  currentdict
end
/Helvetica exch definefont pop
/Helvetica-Oblique findfont
dup length dict begin
  {1 index /FID ne {def} {pop pop} ifelse} forall
  /Encoding WinAnsiEncoding def
  currentdict
end
/Helvetica-Oblique exch definefont pop
/Helvetica-Bold findfont
dup length dict begin
  {1 index /FID ne {def} {pop pop} ifelse} forall
  /Encoding WinAnsiEncoding def
  currentdict
end
/Helvetica-Bold exch definefont pop
/Helvetica-BoldOblique findfont
dup length dict begin
  {1 index /FID ne {def} {pop pop} ifelse} forall
  /Encoding WinAnsiEncoding def
  currentdict
end
/Helvetica-BoldOblique exch definefont pop
/Times-Roman findfont
dup length dict begin
  {1 index /FID ne {def} {pop pop} ifelse} forall
  /Encoding WinAnsiEncoding def
  currentdict
end
/Times-Roman exch definefont pop
/Times-Italic findfont
dup length dict begin
  {1 index /FID ne {def} {pop pop} ifelse} forall
  /Encoding WinAnsiEncoding def
  currentdict
end
/Times-Italic exch definefont pop
/Times-Bold findfont
dup length dict begin
  {1 index /FID ne {def} {pop pop} ifelse} forall
  /Encoding WinAnsiEncoding def
  currentdict
end
/Times-Bold exch definefont pop
/Times-BoldItalic findfont
dup length dict begin
  {1 index /FID ne {def} {pop pop} ifelse} forall
  /Encoding WinAnsiEncoding def
  currentdict
end
/Times-BoldItalic exch definefont pop
/Courier findfont
dup length dict begin
  {1 index /FID ne {def} {pop pop} ifelse} forall
  /Encoding WinAnsiEncoding def
  currentdict
end
/Courier exch definefont pop
%FOPEndFontReencode
%%EndProlog
%%Page: 1 1
%%PageBoundingBox: 0 0 1390 728
%%BeginPageSetup
[1 0 0 -1 0 728] CT
%%EndPageSetup
GS
[0.75 0 0 0.75 0 0.5] CT
1 GC
N
0 0 1853 970 re
f
GR
GS
[0.75 0 0 0.75 0 0.5] CT
1 GC
N
0 0 1853 970 re
f
GR
GS
[0.75 0 0 0.75 0 0.5] CT
1 GC
N
241 863 M
633 863 L
633 73 L
241 73 L
cp
f
GR
GS
[0.75 0 0 0.75 0 0.5] CT
0.873 GC
1 LJ
0.667 LW
N
241 863 M
241 73 L
S
GR
GS
[0.75 0 0 0.75 0 0.5] CT
0.873 GC
1 LJ
0.667 LW
N
290 863 M
290 73 L
S
GR
GS
[0.75 0 0 0.75 0 0.5] CT
0.873 GC
1 LJ
0.667 LW
N
339 863 M
339 73 L
S
GR
GS
[0.75 0 0 0.75 0 0.5] CT
0.873 GC
1 LJ
0.667 LW
N
388 863 M
388 73 L
S
GR
GS
[0.75 0 0 0.75 0 0.5] CT
0.873 GC
1 LJ
0.667 LW
N
437 863 M
437 73 L
S
GR
GS
[0.75 0 0 0.75 0 0.5] CT
0.873 GC
1 LJ
0.667 LW
N
486 863 M
486 73 L
S
GR
GS
[0.75 0 0 0.75 0 0.5] CT
0.873 GC
1 LJ
0.667 LW
N
535 863 M
535 73 L
S
GR
GS
[0.75 0 0 0.75 0 0.5] CT
0.873 GC
1 LJ
0.667 LW
N
584 863 M
584 73 L
S
GR
GS
[0.75 0 0 0.75 0 0.5] CT
0.873 GC
1 LJ
0.667 LW
N
633 863 M
633 73 L
S
GR
GS
[0.75 0 0 0.75 0 0.5] CT
0.873 GC
1 LJ
0.667 LW
N
633 863 M
241 863 L
S
GR
GS
[0.75 0 0 0.75 0 0.5] CT
0.873 GC
1 LJ
0.667 LW
N
633 731.333 M
241 731.333 L
S
GR
GS
[0.75 0 0 0.75 0 0.5] CT
0.873 GC
1 LJ
0.667 LW
N
633 599.667 M
241 599.667 L
S
GR
GS
[0.75 0 0 0.75 0 0.5] CT
0.873 GC
1 LJ
0.667 LW
N
633 468 M
241 468 L
S
GR
GS
[0.75 0 0 0.75 0 0.5] CT
0.873 GC
1 LJ
0.667 LW
N
633 336.333 M
241 336.333 L
S
GR
GS
[0.75 0 0 0.75 0 0.5] CT
0.873 GC
1 LJ
0.667 LW
N
633 204.667 M
241 204.667 L
S
GR
GS
[0.75 0 0 0.75 0 0.5] CT
0.873 GC
1 LJ
0.667 LW
N
633 73 M
241 73 L
S
GR
GS
[0.75 0 0 0.75 0 0.5] CT
0.149 GC
2 setlinecap
1 LJ
0.667 LW
N
241 863 M
633 863 L
S
GR
GS
[0.75 0 0 0.75 0 0.5] CT
0.149 GC
2 setlinecap
1 LJ
0.667 LW
N
241 73 M
633 73 L
S
GR
GS
[0.75 0 0 0.75 0 0.5] CT
0.149 GC
2 setlinecap
1 LJ
0.667 LW
N
241 863 M
241 855.1 L
S
GR
GS
[0.75 0 0 0.75 0 0.5] CT
0.149 GC
2 setlinecap
1 LJ
0.667 LW
N
290 863 M
290 855.1 L
S
GR
GS
[0.75 0 0 0.75 0 0.5] CT
0.149 GC
2 setlinecap
1 LJ
0.667 LW
N
339 863 M
339 855.1 L
S
GR
GS
[0.75 0 0 0.75 0 0.5] CT
0.149 GC
2 setlinecap
1 LJ
0.667 LW
N
388 863 M
388 855.1 L
S
GR
GS
[0.75 0 0 0.75 0 0.5] CT
0.149 GC
2 setlinecap
1 LJ
0.667 LW
N
437 863 M
437 855.1 L
S
GR
GS
[0.75 0 0 0.75 0 0.5] CT
0.149 GC
2 setlinecap
1 LJ
0.667 LW
N
486 863 M
486 855.1 L
S
GR
GS
[0.75 0 0 0.75 0 0.5] CT
0.149 GC
2 setlinecap
1 LJ
0.667 LW
N
535 863 M
535 855.1 L
S
GR
GS
[0.75 0 0 0.75 0 0.5] CT
0.149 GC
2 setlinecap
1 LJ
0.667 LW
N
584 863 M
584 855.1 L
S
GR
GS
[0.75 0 0 0.75 0 0.5] CT
0.149 GC
2 setlinecap
1 LJ
0.667 LW
N
633 863 M
633 855.1 L
S
GR
GS
[0.75 0 0 0.75 0 0.5] CT
0.149 GC
2 setlinecap
1 LJ
0.667 LW
N
241 73 M
241 80.9 L
S
GR
GS
[0.75 0 0 0.75 0 0.5] CT
0.149 GC
2 setlinecap
1 LJ
0.667 LW
N
290 73 M
290 80.9 L
S
GR
GS
[0.75 0 0 0.75 0 0.5] CT
0.149 GC
2 setlinecap
1 LJ
0.667 LW
N
339 73 M
339 80.9 L
S
GR
GS
[0.75 0 0 0.75 0 0.5] CT
0.149 GC
2 setlinecap
1 LJ
0.667 LW
N
388 73 M
388 80.9 L
S
GR
GS
[0.75 0 0 0.75 0 0.5] CT
0.149 GC
2 setlinecap
1 LJ
0.667 LW
N
437 73 M
437 80.9 L
S
GR
GS
[0.75 0 0 0.75 0 0.5] CT
0.149 GC
2 setlinecap
1 LJ
0.667 LW
N
486 73 M
486 80.9 L
S
GR
GS
[0.75 0 0 0.75 0 0.5] CT
0.149 GC
2 setlinecap
1 LJ
0.667 LW
N
535 73 M
535 80.9 L
S
GR
GS
[0.75 0 0 0.75 0 0.5] CT
0.149 GC
2 setlinecap
1 LJ
0.667 LW
N
584 73 M
584 80.9 L
S
GR
GS
[0.75 0 0 0.75 0 0.5] CT
0.149 GC
2 setlinecap
1 LJ
0.667 LW
N
633 73 M
633 80.9 L
S
GR
GS
[0.75 0 0 0.75 180.75 651.74994] CT
0.149 GC
/Helvetica 13.333 F
GS
[1 0 0 1 0 0] CT
-4.5 13 moveto 
1 -1 scale
(0) t 
GR
GR
GS
[0.75 0 0 0.75 217.5 651.74994] CT
0.149 GC
/Helvetica 13.333 F
GS
[1 0 0 1 0 0] CT
-4.5 13 moveto 
1 -1 scale
(5) t 
GR
GR
GS
[0.75 0 0 0.75 254.25 651.74994] CT
0.149 GC
/Helvetica 13.333 F
GS
[1 0 0 1 0 0] CT
-8.5 13 moveto 
1 -1 scale
(10) t 
GR
GR
GS
[0.75 0 0 0.75 291 651.74994] CT
0.149 GC
/Helvetica 13.333 F
GS
[1 0 0 1 0 0] CT
-8.5 13 moveto 
1 -1 scale
(15) t 
GR
GR
GS
[0.75 0 0 0.75 327.75 651.74994] CT
0.149 GC
/Helvetica 13.333 F
GS
[1 0 0 1 0 0] CT
-8.5 13 moveto 
1 -1 scale
(20) t 
GR
GR
GS
[0.75 0 0 0.75 364.5 651.74994] CT
0.149 GC
/Helvetica 13.333 F
GS
[1 0 0 1 0 0] CT
-8.5 13 moveto 
1 -1 scale
(25) t 
GR
GR
GS
[0.75 0 0 0.75 401.25 651.74994] CT
0.149 GC
/Helvetica 13.333 F
GS
[1 0 0 1 0 0] CT
-8.5 13 moveto 
1 -1 scale
(30) t 
GR
GR
GS
[0.75 0 0 0.75 438 651.74994] CT
0.149 GC
/Helvetica 13.333 F
GS
[1 0 0 1 0 0] CT
-8.5 13 moveto 
1 -1 scale
(35) t 
GR
GR
GS
[0.75 0 0 0.75 474.75 651.74994] CT
0.149 GC
/Helvetica 13.333 F
GS
[1 0 0 1 0 0] CT
-8.5 13 moveto 
1 -1 scale
(40) t 
GR
GR
GS
[0.75 0 0 0.75 327.75014 665.50002] CT
0.149 GC
/Helvetica 14.667 F
GS
[1 0 0 1 0 0] CT
-22.5 14 moveto 
1 -1 scale
(epoch) t 
GR
GR
GS
[0.75 0 0 0.75 0 0.5] CT
0.149 GC
2 setlinecap
1 LJ
0.667 LW
N
241 863 M
241 73 L
S
GR
GS
[0.75 0 0 0.75 0 0.5] CT
0.149 GC
2 setlinecap
1 LJ
0.667 LW
N
633 863 M
633 73 L
S
GR
GS
[0.75 0 0 0.75 0 0.5] CT
0.149 GC
2 setlinecap
1 LJ
0.667 LW
N
241 863 M
248.9 863 L
S
GR
GS
[0.75 0 0 0.75 0 0.5] CT
0.149 GC
2 setlinecap
1 LJ
0.667 LW
N
241 731.333 M
248.9 731.333 L
S
GR
GS
[0.75 0 0 0.75 0 0.5] CT
0.149 GC
2 setlinecap
1 LJ
0.667 LW
N
241 599.667 M
248.9 599.667 L
S
GR
GS
[0.75 0 0 0.75 0 0.5] CT
0.149 GC
2 setlinecap
1 LJ
0.667 LW
N
241 468 M
248.9 468 L
S
GR
GS
[0.75 0 0 0.75 0 0.5] CT
0.149 GC
2 setlinecap
1 LJ
0.667 LW
N
241 336.333 M
248.9 336.333 L
S
GR
GS
[0.75 0 0 0.75 0 0.5] CT
0.149 GC
2 setlinecap
1 LJ
0.667 LW
N
241 204.667 M
248.9 204.667 L
S
GR
GS
[0.75 0 0 0.75 0 0.5] CT
0.149 GC
2 setlinecap
1 LJ
0.667 LW
N
241 73 M
248.9 73 L
S
GR
GS
[0.75 0 0 0.75 0 0.5] CT
0.149 GC
2 setlinecap
1 LJ
0.667 LW
N
633 863 M
625.1 863 L
S
GR
GS
[0.75 0 0 0.75 0 0.5] CT
0.149 GC
2 setlinecap
1 LJ
0.667 LW
N
633 731.333 M
625.1 731.333 L
S
GR
GS
[0.75 0 0 0.75 0 0.5] CT
0.149 GC
2 setlinecap
1 LJ
0.667 LW
N
633 599.667 M
625.1 599.667 L
S
GR
GS
[0.75 0 0 0.75 0 0.5] CT
0.149 GC
2 setlinecap
1 LJ
0.667 LW
N
633 468 M
625.1 468 L
S
GR
GS
[0.75 0 0 0.75 0 0.5] CT
0.149 GC
2 setlinecap
1 LJ
0.667 LW
N
633 336.333 M
625.1 336.333 L
S
GR
GS
[0.75 0 0 0.75 0 0.5] CT
0.149 GC
2 setlinecap
1 LJ
0.667 LW
N
633 204.667 M
625.1 204.667 L
S
GR
GS
[0.75 0 0 0.75 0 0.5] CT
0.149 GC
2 setlinecap
1 LJ
0.667 LW
N
633 73 M
625.1 73 L
S
GR
GS
[0.75 0 0 0.75 176.75 647.74995] CT
0.149 GC
/Helvetica 13.333 F
GS
[1 0 0 1 0 0] CT
-22 4.5 moveto 
1 -1 scale
(1.2) t 
GR
GR
GS
[0.75 0 0 0.75 176.75 549.00003] CT
0.149 GC
/Helvetica 13.333 F
GS
[1 0 0 1 0 0] CT
-22 4.5 moveto 
1 -1 scale
(1.3) t 
GR
GR
GS
[0.75 0 0 0.75 176.75 450.25002] CT
0.149 GC
/Helvetica 13.333 F
GS
[1 0 0 1 0 0] CT
-22 4.5 moveto 
1 -1 scale
(1.4) t 
GR
GR
GS
[0.75 0 0 0.75 176.75 351.5] CT
0.149 GC
/Helvetica 13.333 F
GS
[1 0 0 1 0 0] CT
-22 4.5 moveto 
1 -1 scale
(1.5) t 
GR
GR
GS
[0.75 0 0 0.75 176.75 252.74998] CT
0.149 GC
/Helvetica 13.333 F
GS
[1 0 0 1 0 0] CT
-22 4.5 moveto 
1 -1 scale
(1.6) t 
GR
GR
GS
[0.75 0 0 0.75 176.75 153.99996] CT
0.149 GC
/Helvetica 13.333 F
GS
[1 0 0 1 0 0] CT
-22 4.5 moveto 
1 -1 scale
(1.7) t 
GR
GR
GS
[0.75 0 0 0.75 176.75 55.25005] CT
0.149 GC
/Helvetica 13.333 F
GS
[1 0 0 1 0 0] CT
-22 4.5 moveto 
1 -1 scale
(1.8) t 
GR
GR
GS
[0.75 0 0 0.75 327.7503 53.18749] CT
/Helvetica-Bold 14.667 F
GS
[1 0 0 1 0 0] CT
-38 -4 moveto 
1 -1 scale
(objective) t 
GR
GR
GS
[0.75 0 0 0.75 0 0.5] CT
0 0.447 0.741 RC
1 LJ
0.667 LW
N
250.8 158.694 M
260.6 248.105 L
270.4 313.331 L
280.2 361.072 L
290 401.137 L
299.8 442.201 L
309.6 475.968 L
319.4 504.875 L
329.2 539.65 L
339 568.734 L
348.8 595.084 L
358.6 618.866 L
368.4 641.035 L
378.2 665.477 L
388 681.318 L
397.8 701.503 L
407.6 726.678 L
417.4 739.734 L
427.2 760.457 L
437 765.698 L
446.8 778.013 L
456.6 785.75 L
466.4 781.254 L
476.2 779.961 L
486 785.835 L
495.8 787.398 L
505.6 789.25 L
515.4 789.795 L
525.2 792.639 L
535 794.027 L
544.8 793.285 L
554.6 795.149 L
564.4 795.579 L
574.2 802.411 L
584 800.678 L
593.8 803.477 L
603.6 804.275 L
613.4 803.373 L
623.2 807.827 L
633 806.911 L
S
GR
GS
[0.75 0 0 0.75 188.1 119.52024] CT
0 0.447 0.741 RC
N
0 -3.667 M
2.025 -3.667 3.667 -2.025 3.667 0 C
3.667 0 L
3.667 2.025 2.025 3.667 0 3.667 C
-2.025 3.667 -3.667 2.025 -3.667 0 C
-3.667 -2.025 -2.025 -3.667 0 -3.667 C
cp
0 -4.333 M
-2.393 -4.333 -4.333 -2.393 -4.333 0 C
-4.333 2.393 -2.393 4.333 0 4.333 C
2.393 4.333 4.333 2.393 4.333 0 C
4.333 0 L
4.333 -2.393 2.393 -4.333 0 -4.333 C
cp
f
GR
GS
[0.75 0 0 0.75 195.45 186.57896] CT
0 0.447 0.741 RC
N
/f-862814258{0 -3.667 M
2.025 -3.667 3.667 -2.025 3.667 0 C
3.667 0 L
3.667 2.025 2.025 3.667 0 3.667 C
-2.025 3.667 -3.667 2.025 -3.667 0 C
-3.667 -2.025 -2.025 -3.667 0 -3.667 C
cp
0 -4.333 M
-2.393 -4.333 -4.333 -2.393 -4.333 0 C
-4.333 2.393 -2.393 4.333 0 4.333 C
2.393 4.333 4.333 2.393 4.333 0 C
4.333 0 L
4.333 -2.393 2.393 -4.333 0 -4.333 C
cp}def
f-862814258
f
GR
GS
[0.75 0 0 0.75 202.8 235.49788] CT
0 0.447 0.741 RC
N
f-862814258
f
GR
GS
[0.75 0 0 0.75 210.15001 271.30429] CT
0 0.447 0.741 RC
N
f-862814258
f
GR
GS
[0.75 0 0 0.75 217.5 301.35281] CT
0 0.447 0.741 RC
N
f-862814258
f
GR
GS
[0.75 0 0 0.75 224.84999 332.15097] CT
0 0.447 0.741 RC
N
f-862814258
f
GR
GS
[0.75 0 0 0.75 232.2 357.4759] CT
0 0.447 0.741 RC
N
f-862814258
f
GR
GS
[0.75 0 0 0.75 239.55 379.15623] CT
0 0.447 0.741 RC
N
f-862814258
f
GR
GS
[0.75 0 0 0.75 246.90001 405.23738] CT
0 0.447 0.741 RC
N
f-862814258
f
GR
GS
[0.75 0 0 0.75 254.25 427.05042] CT
0 0.447 0.741 RC
N
f-862814258
f
GR
GS
[0.75 0 0 0.75 261.59999 446.81285] CT
0 0.447 0.741 RC
N
f-862814258
f
GR
GS
[0.75 0 0 0.75 268.95 464.6498] CT
0 0.447 0.741 RC
N
f-862814258
f
GR
GS
[0.75 0 0 0.75 276.3 481.27596] CT
0 0.447 0.741 RC
N
f-862814258
f
GR
GS
[0.75 0 0 0.75 283.65001 499.60765] CT
0 0.447 0.741 RC
N
f-862814258
f
GR
GS
[0.75 0 0 0.75 291 511.48882] CT
0 0.447 0.741 RC
N
f-862814258
f
GR
GS
[0.75 0 0 0.75 298.34999 526.62729] CT
0 0.447 0.741 RC
N
f-862814258
f
GR
GS
[0.75 0 0 0.75 305.7 545.50862] CT
0 0.447 0.741 RC
N
f-862814258
f
GR
GS
[0.75 0 0 0.75 313.05 555.30037] CT
0 0.447 0.741 RC
N
f-862814258
f
GR
GS
[0.75 0 0 0.75 320.40001 570.84259] CT
0 0.447 0.741 RC
N
f-862814258
f
GR
GS
[0.75 0 0 0.75 327.75 574.77382] CT
0 0.447 0.741 RC
N
f-862814258
f
GR
GS
[0.75 0 0 0.75 335.09999 584.00975] CT
0 0.447 0.741 RC
N
f-862814258
f
GR
GS
[0.75 0 0 0.75 342.45 589.81282] CT
0 0.447 0.741 RC
N
f-862814258
f
GR
GS
[0.75 0 0 0.75 349.8 586.44029] CT
0 0.447 0.741 RC
N
f-862814258
f
GR
GS
[0.75 0 0 0.75 357.15001 585.47098] CT
0 0.447 0.741 RC
N
f-862814258
f
GR
GS
[0.75 0 0 0.75 364.5 589.8764] CT
0 0.447 0.741 RC
N
f-862814258
f
GR
GS
[0.75 0 0 0.75 371.84999 591.04865] CT
0 0.447 0.741 RC
N
f-862814258
f
GR
GS
[0.75 0 0 0.75 379.2 592.43773] CT
0 0.447 0.741 RC
N
f-862814258
f
GR
GS
[0.75 0 0 0.75 386.55002 592.84596] CT
0 0.447 0.741 RC
N
f-862814258
f
GR
GS
[0.75 0 0 0.75 393.90001 594.97905] CT
0 0.447 0.741 RC
N
f-862814258
f
GR
GS
[0.75 0 0 0.75 401.25 596.02028] CT
0 0.447 0.741 RC
N
f-862814258
f
GR
GS
[0.75 0 0 0.75 408.59999 595.46405] CT
0 0.447 0.741 RC
N
f-862814258
f
GR
GS
[0.75 0 0 0.75 415.94998 596.86174] CT
0 0.447 0.741 RC
N
f-862814258
f
GR
GS
[0.75 0 0 0.75 423.30002 597.18428] CT
0 0.447 0.741 RC
N
f-862814258
f
GR
GS
[0.75 0 0 0.75 430.65001 602.30821] CT
0 0.447 0.741 RC
N
f-862814258
f
GR
GS
[0.75 0 0 0.75 438 601.00816] CT
0 0.447 0.741 RC
N
f-862814258
f
GR
GS
[0.75 0 0 0.75 445.34999 603.10756] CT
0 0.447 0.741 RC
N
f-862814258
f
GR
GS
[0.75 0 0 0.75 452.69998 603.7059] CT
0 0.447 0.741 RC
N
f-862814258
f
GR
GS
[0.75 0 0 0.75 460.05002 603.02951] CT
0 0.447 0.741 RC
N
f-862814258
f
GR
GS
[0.75 0 0 0.75 467.40001 606.37036] CT
0 0.447 0.741 RC
N
f-862814258
f
GR
GS
[0.75 0 0 0.75 474.75 605.68349] CT
0 0.447 0.741 RC
N
f-862814258
f
GR
GS
[0.75 0 0 0.75 0 0.5] CT
0.851 0.325 0.098 RC
1 LJ
0.667 LW
N
250.8 200.675 M
260.6 278.312 L
270.4 332.258 L
280.2 375.162 L
290 411.565 L
299.8 447.11 L
309.6 478.433 L
319.4 508.455 L
329.2 535.745 L
339 559.514 L
348.8 582.023 L
358.6 605.662 L
368.4 626.373 L
378.2 646.984 L
388 666.23 L
397.8 681.989 L
407.6 703.108 L
417.4 717.465 L
427.2 734.266 L
437 747.623 L
446.8 745.951 L
456.6 750.305 L
466.4 750.995 L
476.2 750.415 L
486 750.618 L
495.8 756.236 L
505.6 757.966 L
515.4 753.848 L
525.2 755.325 L
535 761.197 L
544.8 759.434 L
554.6 763.152 L
564.4 761.986 L
574.2 766.858 L
584 764.076 L
593.8 768.685 L
603.6 776.657 L
613.4 769.615 L
623.2 765.53 L
633 768.682 L
S
GR
GS
[0.75 0 0 0.75 188.1 151.00611] CT
0.851 0.325 0.098 RC
N
f-862814258
f
GR
GS
[0.75 0 0 0.75 195.45 209.23426] CT
0.851 0.325 0.098 RC
N
f-862814258
f
GR
GS
[0.75 0 0 0.75 202.8 249.69329] CT
0.851 0.325 0.098 RC
N
f-862814258
f
GR
GS
[0.75 0 0 0.75 210.15001 281.87158] CT
0.851 0.325 0.098 RC
N
f-862814258
f
GR
GS
[0.75 0 0 0.75 217.5 309.17407] CT
0.851 0.325 0.098 RC
N
f-862814258
f
GR
GS
[0.75 0 0 0.75 224.84999 335.83263] CT
0.851 0.325 0.098 RC
N
f-862814258
f
GR
GS
[0.75 0 0 0.75 232.2 359.32504] CT
0.851 0.325 0.098 RC
N
f-862814258
f
GR
GS
[0.75 0 0 0.75 239.55 381.84106] CT
0.851 0.325 0.098 RC
N
f-862814258
f
GR
GS
[0.75 0 0 0.75 246.90001 402.30865] CT
0.851 0.325 0.098 RC
N
f-862814258
f
GR
GS
[0.75 0 0 0.75 254.25 420.13571] CT
0.851 0.325 0.098 RC
N
f-862814258
f
GR
GS
[0.75 0 0 0.75 261.59999 437.01735] CT
0.851 0.325 0.098 RC
N
f-862814258
f
GR
GS
[0.75 0 0 0.75 268.95 454.74631] CT
0.851 0.325 0.098 RC
N
f-862814258
f
GR
GS
[0.75 0 0 0.75 276.3 470.2796] CT
0.851 0.325 0.098 RC
N
f-862814258
f
GR
GS
[0.75 0 0 0.75 283.65001 485.73824] CT
0.851 0.325 0.098 RC
N
f-862814258
f
GR
GS
[0.75 0 0 0.75 291 500.17285] CT
0.851 0.325 0.098 RC
N
f-862814258
f
GR
GS
[0.75 0 0 0.75 298.34999 511.99194] CT
0.851 0.325 0.098 RC
N
f-862814258
f
GR
GS
[0.75 0 0 0.75 305.7 527.83107] CT
0.851 0.325 0.098 RC
N
f-862814258
f
GR
GS
[0.75 0 0 0.75 313.05 538.5985] CT
0.851 0.325 0.098 RC
N
f-862814258
f
GR
GS
[0.75 0 0 0.75 320.40001 551.19949] CT
0.851 0.325 0.098 RC
N
f-862814258
f
GR
GS
[0.75 0 0 0.75 327.75 561.21742] CT
0.851 0.325 0.098 RC
N
f-862814258
f
GR
GS
[0.75 0 0 0.75 335.09999 559.96333] CT
0.851 0.325 0.098 RC
N
f-862814258
f
GR
GS
[0.75 0 0 0.75 342.45 563.22852] CT
0.851 0.325 0.098 RC
N
f-862814258
f
GR
GS
[0.75 0 0 0.75 349.8 563.74648] CT
0.851 0.325 0.098 RC
N
f-862814258
f
GR
GS
[0.75 0 0 0.75 357.15001 563.31151] CT
0.851 0.325 0.098 RC
N
f-862814258
f
GR
GS
[0.75 0 0 0.75 364.5 563.46339] CT
0.851 0.325 0.098 RC
N
f-862814258
f
GR
GS
[0.75 0 0 0.75 371.84999 567.67665] CT
0.851 0.325 0.098 RC
N
f-862814258
f
GR
GS
[0.75 0 0 0.75 379.2 568.9745] CT
0.851 0.325 0.098 RC
N
f-862814258
f
GR
GS
[0.75 0 0 0.75 386.55002 565.88615] CT
0.851 0.325 0.098 RC
N
f-862814258
f
GR
GS
[0.75 0 0 0.75 393.90001 566.99376] CT
0.851 0.325 0.098 RC
N
f-862814258
f
GR
GS
[0.75 0 0 0.75 401.25 571.39754] CT
0.851 0.325 0.098 RC
N
f-862814258
f
GR
GS
[0.75 0 0 0.75 408.59999 570.07556] CT
0.851 0.325 0.098 RC
N
f-862814258
f
GR
GS
[0.75 0 0 0.75 415.94998 572.86385] CT
0.851 0.325 0.098 RC
N
f-862814258
f
GR
GS
[0.75 0 0 0.75 423.30002 571.98965] CT
0.851 0.325 0.098 RC
N
f-862814258
f
GR
GS
[0.75 0 0 0.75 430.65001 575.64343] CT
0.851 0.325 0.098 RC
N
f-862814258
f
GR
GS
[0.75 0 0 0.75 438 573.55699] CT
0.851 0.325 0.098 RC
N
f-862814258
f
GR
GS
[0.75 0 0 0.75 445.34999 577.01379] CT
0.851 0.325 0.098 RC
N
f-862814258
f
GR
GS
[0.75 0 0 0.75 452.69998 582.99242] CT
0.851 0.325 0.098 RC
N
f-862814258
f
GR
GS
[0.75 0 0 0.75 460.05002 577.71115] CT
0.851 0.325 0.098 RC
N
f-862814258
f
GR
GS
[0.75 0 0 0.75 467.40001 574.64766] CT
0.851 0.325 0.098 RC
N
f-862814258
f
GR
GS
[0.75 0 0 0.75 474.75 577.01118] CT
0.851 0.325 0.098 RC
N
f-862814258
f
GR
GS
[0.75 0 0 0.75 0 0.5] CT
1 GC
N
622 118 M
622 84 L
543 84 L
543 118 L
cp
f
GR
GS
[0.75 0 0 0.75 442.5 70.52174] CT
/Helvetica 12 F
GS
[1 0 0 1 0 0] CT
0 4.5 moveto 
1 -1 scale
(train) t 
GR
GR
GS
[0.75 0 0 0.75 0 0.5] CT
0 0.447 0.741 RC
1 LJ
0.667 LW
N
547 93.362 M
587 93.362 L
S
GR
GS
[0.75 0 0 0.75 425.25 70.52174] CT
0 0.447 0.741 RC
N
f-862814258
f
GR
GS
[0.75 0 0 0.75 442.5 81.97826] CT
/Helvetica 12 F
GS
[1 0 0 1 0 0] CT
0 4.5 moveto 
1 -1 scale
(val) t 
GR
GR
GS
[0.75 0 0 0.75 0 0.5] CT
0.851 0.325 0.098 RC
1 LJ
0.667 LW
N
547 108.638 M
587 108.638 L
S
GR
GS
[0.75 0 0 0.75 425.25 81.97826] CT
0.851 0.325 0.098 RC
N
f-862814258
f
GR
GS
[0.75 0 0 0.75 0 0.5] CT
0.149 GC
10.0 ML
0.667 LW
N
543 118 M
543 84 L
622 84 L
622 118 L
cp
S
GR
GS
[0.75 0 0 0.75 0 0.5] CT
1 GC
N
761 863 M
1153 863 L
1153 73 L
761 73 L
cp
f
GR
GS
[0.75 0 0 0.75 0 0.5] CT
0.873 GC
1 LJ
0.667 LW
N
761 863 M
761 73 L
S
GR
GS
[0.75 0 0 0.75 0 0.5] CT
0.873 GC
1 LJ
0.667 LW
N
810 863 M
810 73 L
S
GR
GS
[0.75 0 0 0.75 0 0.5] CT
0.873 GC
1 LJ
0.667 LW
N
859 863 M
859 73 L
S
GR
GS
[0.75 0 0 0.75 0 0.5] CT
0.873 GC
1 LJ
0.667 LW
N
908 863 M
908 73 L
S
GR
GS
[0.75 0 0 0.75 0 0.5] CT
0.873 GC
1 LJ
0.667 LW
N
957 863 M
957 73 L
S
GR
GS
[0.75 0 0 0.75 0 0.5] CT
0.873 GC
1 LJ
0.667 LW
N
1006 863 M
1006 73 L
S
GR
GS
[0.75 0 0 0.75 0 0.5] CT
0.873 GC
1 LJ
0.667 LW
N
1055 863 M
1055 73 L
S
GR
GS
[0.75 0 0 0.75 0 0.5] CT
0.873 GC
1 LJ
0.667 LW
N
1104 863 M
1104 73 L
S
GR
GS
[0.75 0 0 0.75 0 0.5] CT
0.873 GC
1 LJ
0.667 LW
N
1153 863 M
1153 73 L
S
GR
GS
[0.75 0 0 0.75 0 0.5] CT
0.873 GC
1 LJ
0.667 LW
N
1153 863 M
761 863 L
S
GR
GS
[0.75 0 0 0.75 0 0.5] CT
0.873 GC
1 LJ
0.667 LW
N
1153 775.222 M
761 775.222 L
S
GR
GS
[0.75 0 0 0.75 0 0.5] CT
0.873 GC
1 LJ
0.667 LW
N
1153 687.444 M
761 687.444 L
S
GR
GS
[0.75 0 0 0.75 0 0.5] CT
0.873 GC
1 LJ
0.667 LW
N
1153 599.667 M
761 599.667 L
S
GR
GS
[0.75 0 0 0.75 0 0.5] CT
0.873 GC
1 LJ
0.667 LW
N
1153 511.889 M
761 511.889 L
S
GR
GS
[0.75 0 0 0.75 0 0.5] CT
0.873 GC
1 LJ
0.667 LW
N
1153 424.111 M
761 424.111 L
S
GR
GS
[0.75 0 0 0.75 0 0.5] CT
0.873 GC
1 LJ
0.667 LW
N
1153 336.333 M
761 336.333 L
S
GR
GS
[0.75 0 0 0.75 0 0.5] CT
0.873 GC
1 LJ
0.667 LW
N
1153 248.556 M
761 248.556 L
S
GR
GS
[0.75 0 0 0.75 0 0.5] CT
0.873 GC
1 LJ
0.667 LW
N
1153 160.778 M
761 160.778 L
S
GR
GS
[0.75 0 0 0.75 0 0.5] CT
0.873 GC
1 LJ
0.667 LW
N
1153 73 M
761 73 L
S
GR
GS
[0.75 0 0 0.75 0 0.5] CT
0.149 GC
2 setlinecap
1 LJ
0.667 LW
N
761 863 M
1153 863 L
S
GR
GS
[0.75 0 0 0.75 0 0.5] CT
0.149 GC
2 setlinecap
1 LJ
0.667 LW
N
761 73 M
1153 73 L
S
GR
GS
[0.75 0 0 0.75 0 0.5] CT
0.149 GC
2 setlinecap
1 LJ
0.667 LW
N
761 863 M
761 855.1 L
S
GR
GS
[0.75 0 0 0.75 0 0.5] CT
0.149 GC
2 setlinecap
1 LJ
0.667 LW
N
810 863 M
810 855.1 L
S
GR
GS
[0.75 0 0 0.75 0 0.5] CT
0.149 GC
2 setlinecap
1 LJ
0.667 LW
N
859 863 M
859 855.1 L
S
GR
GS
[0.75 0 0 0.75 0 0.5] CT
0.149 GC
2 setlinecap
1 LJ
0.667 LW
N
908 863 M
908 855.1 L
S
GR
GS
[0.75 0 0 0.75 0 0.5] CT
0.149 GC
2 setlinecap
1 LJ
0.667 LW
N
957 863 M
957 855.1 L
S
GR
GS
[0.75 0 0 0.75 0 0.5] CT
0.149 GC
2 setlinecap
1 LJ
0.667 LW
N
1006 863 M
1006 855.1 L
S
GR
GS
[0.75 0 0 0.75 0 0.5] CT
0.149 GC
2 setlinecap
1 LJ
0.667 LW
N
1055 863 M
1055 855.1 L
S
GR
GS
[0.75 0 0 0.75 0 0.5] CT
0.149 GC
2 setlinecap
1 LJ
0.667 LW
N
1104 863 M
1104 855.1 L
S
GR
GS
[0.75 0 0 0.75 0 0.5] CT
0.149 GC
2 setlinecap
1 LJ
0.667 LW
N
1153 863 M
1153 855.1 L
S
GR
GS
[0.75 0 0 0.75 0 0.5] CT
0.149 GC
2 setlinecap
1 LJ
0.667 LW
N
761 73 M
761 80.9 L
S
GR
GS
[0.75 0 0 0.75 0 0.5] CT
0.149 GC
2 setlinecap
1 LJ
0.667 LW
N
810 73 M
810 80.9 L
S
GR
GS
[0.75 0 0 0.75 0 0.5] CT
0.149 GC
2 setlinecap
1 LJ
0.667 LW
N
859 73 M
859 80.9 L
S
GR
GS
[0.75 0 0 0.75 0 0.5] CT
0.149 GC
2 setlinecap
1 LJ
0.667 LW
N
908 73 M
908 80.9 L
S
GR
GS
[0.75 0 0 0.75 0 0.5] CT
0.149 GC
2 setlinecap
1 LJ
0.667 LW
N
957 73 M
957 80.9 L
S
GR
GS
[0.75 0 0 0.75 0 0.5] CT
0.149 GC
2 setlinecap
1 LJ
0.667 LW
N
1006 73 M
1006 80.9 L
S
GR
GS
[0.75 0 0 0.75 0 0.5] CT
0.149 GC
2 setlinecap
1 LJ
0.667 LW
N
1055 73 M
1055 80.9 L
S
GR
GS
[0.75 0 0 0.75 0 0.5] CT
0.149 GC
2 setlinecap
1 LJ
0.667 LW
N
1104 73 M
1104 80.9 L
S
GR
GS
[0.75 0 0 0.75 0 0.5] CT
0.149 GC
2 setlinecap
1 LJ
0.667 LW
N
1153 73 M
1153 80.9 L
S
GR
GS
[0.75 0 0 0.75 570.75 651.75003] CT
0.149 GC
/Helvetica 13.333 F
GS
[1 0 0 1 0 0] CT
-4.5 13 moveto 
1 -1 scale
(0) t 
GR
GR
GS
[0.75 0 0 0.75 607.5 651.75003] CT
0.149 GC
/Helvetica 13.333 F
GS
[1 0 0 1 0 0] CT
-4.5 13 moveto 
1 -1 scale
(5) t 
GR
GR
GS
[0.75 0 0 0.75 644.25 651.75003] CT
0.149 GC
/Helvetica 13.333 F
GS
[1 0 0 1 0 0] CT
-8.5 13 moveto 
1 -1 scale
(10) t 
GR
GR
GS
[0.75 0 0 0.75 681 651.75003] CT
0.149 GC
/Helvetica 13.333 F
GS
[1 0 0 1 0 0] CT
-8.5 13 moveto 
1 -1 scale
(15) t 
GR
GR
GS
[0.75 0 0 0.75 717.75 651.75003] CT
0.149 GC
/Helvetica 13.333 F
GS
[1 0 0 1 0 0] CT
-8.5 13 moveto 
1 -1 scale
(20) t 
GR
GR
GS
[0.75 0 0 0.75 754.5 651.75003] CT
0.149 GC
/Helvetica 13.333 F
GS
[1 0 0 1 0 0] CT
-8.5 13 moveto 
1 -1 scale
(25) t 
GR
GR
GS
[0.75 0 0 0.75 791.25 651.75003] CT
0.149 GC
/Helvetica 13.333 F
GS
[1 0 0 1 0 0] CT
-8.5 13 moveto 
1 -1 scale
(30) t 
GR
GR
GS
[0.75 0 0 0.75 828 651.75003] CT
0.149 GC
/Helvetica 13.333 F
GS
[1 0 0 1 0 0] CT
-8.5 13 moveto 
1 -1 scale
(35) t 
GR
GR
GS
[0.75 0 0 0.75 864.75 651.75003] CT
0.149 GC
/Helvetica 13.333 F
GS
[1 0 0 1 0 0] CT
-8.5 13 moveto 
1 -1 scale
(40) t 
GR
GR
GS
[0.75 0 0 0.75 717.75014 665.50002] CT
0.149 GC
/Helvetica 14.667 F
GS
[1 0 0 1 0 0] CT
-22.5 14 moveto 
1 -1 scale
(epoch) t 
GR
GR
GS
[0.75 0 0 0.75 0 0.5] CT
0.149 GC
2 setlinecap
1 LJ
0.667 LW
N
761 863 M
761 73 L
S
GR
GS
[0.75 0 0 0.75 0 0.5] CT
0.149 GC
2 setlinecap
1 LJ
0.667 LW
N
1153 863 M
1153 73 L
S
GR
GS
[0.75 0 0 0.75 0 0.5] CT
0.149 GC
2 setlinecap
1 LJ
0.667 LW
N
761 863 M
768.9 863 L
S
GR
GS
[0.75 0 0 0.75 0 0.5] CT
0.149 GC
2 setlinecap
1 LJ
0.667 LW
N
761 775.222 M
768.9 775.222 L
S
GR
GS
[0.75 0 0 0.75 0 0.5] CT
0.149 GC
2 setlinecap
1 LJ
0.667 LW
N
761 687.444 M
768.9 687.444 L
S
GR
GS
[0.75 0 0 0.75 0 0.5] CT
0.149 GC
2 setlinecap
1 LJ
0.667 LW
N
761 599.667 M
768.9 599.667 L
S
GR
GS
[0.75 0 0 0.75 0 0.5] CT
0.149 GC
2 setlinecap
1 LJ
0.667 LW
N
761 511.889 M
768.9 511.889 L
S
GR
GS
[0.75 0 0 0.75 0 0.5] CT
0.149 GC
2 setlinecap
1 LJ
0.667 LW
N
761 424.111 M
768.9 424.111 L
S
GR
GS
[0.75 0 0 0.75 0 0.5] CT
0.149 GC
2 setlinecap
1 LJ
0.667 LW
N
761 336.333 M
768.9 336.333 L
S
GR
GS
[0.75 0 0 0.75 0 0.5] CT
0.149 GC
2 setlinecap
1 LJ
0.667 LW
N
761 248.556 M
768.9 248.556 L
S
GR
GS
[0.75 0 0 0.75 0 0.5] CT
0.149 GC
2 setlinecap
1 LJ
0.667 LW
N
761 160.778 M
768.9 160.778 L
S
GR
GS
[0.75 0 0 0.75 0 0.5] CT
0.149 GC
2 setlinecap
1 LJ
0.667 LW
N
761 73 M
768.9 73 L
S
GR
GS
[0.75 0 0 0.75 0 0.5] CT
0.149 GC
2 setlinecap
1 LJ
0.667 LW
N
1153 863 M
1145.1 863 L
S
GR
GS
[0.75 0 0 0.75 0 0.5] CT
0.149 GC
2 setlinecap
1 LJ
0.667 LW
N
1153 775.222 M
1145.1 775.222 L
S
GR
GS
[0.75 0 0 0.75 0 0.5] CT
0.149 GC
2 setlinecap
1 LJ
0.667 LW
N
1153 687.444 M
1145.1 687.444 L
S
GR
GS
[0.75 0 0 0.75 0 0.5] CT
0.149 GC
2 setlinecap
1 LJ
0.667 LW
N
1153 599.667 M
1145.1 599.667 L
S
GR
GS
[0.75 0 0 0.75 0 0.5] CT
0.149 GC
2 setlinecap
1 LJ
0.667 LW
N
1153 511.889 M
1145.1 511.889 L
S
GR
GS
[0.75 0 0 0.75 0 0.5] CT
0.149 GC
2 setlinecap
1 LJ
0.667 LW
N
1153 424.111 M
1145.1 424.111 L
S
GR
GS
[0.75 0 0 0.75 0 0.5] CT
0.149 GC
2 setlinecap
1 LJ
0.667 LW
N
1153 336.333 M
1145.1 336.333 L
S
GR
GS
[0.75 0 0 0.75 0 0.5] CT
0.149 GC
2 setlinecap
1 LJ
0.667 LW
N
1153 248.556 M
1145.1 248.556 L
S
GR
GS
[0.75 0 0 0.75 0 0.5] CT
0.149 GC
2 setlinecap
1 LJ
0.667 LW
N
1153 160.778 M
1145.1 160.778 L
S
GR
GS
[0.75 0 0 0.75 0 0.5] CT
0.149 GC
2 setlinecap
1 LJ
0.667 LW
N
1153 73 M
1145.1 73 L
S
GR
GS
[0.75 0 0 0.75 566.75002 647.75] CT
0.149 GC
/Helvetica 13.333 F
GS
[1 0 0 1 0 0] CT
-30 4.5 moveto 
1 -1 scale
(0.45) t 
GR
GR
GS
[0.75 0 0 0.75 566.75002 581.91667] CT
0.149 GC
/Helvetica 13.333 F
GS
[1 0 0 1 0 0] CT
-22 4.5 moveto 
1 -1 scale
(0.5) t 
GR
GR
GS
[0.75 0 0 0.75 566.75002 516.0833] CT
0.149 GC
/Helvetica 13.333 F
GS
[1 0 0 1 0 0] CT
-30 4.5 moveto 
1 -1 scale
(0.55) t 
GR
GR
GS
[0.75 0 0 0.75 566.75002 450.24997] CT
0.149 GC
/Helvetica 13.333 F
GS
[1 0 0 1 0 0] CT
-22 4.5 moveto 
1 -1 scale
(0.6) t 
GR
GR
GS
[0.75 0 0 0.75 566.75002 384.41669] CT
0.149 GC
/Helvetica 13.333 F
GS
[1 0 0 1 0 0] CT
-30 4.5 moveto 
1 -1 scale
(0.65) t 
GR
GR
GS
[0.75 0 0 0.75 566.75002 318.58336] CT
0.149 GC
/Helvetica 13.333 F
GS
[1 0 0 1 0 0] CT
-22 4.5 moveto 
1 -1 scale
(0.7) t 
GR
GR
GS
[0.75 0 0 0.75 566.75002 252.75001] CT
0.149 GC
/Helvetica 13.333 F
GS
[1 0 0 1 0 0] CT
-30 4.5 moveto 
1 -1 scale
(0.75) t 
GR
GR
GS
[0.75 0 0 0.75 566.75002 186.91666] CT
0.149 GC
/Helvetica 13.333 F
GS
[1 0 0 1 0 0] CT
-22 4.5 moveto 
1 -1 scale
(0.8) t 
GR
GR
GS
[0.75 0 0 0.75 566.75002 121.08331] CT
0.149 GC
/Helvetica 13.333 F
GS
[1 0 0 1 0 0] CT
-30 4.5 moveto 
1 -1 scale
(0.85) t 
GR
GR
GS
[0.75 0 0 0.75 566.75002 55.25003] CT
0.149 GC
/Helvetica 13.333 F
GS
[1 0 0 1 0 0] CT
-22 4.5 moveto 
1 -1 scale
(0.9) t 
GR
GR
GS
[0.75 0 0 0.75 717.75069 53.18751] CT
/Helvetica-Bold 14.667 F
GS
[1 0 0 1 0 0] CT
-31.5 -4 moveto 
1 -1 scale
(top1err) t 
GR
GR
GS
[0.75 0 0 0.75 0 0.5] CT
0 0.447 0.741 RC
1 LJ
0.667 LW
N
770.8 157.267 M
780.6 213.444 L
790.4 317.373 L
800.2 369.338 L
810 405.151 L
819.8 473.969 L
829.6 509.782 L
839.4 530.849 L
849.2 610.902 L
859 619.329 L
868.8 650.227 L
878.6 667.782 L
888.4 679.018 L
898.2 707.809 L
908 695.871 L
917.8 726.067 L
927.6 740.111 L
937.4 753.453 L
947.2 774.52 L
957 769.604 L
966.8 775.222 L
976.6 787.862 L
986.4 781.542 L
996.2 775.222 L
1006 789.267 L
1015.8 785.756 L
1025.6 787.862 L
1035.4 797.693 L
1045.2 794.182 L
1055 786.458 L
1064.8 790.671 L
1074.6 794.182 L
1084.4 794.182 L
1094.2 809.631 L
1104 787.862 L
1113.8 806.822 L
1123.6 804.013 L
1133.4 797.693 L
1143.2 801.204 L
1153 794.182 L
S
GR
GS
[0.75 0 0 0.75 578.09999 118.45] CT
0 0.447 0.741 RC
N
f-862814258
f
GR
GS
[0.75 0 0 0.75 585.44998 160.58334] CT
0 0.447 0.741 RC
N
f-862814258
f
GR
GS
[0.75 0 0 0.75 592.80002 238.52999] CT
0 0.447 0.741 RC
N
f-862814258
f
GR
GS
[0.75 0 0 0.75 600.15001 277.50335] CT
0 0.447 0.741 RC
N
f-862814258
f
GR
GS
[0.75 0 0 0.75 607.5 304.36334] CT
0 0.447 0.741 RC
N
f-862814258
f
GR
GS
[0.75 0 0 0.75 614.84999 355.97668] CT
0 0.447 0.741 RC
N
f-862814258
f
GR
GS
[0.75 0 0 0.75 622.19998 382.83667] CT
0 0.447 0.741 RC
N
f-862814258
f
GR
GS
[0.75 0 0 0.75 629.55002 398.6367] CT
0 0.447 0.741 RC
N
f-862814258
f
GR
GS
[0.75 0 0 0.75 636.90001 458.67671] CT
0 0.447 0.741 RC
N
f-862814258
f
GR
GS
[0.75 0 0 0.75 644.25 464.99664] CT
0 0.447 0.741 RC
N
f-862814258
f
GR
GS
[0.75 0 0 0.75 651.59999 488.16997] CT
0 0.447 0.741 RC
N
f-862814258
f
GR
GS
[0.75 0 0 0.75 658.94998 501.33662] CT
0 0.447 0.741 RC
N
f-862814258
f
GR
GS
[0.75 0 0 0.75 666.30002 509.76337] CT
0 0.447 0.741 RC
N
f-862814258
f
GR
GS
[0.75 0 0 0.75 673.65001 531.35667] CT
0 0.447 0.741 RC
N
f-862814258
f
GR
GS
[0.75 0 0 0.75 681 522.40337] CT
0 0.447 0.741 RC
N
f-862814258
f
GR
GS
[0.75 0 0 0.75 688.34999 545.04999] CT
0 0.447 0.741 RC
N
f-862814258
f
GR
GS
[0.75 0 0 0.75 695.69998 555.58336] CT
0 0.447 0.741 RC
N
f-862814258
f
GR
GS
[0.75 0 0 0.75 703.05002 565.59003] CT
0 0.447 0.741 RC
N
f-862814258
f
GR
GS
[0.75 0 0 0.75 710.40001 581.38997] CT
0 0.447 0.741 RC
N
f-862814258
f
GR
GS
[0.75 0 0 0.75 717.75 577.70332] CT
0 0.447 0.741 RC
N
f-862814258
f
GR
GS
[0.75 0 0 0.75 725.09999 581.91667] CT
0 0.447 0.741 RC
N
f-862814258
f
GR
GS
[0.75 0 0 0.75 732.44998 591.39668] CT
0 0.447 0.741 RC
N
f-862814258
f
GR
GS
[0.75 0 0 0.75 739.80002 586.65668] CT
0 0.447 0.741 RC
N
f-862814258
f
GR
GS
[0.75 0 0 0.75 747.15001 581.91667] CT
0 0.447 0.741 RC
N
f-862814258
f
GR
GS
[0.75 0 0 0.75 754.5 592.45] CT
0 0.447 0.741 RC
N
f-862814258
f
GR
GS
[0.75 0 0 0.75 761.84999 589.81667] CT
0 0.447 0.741 RC
N
f-862814258
f
GR
GS
[0.75 0 0 0.75 769.19998 591.39668] CT
0 0.447 0.741 RC
N
f-862814258
f
GR
GS
[0.75 0 0 0.75 776.55002 598.77002] CT
0 0.447 0.741 RC
N
f-862814258
f
GR
GS
[0.75 0 0 0.75 783.89996 596.13669] CT
0 0.447 0.741 RC
N
f-862814258
f
GR
GS
[0.75 0 0 0.75 791.25 590.34332] CT
0 0.447 0.741 RC
N
f-862814258
f
GR
GS
[0.75 0 0 0.75 798.60004 593.50331] CT
0 0.447 0.741 RC
N
f-862814258
f
GR
GS
[0.75 0 0 0.75 805.94998 596.13669] CT
0 0.447 0.741 RC
N
f-862814258
f
GR
GS
[0.75 0 0 0.75 813.30002 596.13669] CT
0 0.447 0.741 RC
N
f-862814258
f
GR
GS
[0.75 0 0 0.75 820.64996 607.72333] CT
0 0.447 0.741 RC
N
f-862814258
f
GR
GS
[0.75 0 0 0.75 828 591.39668] CT
0 0.447 0.741 RC
N
f-862814258
f
GR
GS
[0.75 0 0 0.75 835.35004 605.61665] CT
0 0.447 0.741 RC
N
f-862814258
f
GR
GS
[0.75 0 0 0.75 842.69998 603.51003] CT
0 0.447 0.741 RC
N
f-862814258
f
GR
GS
[0.75 0 0 0.75 850.05002 598.77002] CT
0 0.447 0.741 RC
N
f-862814258
f
GR
GS
[0.75 0 0 0.75 857.39996 601.40335] CT
0 0.447 0.741 RC
N
f-862814258
f
GR
GS
[0.75 0 0 0.75 864.75 596.13669] CT
0 0.447 0.741 RC
N
f-862814258
f
GR
GS
[0.75 0 0 0.75 0 0.5] CT
0.851 0.325 0.098 RC
1 LJ
0.667 LW
N
770.8 137.956 M
780.6 243.289 L
790.4 307.806 L
800.2 366.617 L
810 412.7 L
819.8 458.344 L
829.6 505.306 L
839.4 550.95 L
849.2 585.622 L
859 593.083 L
868.8 614.589 L
878.6 639.606 L
888.4 645.75 L
898.2 668.133 L
908 678.228 L
917.8 704.561 L
927.6 714.656 L
937.4 733.089 L
947.2 740.111 L
957 746.694 L
966.8 750.644 L
976.6 750.206 L
986.4 751.522 L
996.2 764.25 L
1006 745.817 L
1015.8 760.3 L
1025.6 766.444 L
1035.4 748.889 L
1045.2 745.378 L
1055 759.422 L
1064.8 755.472 L
1074.6 770.833 L
1084.4 762.056 L
1094.2 762.494 L
1104 766.006 L
1113.8 775.222 L
1123.6 776.539 L
1133.4 766.006 L
1143.2 758.106 L
1153 755.472 L
S
GR
GS
[0.75 0 0 0.75 578.09999 103.9667] CT
0.851 0.325 0.098 RC
N
f-862814258
f
GR
GS
[0.75 0 0 0.75 585.44998 182.96671] CT
0.851 0.325 0.098 RC
N
f-862814258
f
GR
GS
[0.75 0 0 0.75 592.80002 231.35416] CT
0.851 0.325 0.098 RC
N
f-862814258
f
GR
GS
[0.75 0 0 0.75 600.15001 275.4625] CT
0.851 0.325 0.098 RC
N
f-862814258
f
GR
GS
[0.75 0 0 0.75 607.5 310.02501] CT
0.851 0.325 0.098 RC
N
f-862814258
f
GR
GS
[0.75 0 0 0.75 614.84999 344.25836] CT
0.851 0.325 0.098 RC
N
f-862814258
f
GR
GS
[0.75 0 0 0.75 622.19998 379.47916] CT
0.851 0.325 0.098 RC
N
f-862814258
f
GR
GS
[0.75 0 0 0.75 629.55002 413.71251] CT
0.851 0.325 0.098 RC
N
f-862814258
f
GR
GS
[0.75 0 0 0.75 636.90001 439.71669] CT
0.851 0.325 0.098 RC
N
f-862814258
f
GR
GS
[0.75 0 0 0.75 644.25 445.31253] CT
0.851 0.325 0.098 RC
N
f-862814258
f
GR
GS
[0.75 0 0 0.75 651.59999 461.4417] CT
0.851 0.325 0.098 RC
N
f-862814258
f
GR
GS
[0.75 0 0 0.75 658.94998 480.20415] CT
0.851 0.325 0.098 RC
N
f-862814258
f
GR
GS
[0.75 0 0 0.75 666.30002 484.81245] CT
0.851 0.325 0.098 RC
N
f-862814258
f
GR
GS
[0.75 0 0 0.75 673.65001 501.60002] CT
0.851 0.325 0.098 RC
N
f-862814258
f
GR
GS
[0.75 0 0 0.75 681 509.17084] CT
0.851 0.325 0.098 RC
N
f-862814258
f
GR
GS
[0.75 0 0 0.75 688.34999 528.92082] CT
0.851 0.325 0.098 RC
N
f-862814258
f
GR
GS
[0.75 0 0 0.75 695.69998 536.49168] CT
0.851 0.325 0.098 RC
N
f-862814258
f
GR
GS
[0.75 0 0 0.75 703.05002 550.3167] CT
0.851 0.325 0.098 RC
N
f-862814258
f
GR
GS
[0.75 0 0 0.75 710.40001 555.58336] CT
0.851 0.325 0.098 RC
N
f-862814258
f
GR
GS
[0.75 0 0 0.75 717.75 560.5208] CT
0.851 0.325 0.098 RC
N
f-862814258
f
GR
GS
[0.75 0 0 0.75 725.09999 563.48335] CT
0.851 0.325 0.098 RC
N
f-862814258
f
GR
GS
[0.75 0 0 0.75 732.44998 563.15417] CT
0.851 0.325 0.098 RC
N
f-862814258
f
GR
GS
[0.75 0 0 0.75 739.80002 564.14171] CT
0.851 0.325 0.098 RC
N
f-862814258
f
GR
GS
[0.75 0 0 0.75 747.15001 573.68745] CT
0.851 0.325 0.098 RC
N
f-862814258
f
GR
GS
[0.75 0 0 0.75 754.5 559.86253] CT
0.851 0.325 0.098 RC
N
f-862814258
f
GR
GS
[0.75 0 0 0.75 761.84999 570.72504] CT
0.851 0.325 0.098 RC
N
f-862814258
f
GR
GS
[0.75 0 0 0.75 769.19998 575.33334] CT
0.851 0.325 0.098 RC
N
f-862814258
f
GR
GS
[0.75 0 0 0.75 776.55002 562.16669] CT
0.851 0.325 0.098 RC
N
f-862814258
f
GR
GS
[0.75 0 0 0.75 783.89996 559.53331] CT
0.851 0.325 0.098 RC
N
f-862814258
f
GR
GS
[0.75 0 0 0.75 791.25 570.06668] CT
0.851 0.325 0.098 RC
N
f-862814258
f
GR
GS
[0.75 0 0 0.75 798.60004 567.10413] CT
0.851 0.325 0.098 RC
N
f-862814258
f
GR
GS
[0.75 0 0 0.75 805.94998 578.62498] CT
0.851 0.325 0.098 RC
N
f-862814258
f
GR
GS
[0.75 0 0 0.75 813.30002 572.04166] CT
0.851 0.325 0.098 RC
N
f-862814258
f
GR
GS
[0.75 0 0 0.75 820.64996 572.37083] CT
0.851 0.325 0.098 RC
N
f-862814258
f
GR
GS
[0.75 0 0 0.75 828 575.00421] CT
0.851 0.325 0.098 RC
N
f-862814258
f
GR
GS
[0.75 0 0 0.75 835.35004 581.91667] CT
0.851 0.325 0.098 RC
N
f-862814258
f
GR
GS
[0.75 0 0 0.75 842.69998 582.90416] CT
0.851 0.325 0.098 RC
N
f-862814258
f
GR
GS
[0.75 0 0 0.75 850.05002 575.00421] CT
0.851 0.325 0.098 RC
N
f-862814258
f
GR
GS
[0.75 0 0 0.75 857.39996 569.07915] CT
0.851 0.325 0.098 RC
N
f-862814258
f
GR
GS
[0.75 0 0 0.75 864.75 567.10413] CT
0.851 0.325 0.098 RC
N
f-862814258
f
GR
GS
[0.75 0 0 0.75 0 0.5] CT
1 GC
N
1142 118 M
1142 84 L
1063 84 L
1063 118 L
cp
f
GR
GS
[0.75 0 0 0.75 832.5 70.52174] CT
/Helvetica 12 F
GS
[1 0 0 1 0 0] CT
0 4.5 moveto 
1 -1 scale
(train) t 
GR
GR
GS
[0.75 0 0 0.75 0 0.5] CT
0 0.447 0.741 RC
1 LJ
0.667 LW
N
1067 93.362 M
1107 93.362 L
S
GR
GS
[0.75 0 0 0.75 815.25 70.52174] CT
0 0.447 0.741 RC
N
f-862814258
f
GR
GS
[0.75 0 0 0.75 832.5 81.97826] CT
/Helvetica 12 F
GS
[1 0 0 1 0 0] CT
0 4.5 moveto 
1 -1 scale
(val) t 
GR
GR
GS
[0.75 0 0 0.75 0 0.5] CT
0.851 0.325 0.098 RC
1 LJ
0.667 LW
N
1067 108.638 M
1107 108.638 L
S
GR
GS
[0.75 0 0 0.75 815.25 81.97826] CT
0.851 0.325 0.098 RC
N
f-862814258
f
GR
GS
[0.75 0 0 0.75 0 0.5] CT
0.149 GC
10.0 ML
0.667 LW
N
1063 118 M
1063 84 L
1142 84 L
1142 118 L
cp
S
GR
GS
[0.75 0 0 0.75 0 0.5] CT
1 GC
N
1282 863 M
1673 863 L
1673 73 L
1282 73 L
cp
f
GR
GS
[0.75 0 0 0.75 0 0.5] CT
0.873 GC
1 LJ
0.667 LW
N
1282 863 M
1282 73 L
S
GR
GS
[0.75 0 0 0.75 0 0.5] CT
0.873 GC
1 LJ
0.667 LW
N
1330.875 863 M
1330.875 73 L
S
GR
GS
[0.75 0 0 0.75 0 0.5] CT
0.873 GC
1 LJ
0.667 LW
N
1379.75 863 M
1379.75 73 L
S
GR
GS
[0.75 0 0 0.75 0 0.5] CT
0.873 GC
1 LJ
0.667 LW
N
1428.625 863 M
1428.625 73 L
S
GR
GS
[0.75 0 0 0.75 0 0.5] CT
0.873 GC
1 LJ
0.667 LW
N
1477.5 863 M
1477.5 73 L
S
GR
GS
[0.75 0 0 0.75 0 0.5] CT
0.873 GC
1 LJ
0.667 LW
N
1526.375 863 M
1526.375 73 L
S
GR
GS
[0.75 0 0 0.75 0 0.5] CT
0.873 GC
1 LJ
0.667 LW
N
1575.25 863 M
1575.25 73 L
S
GR
GS
[0.75 0 0 0.75 0 0.5] CT
0.873 GC
1 LJ
0.667 LW
N
1624.125 863 M
1624.125 73 L
S
GR
GS
[0.75 0 0 0.75 0 0.5] CT
0.873 GC
1 LJ
0.667 LW
N
1673 863 M
1673 73 L
S
GR
GS
[0.75 0 0 0.75 0 0.5] CT
0.873 GC
1 LJ
0.667 LW
N
1673 863 M
1282 863 L
S
GR
GS
[0.75 0 0 0.75 0 0.5] CT
0.873 GC
1 LJ
0.667 LW
N
1673 784 M
1282 784 L
S
GR
GS
[0.75 0 0 0.75 0 0.5] CT
0.873 GC
1 LJ
0.667 LW
N
1673 705 M
1282 705 L
S
GR
GS
[0.75 0 0 0.75 0 0.5] CT
0.873 GC
1 LJ
0.667 LW
N
1673 626 M
1282 626 L
S
GR
GS
[0.75 0 0 0.75 0 0.5] CT
0.873 GC
1 LJ
0.667 LW
N
1673 547 M
1282 547 L
S
GR
GS
[0.75 0 0 0.75 0 0.5] CT
0.873 GC
1 LJ
0.667 LW
N
1673 468 M
1282 468 L
S
GR
GS
[0.75 0 0 0.75 0 0.5] CT
0.873 GC
1 LJ
0.667 LW
N
1673 389 M
1282 389 L
S
GR
GS
[0.75 0 0 0.75 0 0.5] CT
0.873 GC
1 LJ
0.667 LW
N
1673 310 M
1282 310 L
S
GR
GS
[0.75 0 0 0.75 0 0.5] CT
0.873 GC
1 LJ
0.667 LW
N
1673 231 M
1282 231 L
S
GR
GS
[0.75 0 0 0.75 0 0.5] CT
0.873 GC
1 LJ
0.667 LW
N
1673 152 M
1282 152 L
S
GR
GS
[0.75 0 0 0.75 0 0.5] CT
0.873 GC
1 LJ
0.667 LW
N
1673 73 M
1282 73 L
S
GR
GS
[0.75 0 0 0.75 0 0.5] CT
0.149 GC
2 setlinecap
1 LJ
0.667 LW
N
1282 863 M
1673 863 L
S
GR
GS
[0.75 0 0 0.75 0 0.5] CT
0.149 GC
2 setlinecap
1 LJ
0.667 LW
N
1282 73 M
1673 73 L
S
GR
GS
[0.75 0 0 0.75 0 0.5] CT
0.149 GC
2 setlinecap
1 LJ
0.667 LW
N
1282 863 M
1282 855.1 L
S
GR
GS
[0.75 0 0 0.75 0 0.5] CT
0.149 GC
2 setlinecap
1 LJ
0.667 LW
N
1330.875 863 M
1330.875 855.1 L
S
GR
GS
[0.75 0 0 0.75 0 0.5] CT
0.149 GC
2 setlinecap
1 LJ
0.667 LW
N
1379.75 863 M
1379.75 855.1 L
S
GR
GS
[0.75 0 0 0.75 0 0.5] CT
0.149 GC
2 setlinecap
1 LJ
0.667 LW
N
1428.625 863 M
1428.625 855.1 L
S
GR
GS
[0.75 0 0 0.75 0 0.5] CT
0.149 GC
2 setlinecap
1 LJ
0.667 LW
N
1477.5 863 M
1477.5 855.1 L
S
GR
GS
[0.75 0 0 0.75 0 0.5] CT
0.149 GC
2 setlinecap
1 LJ
0.667 LW
N
1526.375 863 M
1526.375 855.1 L
S
GR
GS
[0.75 0 0 0.75 0 0.5] CT
0.149 GC
2 setlinecap
1 LJ
0.667 LW
N
1575.25 863 M
1575.25 855.1 L
S
GR
GS
[0.75 0 0 0.75 0 0.5] CT
0.149 GC
2 setlinecap
1 LJ
0.667 LW
N
1624.125 863 M
1624.125 855.1 L
S
GR
GS
[0.75 0 0 0.75 0 0.5] CT
0.149 GC
2 setlinecap
1 LJ
0.667 LW
N
1673 863 M
1673 855.1 L
S
GR
GS
[0.75 0 0 0.75 0 0.5] CT
0.149 GC
2 setlinecap
1 LJ
0.667 LW
N
1282 73 M
1282 80.9 L
S
GR
GS
[0.75 0 0 0.75 0 0.5] CT
0.149 GC
2 setlinecap
1 LJ
0.667 LW
N
1330.875 73 M
1330.875 80.9 L
S
GR
GS
[0.75 0 0 0.75 0 0.5] CT
0.149 GC
2 setlinecap
1 LJ
0.667 LW
N
1379.75 73 M
1379.75 80.9 L
S
GR
GS
[0.75 0 0 0.75 0 0.5] CT
0.149 GC
2 setlinecap
1 LJ
0.667 LW
N
1428.625 73 M
1428.625 80.9 L
S
GR
GS
[0.75 0 0 0.75 0 0.5] CT
0.149 GC
2 setlinecap
1 LJ
0.667 LW
N
1477.5 73 M
1477.5 80.9 L
S
GR
GS
[0.75 0 0 0.75 0 0.5] CT
0.149 GC
2 setlinecap
1 LJ
0.667 LW
N
1526.375 73 M
1526.375 80.9 L
S
GR
GS
[0.75 0 0 0.75 0 0.5] CT
0.149 GC
2 setlinecap
1 LJ
0.667 LW
N
1575.25 73 M
1575.25 80.9 L
S
GR
GS
[0.75 0 0 0.75 0 0.5] CT
0.149 GC
2 setlinecap
1 LJ
0.667 LW
N
1624.125 73 M
1624.125 80.9 L
S
GR
GS
[0.75 0 0 0.75 0 0.5] CT
0.149 GC
2 setlinecap
1 LJ
0.667 LW
N
1673 73 M
1673 80.9 L
S
GR
GS
[0.75 0 0 0.75 961.5 651.74998] CT
0.149 GC
/Helvetica 13.333 F
GS
[1 0 0 1 0 0] CT
-4.5 13 moveto 
1 -1 scale
(0) t 
GR
GR
GS
[0.75 0 0 0.75 998.15625 651.74998] CT
0.149 GC
/Helvetica 13.333 F
GS
[1 0 0 1 0 0] CT
-4.5 13 moveto 
1 -1 scale
(5) t 
GR
GR
GS
[0.75 0 0 0.75 1034.8125 651.74998] CT
0.149 GC
/Helvetica 13.333 F
GS
[1 0 0 1 0 0] CT
-8.5 13 moveto 
1 -1 scale
(10) t 
GR
GR
GS
[0.75 0 0 0.75 1071.46875 651.74998] CT
0.149 GC
/Helvetica 13.333 F
GS
[1 0 0 1 0 0] CT
-8.5 13 moveto 
1 -1 scale
(15) t 
GR
GR
GS
[0.75 0 0 0.75 1108.125 651.74998] CT
0.149 GC
/Helvetica 13.333 F
GS
[1 0 0 1 0 0] CT
-8.5 13 moveto 
1 -1 scale
(20) t 
GR
GR
GS
[0.75 0 0 0.75 1144.78125 651.74998] CT
0.149 GC
/Helvetica 13.333 F
GS
[1 0 0 1 0 0] CT
-8.5 13 moveto 
1 -1 scale
(25) t 
GR
GR
GS
[0.75 0 0 0.75 1181.4375 651.74998] CT
0.149 GC
/Helvetica 13.333 F
GS
[1 0 0 1 0 0] CT
-8.5 13 moveto 
1 -1 scale
(30) t 
GR
GR
GS
[0.75 0 0 0.75 1218.09375 651.74998] CT
0.149 GC
/Helvetica 13.333 F
GS
[1 0 0 1 0 0] CT
-8.5 13 moveto 
1 -1 scale
(35) t 
GR
GR
GS
[0.75 0 0 0.75 1254.75 651.74998] CT
0.149 GC
/Helvetica 13.333 F
GS
[1 0 0 1 0 0] CT
-8.5 13 moveto 
1 -1 scale
(40) t 
GR
GR
GS
[0.75 0 0 0.75 1108.12518 665.50002] CT
0.149 GC
/Helvetica 14.667 F
GS
[1 0 0 1 0 0] CT
-22.5 14 moveto 
1 -1 scale
(epoch) t 
GR
GR
GS
[0.75 0 0 0.75 0 0.5] CT
0.149 GC
2 setlinecap
1 LJ
0.667 LW
N
1282 863 M
1282 73 L
S
GR
GS
[0.75 0 0 0.75 0 0.5] CT
0.149 GC
2 setlinecap
1 LJ
0.667 LW
N
1673 863 M
1673 73 L
S
GR
GS
[0.75 0 0 0.75 0 0.5] CT
0.149 GC
2 setlinecap
1 LJ
0.667 LW
N
1282 863 M
1289.9 863 L
S
GR
GS
[0.75 0 0 0.75 0 0.5] CT
0.149 GC
2 setlinecap
1 LJ
0.667 LW
N
1282 784 M
1289.9 784 L
S
GR
GS
[0.75 0 0 0.75 0 0.5] CT
0.149 GC
2 setlinecap
1 LJ
0.667 LW
N
1282 705 M
1289.9 705 L
S
GR
GS
[0.75 0 0 0.75 0 0.5] CT
0.149 GC
2 setlinecap
1 LJ
0.667 LW
N
1282 626 M
1289.9 626 L
S
GR
GS
[0.75 0 0 0.75 0 0.5] CT
0.149 GC
2 setlinecap
1 LJ
0.667 LW
N
1282 547 M
1289.9 547 L
S
GR
GS
[0.75 0 0 0.75 0 0.5] CT
0.149 GC
2 setlinecap
1 LJ
0.667 LW
N
1282 468 M
1289.9 468 L
S
GR
GS
[0.75 0 0 0.75 0 0.5] CT
0.149 GC
2 setlinecap
1 LJ
0.667 LW
N
1282 389 M
1289.9 389 L
S
GR
GS
[0.75 0 0 0.75 0 0.5] CT
0.149 GC
2 setlinecap
1 LJ
0.667 LW
N
1282 310 M
1289.9 310 L
S
GR
GS
[0.75 0 0 0.75 0 0.5] CT
0.149 GC
2 setlinecap
1 LJ
0.667 LW
N
1282 231 M
1289.9 231 L
S
GR
GS
[0.75 0 0 0.75 0 0.5] CT
0.149 GC
2 setlinecap
1 LJ
0.667 LW
N
1282 152 M
1289.9 152 L
S
GR
GS
[0.75 0 0 0.75 0 0.5] CT
0.149 GC
2 setlinecap
1 LJ
0.667 LW
N
1282 73 M
1289.9 73 L
S
GR
GS
[0.75 0 0 0.75 0 0.5] CT
0.149 GC
2 setlinecap
1 LJ
0.667 LW
N
1673 863 M
1665.1 863 L
S
GR
GS
[0.75 0 0 0.75 0 0.5] CT
0.149 GC
2 setlinecap
1 LJ
0.667 LW
N
1673 784 M
1665.1 784 L
S
GR
GS
[0.75 0 0 0.75 0 0.5] CT
0.149 GC
2 setlinecap
1 LJ
0.667 LW
N
1673 705 M
1665.1 705 L
S
GR
GS
[0.75 0 0 0.75 0 0.5] CT
0.149 GC
2 setlinecap
1 LJ
0.667 LW
N
1673 626 M
1665.1 626 L
S
GR
GS
[0.75 0 0 0.75 0 0.5] CT
0.149 GC
2 setlinecap
1 LJ
0.667 LW
N
1673 547 M
1665.1 547 L
S
GR
GS
[0.75 0 0 0.75 0 0.5] CT
0.149 GC
2 setlinecap
1 LJ
0.667 LW
N
1673 468 M
1665.1 468 L
S
GR
GS
[0.75 0 0 0.75 0 0.5] CT
0.149 GC
2 setlinecap
1 LJ
0.667 LW
N
1673 389 M
1665.1 389 L
S
GR
GS
[0.75 0 0 0.75 0 0.5] CT
0.149 GC
2 setlinecap
1 LJ
0.667 LW
N
1673 310 M
1665.1 310 L
S
GR
GS
[0.75 0 0 0.75 0 0.5] CT
0.149 GC
2 setlinecap
1 LJ
0.667 LW
N
1673 231 M
1665.1 231 L
S
GR
GS
[0.75 0 0 0.75 0 0.5] CT
0.149 GC
2 setlinecap
1 LJ
0.667 LW
N
1673 152 M
1665.1 152 L
S
GR
GS
[0.75 0 0 0.75 0 0.5] CT
0.149 GC
2 setlinecap
1 LJ
0.667 LW
N
1673 73 M
1665.1 73 L
S
GR
GS
[0.75 0 0 0.75 957.49997 647.75] CT
0.149 GC
/Helvetica 13.333 F
GS
[1 0 0 1 0 0] CT
-14 4.5 moveto 
1 -1 scale
(-1) t 
GR
GR
GS
[0.75 0 0 0.75 957.49997 588.5] CT
0.149 GC
/Helvetica 13.333 F
GS
[1 0 0 1 0 0] CT
-26 4.5 moveto 
1 -1 scale
(-0.8) t 
GR
GR
GS
[0.75 0 0 0.75 957.49997 529.25] CT
0.149 GC
/Helvetica 13.333 F
GS
[1 0 0 1 0 0] CT
-26 4.5 moveto 
1 -1 scale
(-0.6) t 
GR
GR
GS
[0.75 0 0 0.75 957.49997 470] CT
0.149 GC
/Helvetica 13.333 F
GS
[1 0 0 1 0 0] CT
-26 4.5 moveto 
1 -1 scale
(-0.4) t 
GR
GR
GS
[0.75 0 0 0.75 957.49997 410.75] CT
0.149 GC
/Helvetica 13.333 F
GS
[1 0 0 1 0 0] CT
-26 4.5 moveto 
1 -1 scale
(-0.2) t 
GR
GR
GS
[0.75 0 0 0.75 957.49997 351.5] CT
0.149 GC
/Helvetica 13.333 F
GS
[1 0 0 1 0 0] CT
-9 4.5 moveto 
1 -1 scale
(0) t 
GR
GR
GS
[0.75 0 0 0.75 957.49997 292.25] CT
0.149 GC
/Helvetica 13.333 F
GS
[1 0 0 1 0 0] CT
-22 4.5 moveto 
1 -1 scale
(0.2) t 
GR
GR
GS
[0.75 0 0 0.75 957.49997 233] CT
0.149 GC
/Helvetica 13.333 F
GS
[1 0 0 1 0 0] CT
-22 4.5 moveto 
1 -1 scale
(0.4) t 
GR
GR
GS
[0.75 0 0 0.75 957.49997 173.74999] CT
0.149 GC
/Helvetica 13.333 F
GS
[1 0 0 1 0 0] CT
-22 4.5 moveto 
1 -1 scale
(0.6) t 
GR
GR
GS
[0.75 0 0 0.75 957.49997 114.5] CT
0.149 GC
/Helvetica 13.333 F
GS
[1 0 0 1 0 0] CT
-22 4.5 moveto 
1 -1 scale
(0.8) t 
GR
GR
GS
[0.75 0 0 0.75 957.49997 55.25] CT
0.149 GC
/Helvetica 13.333 F
GS
[1 0 0 1 0 0] CT
-9 4.5 moveto 
1 -1 scale
(1) t 
GR
GR
GS
[0.75 0 0 0.75 1108.1261 53.18749] CT
/Helvetica-Bold 14.667 F
GS
[1 0 0 1 0 0] CT
-31.5 -4 moveto 
1 -1 scale
(top5err) t 
GR
GR
GS
[0.75 0 0 0.75 0 0.5] CT
0 0.447 0.741 RC
1 LJ
0.667 LW
N
1291.775 468 M
1301.55 468 L
1311.325 468 L
1321.1 468 L
1330.875 468 L
1340.65 468 L
1350.425 468 L
1360.2 468 L
1369.975 468 L
1379.75 468 L
1389.525 468 L
1399.3 468 L
1409.075 468 L
1418.85 468 L
1428.625 468 L
1438.4 468 L
1448.175 468 L
1457.95 468 L
1467.725 468 L
1477.5 468 L
1487.275 468 L
1497.05 468 L
1506.825 468 L
1516.6 468 L
1526.375 468 L
1536.15 468 L
1545.925 468 L
1555.7 468 L
1565.475 468 L
1575.25 468 L
1585.025 468 L
1594.8 468 L
1604.575 468 L
1614.35 468 L
1624.125 468 L
1633.9 468 L
1643.675 468 L
1653.45 468 L
1663.225 468 L
1673 468 L
S
GR
GS
[0.75 0 0 0.75 968.83127 351.5] CT
0 0.447 0.741 RC
N
f-862814258
f
GR
GS
[0.75 0 0 0.75 976.16254 351.5] CT
0 0.447 0.741 RC
N
f-862814258
f
GR
GS
[0.75 0 0 0.75 983.49371 351.5] CT
0 0.447 0.741 RC
N
f-862814258
f
GR
GS
[0.75 0 0 0.75 990.82498 351.5] CT
0 0.447 0.741 RC
N
f-862814258
f
GR
GS
[0.75 0 0 0.75 998.15625 351.5] CT
0 0.447 0.741 RC
N
f-862814258
f
GR
GS
[0.75 0 0 0.75 1005.48752 351.5] CT
0 0.447 0.741 RC
N
f-862814258
f
GR
GS
[0.75 0 0 0.75 1012.81879 351.5] CT
0 0.447 0.741 RC
N
f-862814258
f
GR
GS
[0.75 0 0 0.75 1020.14996 351.5] CT
0 0.447 0.741 RC
N
f-862814258
f
GR
GS
[0.75 0 0 0.75 1027.48123 351.5] CT
0 0.447 0.741 RC
N
f-862814258
f
GR
GS
[0.75 0 0 0.75 1034.8125 351.5] CT
0 0.447 0.741 RC
N
f-862814258
f
GR
GS
[0.75 0 0 0.75 1042.14377 351.5] CT
0 0.447 0.741 RC
N
f-862814258
f
GR
GS
[0.75 0 0 0.75 1049.47504 351.5] CT
0 0.447 0.741 RC
N
f-862814258
f
GR
GS
[0.75 0 0 0.75 1056.80621 351.5] CT
0 0.447 0.741 RC
N
f-862814258
f
GR
GS
[0.75 0 0 0.75 1064.13748 351.5] CT
0 0.447 0.741 RC
N
f-862814258
f
GR
GS
[0.75 0 0 0.75 1071.46875 351.5] CT
0 0.447 0.741 RC
N
f-862814258
f
GR
GS
[0.75 0 0 0.75 1078.80002 351.5] CT
0 0.447 0.741 RC
N
f-862814258
f
GR
GS
[0.75 0 0 0.75 1086.13129 351.5] CT
0 0.447 0.741 RC
N
f-862814258
f
GR
GS
[0.75 0 0 0.75 1093.46246 351.5] CT
0 0.447 0.741 RC
N
f-862814258
f
GR
GS
[0.75 0 0 0.75 1100.79373 351.5] CT
0 0.447 0.741 RC
N
f-862814258
f
GR
GS
[0.75 0 0 0.75 1108.125 351.5] CT
0 0.447 0.741 RC
N
f-862814258
f
GR
GS
[0.75 0 0 0.75 1115.45627 351.5] CT
0 0.447 0.741 RC
N
f-862814258
f
GR
GS
[0.75 0 0 0.75 1122.78754 351.5] CT
0 0.447 0.741 RC
N
f-862814258
f
GR
GS
[0.75 0 0 0.75 1130.11871 351.5] CT
0 0.447 0.741 RC
N
f-862814258
f
GR
GS
[0.75 0 0 0.75 1137.44998 351.5] CT
0 0.447 0.741 RC
N
f-862814258
f
GR
GS
[0.75 0 0 0.75 1144.78125 351.5] CT
0 0.447 0.741 RC
N
f-862814258
f
GR
GS
[0.75 0 0 0.75 1152.11252 351.5] CT
0 0.447 0.741 RC
N
f-862814258
f
GR
GS
[0.75 0 0 0.75 1159.44379 351.5] CT
0 0.447 0.741 RC
N
f-862814258
f
GR
GS
[0.75 0 0 0.75 1166.77496 351.5] CT
0 0.447 0.741 RC
N
f-862814258
f
GR
GS
[0.75 0 0 0.75 1174.10623 351.5] CT
0 0.447 0.741 RC
N
f-862814258
f
GR
GS
[0.75 0 0 0.75 1181.4375 351.5] CT
0 0.447 0.741 RC
N
f-862814258
f
GR
GS
[0.75 0 0 0.75 1188.76877 351.5] CT
0 0.447 0.741 RC
N
f-862814258
f
GR
GS
[0.75 0 0 0.75 1196.10004 351.5] CT
0 0.447 0.741 RC
N
f-862814258
f
GR
GS
[0.75 0 0 0.75 1203.43121 351.5] CT
0 0.447 0.741 RC
N
f-862814258
f
GR
GS
[0.75 0 0 0.75 1210.76248 351.5] CT
0 0.447 0.741 RC
N
f-862814258
f
GR
GS
[0.75 0 0 0.75 1218.09375 351.5] CT
0 0.447 0.741 RC
N
f-862814258
f
GR
GS
[0.75 0 0 0.75 1225.42502 351.5] CT
0 0.447 0.741 RC
N
f-862814258
f
GR
GS
[0.75 0 0 0.75 1232.75629 351.5] CT
0 0.447 0.741 RC
N
f-862814258
f
GR
GS
[0.75 0 0 0.75 1240.08746 351.5] CT
0 0.447 0.741 RC
N
f-862814258
f
GR
GS
[0.75 0 0 0.75 1247.41873 351.5] CT
0 0.447 0.741 RC
N
f-862814258
f
GR
GS
[0.75 0 0 0.75 1254.75 351.5] CT
0 0.447 0.741 RC
N
f-862814258
f
GR
GS
[0.75 0 0 0.75 0 0.5] CT
0.851 0.325 0.098 RC
1 LJ
0.667 LW
N
1291.775 468 M
1301.55 468 L
1311.325 468 L
1321.1 468 L
1330.875 468 L
1340.65 468 L
1350.425 468 L
1360.2 468 L
1369.975 468 L
1379.75 468 L
1389.525 468 L
1399.3 468 L
1409.075 468 L
1418.85 468 L
1428.625 468 L
1438.4 468 L
1448.175 468 L
1457.95 468 L
1467.725 468 L
1477.5 468 L
1487.275 468 L
1497.05 468 L
1506.825 468 L
1516.6 468 L
1526.375 468 L
1536.15 468 L
1545.925 468 L
1555.7 468 L
1565.475 468 L
1575.25 468 L
1585.025 468 L
1594.8 468 L
1604.575 468 L
1614.35 468 L
1624.125 468 L
1633.9 468 L
1643.675 468 L
1653.45 468 L
1663.225 468 L
1673 468 L
S
GR
GS
[0.75 0 0 0.75 968.83127 351.5] CT
0.851 0.325 0.098 RC
N
f-862814258
f
GR
GS
[0.75 0 0 0.75 976.16254 351.5] CT
0.851 0.325 0.098 RC
N
f-862814258
f
GR
GS
[0.75 0 0 0.75 983.49371 351.5] CT
0.851 0.325 0.098 RC
N
f-862814258
f
GR
GS
[0.75 0 0 0.75 990.82498 351.5] CT
0.851 0.325 0.098 RC
N
f-862814258
f
GR
GS
[0.75 0 0 0.75 998.15625 351.5] CT
0.851 0.325 0.098 RC
N
f-862814258
f
GR
GS
[0.75 0 0 0.75 1005.48752 351.5] CT
0.851 0.325 0.098 RC
N
f-862814258
f
GR
GS
[0.75 0 0 0.75 1012.81879 351.5] CT
0.851 0.325 0.098 RC
N
f-862814258
f
GR
GS
[0.75 0 0 0.75 1020.14996 351.5] CT
0.851 0.325 0.098 RC
N
f-862814258
f
GR
GS
[0.75 0 0 0.75 1027.48123 351.5] CT
0.851 0.325 0.098 RC
N
f-862814258
f
GR
GS
[0.75 0 0 0.75 1034.8125 351.5] CT
0.851 0.325 0.098 RC
N
f-862814258
f
GR
GS
[0.75 0 0 0.75 1042.14377 351.5] CT
0.851 0.325 0.098 RC
N
f-862814258
f
GR
GS
[0.75 0 0 0.75 1049.47504 351.5] CT
0.851 0.325 0.098 RC
N
f-862814258
f
GR
GS
[0.75 0 0 0.75 1056.80621 351.5] CT
0.851 0.325 0.098 RC
N
f-862814258
f
GR
GS
[0.75 0 0 0.75 1064.13748 351.5] CT
0.851 0.325 0.098 RC
N
f-862814258
f
GR
GS
[0.75 0 0 0.75 1071.46875 351.5] CT
0.851 0.325 0.098 RC
N
f-862814258
f
GR
GS
[0.75 0 0 0.75 1078.80002 351.5] CT
0.851 0.325 0.098 RC
N
f-862814258
f
GR
GS
[0.75 0 0 0.75 1086.13129 351.5] CT
0.851 0.325 0.098 RC
N
f-862814258
f
GR
GS
[0.75 0 0 0.75 1093.46246 351.5] CT
0.851 0.325 0.098 RC
N
f-862814258
f
GR
GS
[0.75 0 0 0.75 1100.79373 351.5] CT
0.851 0.325 0.098 RC
N
f-862814258
f
GR
GS
[0.75 0 0 0.75 1108.125 351.5] CT
0.851 0.325 0.098 RC
N
f-862814258
f
GR
GS
[0.75 0 0 0.75 1115.45627 351.5] CT
0.851 0.325 0.098 RC
N
f-862814258
f
GR
GS
[0.75 0 0 0.75 1122.78754 351.5] CT
0.851 0.325 0.098 RC
N
f-862814258
f
GR
GS
[0.75 0 0 0.75 1130.11871 351.5] CT
0.851 0.325 0.098 RC
N
f-862814258
f
GR
GS
[0.75 0 0 0.75 1137.44998 351.5] CT
0.851 0.325 0.098 RC
N
f-862814258
f
GR
GS
[0.75 0 0 0.75 1144.78125 351.5] CT
0.851 0.325 0.098 RC
N
f-862814258
f
GR
GS
[0.75 0 0 0.75 1152.11252 351.5] CT
0.851 0.325 0.098 RC
N
f-862814258
f
GR
GS
[0.75 0 0 0.75 1159.44379 351.5] CT
0.851 0.325 0.098 RC
N
f-862814258
f
GR
GS
[0.75 0 0 0.75 1166.77496 351.5] CT
0.851 0.325 0.098 RC
N
f-862814258
f
GR
GS
[0.75 0 0 0.75 1174.10623 351.5] CT
0.851 0.325 0.098 RC
N
f-862814258
f
GR
GS
[0.75 0 0 0.75 1181.4375 351.5] CT
0.851 0.325 0.098 RC
N
f-862814258
f
GR
GS
[0.75 0 0 0.75 1188.76877 351.5] CT
0.851 0.325 0.098 RC
N
f-862814258
f
GR
GS
[0.75 0 0 0.75 1196.10004 351.5] CT
0.851 0.325 0.098 RC
N
f-862814258
f
GR
GS
[0.75 0 0 0.75 1203.43121 351.5] CT
0.851 0.325 0.098 RC
N
f-862814258
f
GR
GS
[0.75 0 0 0.75 1210.76248 351.5] CT
0.851 0.325 0.098 RC
N
f-862814258
f
GR
GS
[0.75 0 0 0.75 1218.09375 351.5] CT
0.851 0.325 0.098 RC
N
f-862814258
f
GR
GS
[0.75 0 0 0.75 1225.42502 351.5] CT
0.851 0.325 0.098 RC
N
f-862814258
f
GR
GS
[0.75 0 0 0.75 1232.75629 351.5] CT
0.851 0.325 0.098 RC
N
f-862814258
f
GR
GS
[0.75 0 0 0.75 1240.08746 351.5] CT
0.851 0.325 0.098 RC
N
f-862814258
f
GR
GS
[0.75 0 0 0.75 1247.41873 351.5] CT
0.851 0.325 0.098 RC
N
f-862814258
f
GR
GS
[0.75 0 0 0.75 1254.75 351.5] CT
0.851 0.325 0.098 RC
N
f-862814258
f
GR
GS
[0.75 0 0 0.75 0 0.5] CT
1 GC
N
1662 118 M
1662 84 L
1583 84 L
1583 118 L
cp
f
GR
GS
[0.75 0 0 0.75 1222.5 70.52174] CT
/Helvetica 12 F
GS
[1 0 0 1 0 0] CT
0 4.5 moveto 
1 -1 scale
(train) t 
GR
GR
GS
[0.75 0 0 0.75 0 0.5] CT
0 0.447 0.741 RC
1 LJ
0.667 LW
N
1587 93.362 M
1627 93.362 L
S
GR
GS
[0.75 0 0 0.75 1205.25 70.52174] CT
0 0.447 0.741 RC
N
f-862814258
f
GR
GS
[0.75 0 0 0.75 1222.5 81.97826] CT
/Helvetica 12 F
GS
[1 0 0 1 0 0] CT
0 4.5 moveto 
1 -1 scale
(val) t 
GR
GR
GS
[0.75 0 0 0.75 0 0.5] CT
0.851 0.325 0.098 RC
1 LJ
0.667 LW
N
1587 108.638 M
1627 108.638 L
S
GR
GS
[0.75 0 0 0.75 1205.25 81.97826] CT
0.851 0.325 0.098 RC
N
f-862814258
f
GR
GS
[0.75 0 0 0.75 0 0.5] CT
0.149 GC
10.0 ML
0.667 LW
N
1583 118 M
1583 84 L
1662 84 L
1662 118 L
cp
S
GR
%%Trailer
%%Pages: 1
%%EOF
