%!PS-Adobe-3.0 EPSF-3.0
%%Creator: (MATLAB, The Mathworks, Inc. Version 9.7.0.1190202 \(R2019b\). Operating System: Linux)
%%Title: /mnt/windows_drive_d/AmsterdamUniversity/Year_1/CV1/FinalProject/Part2/param_sweep/net-train-batch-50-epoch-80.eps
%%CreationDate: 2019-10-27T21:19:08
%%Pages: (atend)
%%BoundingBox: 0 0 1390 728
%%LanguageLevel: 3
%%EndComments
%%BeginProlog
%%BeginResource: procset (Apache XML Graphics Std ProcSet) 1.2 0
%%Version: 1.2 0
%%Copyright: (Copyright 2001-2003,2010 The Apache Software Foundation. License terms: http://www.apache.org/licenses/LICENSE-2.0)
/bd{bind def}bind def
/ld{load def}bd
/GR/grestore ld
/GS/gsave ld
/RM/rmoveto ld
/C/curveto ld
/t/show ld
/L/lineto ld
/ML/setmiterlimit ld
/CT/concat ld
/f/fill ld
/N/newpath ld
/S/stroke ld
/CC/setcmykcolor ld
/A/ashow ld
/cp/closepath ld
/RC/setrgbcolor ld
/LJ/setlinejoin ld
/GC/setgray ld
/LW/setlinewidth ld
/M/moveto ld
/re {4 2 roll M
1 index 0 rlineto
0 exch rlineto
neg 0 rlineto
cp } bd
/_ctm matrix def
/_tm matrix def
/BT { _ctm currentmatrix pop matrix _tm copy pop 0 0 moveto } bd
/ET { _ctm setmatrix } bd
/iTm { _ctm setmatrix _tm concat } bd
/Tm { _tm astore pop iTm 0 0 moveto } bd
/ux 0.0 def
/uy 0.0 def
/F {
  /Tp exch def
  /Tf exch def
  Tf findfont Tp scalefont setfont
  /cf Tf def  /cs Tp def
} bd
/ULS {currentpoint /uy exch def /ux exch def} bd
/ULE {
  /Tcx currentpoint pop def
  gsave
  newpath
  cf findfont cs scalefont dup
  /FontMatrix get 0 get /Ts exch def /FontInfo get dup
  /UnderlinePosition get Ts mul /To exch def
  /UnderlineThickness get Ts mul /Tt exch def
  ux uy To add moveto  Tcx uy To add lineto
  Tt setlinewidth stroke
  grestore
} bd
/OLE {
  /Tcx currentpoint pop def
  gsave
  newpath
  cf findfont cs scalefont dup
  /FontMatrix get 0 get /Ts exch def /FontInfo get dup
  /UnderlinePosition get Ts mul /To exch def
  /UnderlineThickness get Ts mul /Tt exch def
  ux uy To add cs add moveto Tcx uy To add cs add lineto
  Tt setlinewidth stroke
  grestore
} bd
/SOE {
  /Tcx currentpoint pop def
  gsave
  newpath
  cf findfont cs scalefont dup
  /FontMatrix get 0 get /Ts exch def /FontInfo get dup
  /UnderlinePosition get Ts mul /To exch def
  /UnderlineThickness get Ts mul /Tt exch def
  ux uy To add cs 10 mul 26 idiv add moveto Tcx uy To add cs 10 mul 26 idiv add lineto
  Tt setlinewidth stroke
  grestore
} bd
/QT {
/Y22 exch store
/X22 exch store
/Y21 exch store
/X21 exch store
currentpoint
/Y21 load 2 mul add 3 div exch
/X21 load 2 mul add 3 div exch
/X21 load 2 mul /X22 load add 3 div
/Y21 load 2 mul /Y22 load add 3 div
/X22 load /Y22 load curveto
} bd
/SSPD {
dup length /d exch dict def
{
/v exch def
/k exch def
currentpagedevice k known {
/cpdv currentpagedevice k get def
v cpdv ne {
/upd false def
/nullv v type /nulltype eq def
/nullcpdv cpdv type /nulltype eq def
nullv nullcpdv or
{
/upd true def
} {
/sametype v type cpdv type eq def
sametype {
v type /arraytype eq {
/vlen v length def
/cpdvlen cpdv length def
vlen cpdvlen eq {
0 1 vlen 1 sub {
/i exch def
/obj v i get def
/cpdobj cpdv i get def
obj cpdobj ne {
/upd true def
exit
} if
} for
} {
/upd true def
} ifelse
} {
v type /dicttype eq {
v {
/dv exch def
/dk exch def
/cpddv cpdv dk get def
dv cpddv ne {
/upd true def
exit
} if
} forall
} {
/upd true def
} ifelse
} ifelse
} if
} ifelse
upd true eq {
d k v put
} if
} if
} if
} forall
d length 0 gt {
d setpagedevice
} if
} bd
/RE { % /NewFontName [NewEncodingArray] /FontName RE -
  findfont dup length dict begin
  {
    1 index /FID ne
    {def} {pop pop} ifelse
  } forall
  /Encoding exch def
  /FontName 1 index def
  currentdict definefont pop
  end
} bind def
%%EndResource
%%BeginResource: procset (Apache XML Graphics EPS ProcSet) 1.0 0
%%Version: 1.0 0
%%Copyright: (Copyright 2002-2003 The Apache Software Foundation. License terms: http://www.apache.org/licenses/LICENSE-2.0)
/BeginEPSF { %def
/b4_Inc_state save def         % Save state for cleanup
/dict_count countdictstack def % Count objects on dict stack
/op_count count 1 sub def      % Count objects on operand stack
userdict begin                 % Push userdict on dict stack
/showpage { } def              % Redefine showpage, { } = null proc
0 setgray 0 setlinecap         % Prepare graphics state
1 setlinewidth 0 setlinejoin
10 setmiterlimit [ ] 0 setdash newpath
/languagelevel where           % If level not equal to 1 then
{pop languagelevel             % set strokeadjust and
1 ne                           % overprint to their defaults.
{false setstrokeadjust false setoverprint
} if
} if
} bd
/EndEPSF { %def
count op_count sub {pop} repeat            % Clean up stacks
countdictstack dict_count sub {end} repeat
b4_Inc_state restore
} bd
%%EndResource
%FOPBeginFontDict
%%IncludeResource: font Courier-Oblique
%%IncludeResource: font Courier-BoldOblique
%%IncludeResource: font Courier-Bold
%%IncludeResource: font ZapfDingbats
%%IncludeResource: font Symbol
%%IncludeResource: font Helvetica
%%IncludeResource: font Helvetica-Oblique
%%IncludeResource: font Helvetica-Bold
%%IncludeResource: font Helvetica-BoldOblique
%%IncludeResource: font Times-Roman
%%IncludeResource: font Times-Italic
%%IncludeResource: font Times-Bold
%%IncludeResource: font Times-BoldItalic
%%IncludeResource: font Courier
%FOPEndFontDict
%%BeginResource: encoding WinAnsiEncoding
/WinAnsiEncoding [
/.notdef /.notdef /.notdef /.notdef /.notdef
/.notdef /.notdef /.notdef /.notdef /.notdef
/.notdef /.notdef /.notdef /.notdef /.notdef
/.notdef /.notdef /.notdef /.notdef /.notdef
/.notdef /.notdef /.notdef /.notdef /.notdef
/.notdef /.notdef /.notdef /.notdef /.notdef
/.notdef /.notdef /space /exclam /quotedbl
/numbersign /dollar /percent /ampersand /quotesingle
/parenleft /parenright /asterisk /plus /comma
/hyphen /period /slash /zero /one
/two /three /four /five /six
/seven /eight /nine /colon /semicolon
/less /equal /greater /question /at
/A /B /C /D /E
/F /G /H /I /J
/K /L /M /N /O
/P /Q /R /S /T
/U /V /W /X /Y
/Z /bracketleft /backslash /bracketright /asciicircum
/underscore /quoteleft /a /b /c
/d /e /f /g /h
/i /j /k /l /m
/n /o /p /q /r
/s /t /u /v /w
/x /y /z /braceleft /bar
/braceright /asciitilde /bullet /Euro /bullet
/quotesinglbase /florin /quotedblbase /ellipsis /dagger
/daggerdbl /circumflex /perthousand /Scaron /guilsinglleft
/OE /bullet /Zcaron /bullet /bullet
/quoteleft /quoteright /quotedblleft /quotedblright /bullet
/endash /emdash /asciitilde /trademark /scaron
/guilsinglright /oe /bullet /zcaron /Ydieresis
/space /exclamdown /cent /sterling /currency
/yen /brokenbar /section /dieresis /copyright
/ordfeminine /guillemotleft /logicalnot /sfthyphen /registered
/macron /degree /plusminus /twosuperior /threesuperior
/acute /mu /paragraph /middot /cedilla
/onesuperior /ordmasculine /guillemotright /onequarter /onehalf
/threequarters /questiondown /Agrave /Aacute /Acircumflex
/Atilde /Adieresis /Aring /AE /Ccedilla
/Egrave /Eacute /Ecircumflex /Edieresis /Igrave
/Iacute /Icircumflex /Idieresis /Eth /Ntilde
/Ograve /Oacute /Ocircumflex /Otilde /Odieresis
/multiply /Oslash /Ugrave /Uacute /Ucircumflex
/Udieresis /Yacute /Thorn /germandbls /agrave
/aacute /acircumflex /atilde /adieresis /aring
/ae /ccedilla /egrave /eacute /ecircumflex
/edieresis /igrave /iacute /icircumflex /idieresis
/eth /ntilde /ograve /oacute /ocircumflex
/otilde /odieresis /divide /oslash /ugrave
/uacute /ucircumflex /udieresis /yacute /thorn
/ydieresis
] def
%%EndResource
%FOPBeginFontReencode
/Courier-Oblique findfont
dup length dict begin
  {1 index /FID ne {def} {pop pop} ifelse} forall
  /Encoding WinAnsiEncoding def
  currentdict
end
/Courier-Oblique exch definefont pop
/Courier-BoldOblique findfont
dup length dict begin
  {1 index /FID ne {def} {pop pop} ifelse} forall
  /Encoding WinAnsiEncoding def
  currentdict
end
/Courier-BoldOblique exch definefont pop
/Courier-Bold findfont
dup length dict begin
  {1 index /FID ne {def} {pop pop} ifelse} forall
  /Encoding WinAnsiEncoding def
  currentdict
end
/Courier-Bold exch definefont pop
/Helvetica findfont
dup length dict begin
  {1 index /FID ne {def} {pop pop} ifelse} forall
  /Encoding WinAnsiEncoding def
  currentdict
end
/Helvetica exch definefont pop
/Helvetica-Oblique findfont
dup length dict begin
  {1 index /FID ne {def} {pop pop} ifelse} forall
  /Encoding WinAnsiEncoding def
  currentdict
end
/Helvetica-Oblique exch definefont pop
/Helvetica-Bold findfont
dup length dict begin
  {1 index /FID ne {def} {pop pop} ifelse} forall
  /Encoding WinAnsiEncoding def
  currentdict
end
/Helvetica-Bold exch definefont pop
/Helvetica-BoldOblique findfont
dup length dict begin
  {1 index /FID ne {def} {pop pop} ifelse} forall
  /Encoding WinAnsiEncoding def
  currentdict
end
/Helvetica-BoldOblique exch definefont pop
/Times-Roman findfont
dup length dict begin
  {1 index /FID ne {def} {pop pop} ifelse} forall
  /Encoding WinAnsiEncoding def
  currentdict
end
/Times-Roman exch definefont pop
/Times-Italic findfont
dup length dict begin
  {1 index /FID ne {def} {pop pop} ifelse} forall
  /Encoding WinAnsiEncoding def
  currentdict
end
/Times-Italic exch definefont pop
/Times-Bold findfont
dup length dict begin
  {1 index /FID ne {def} {pop pop} ifelse} forall
  /Encoding WinAnsiEncoding def
  currentdict
end
/Times-Bold exch definefont pop
/Times-BoldItalic findfont
dup length dict begin
  {1 index /FID ne {def} {pop pop} ifelse} forall
  /Encoding WinAnsiEncoding def
  currentdict
end
/Times-BoldItalic exch definefont pop
/Courier findfont
dup length dict begin
  {1 index /FID ne {def} {pop pop} ifelse} forall
  /Encoding WinAnsiEncoding def
  currentdict
end
/Courier exch definefont pop
%FOPEndFontReencode
%%EndProlog
%%Page: 1 1
%%PageBoundingBox: 0 0 1390 728
%%BeginPageSetup
[1 0 0 -1 0 728] CT
%%EndPageSetup
GS
[0.75 0 0 0.75 0 0.5] CT
1 GC
N
0 0 1853 970 re
f
GR
GS
[0.75 0 0 0.75 0 0.5] CT
1 GC
N
0 0 1853 970 re
f
GR
GS
[0.75 0 0 0.75 0 0.5] CT
1 GC
N
241 863 M
636 863 L
636 73 L
241 73 L
cp
f
GR
GS
[0.75 0 0 0.75 0 0.5] CT
0.873 GC
1 LJ
0.667 LW
N
241 863 M
241 73 L
S
GR
GS
[0.75 0 0 0.75 0 0.5] CT
0.873 GC
1 LJ
0.667 LW
N
290.375 863 M
290.375 73 L
S
GR
GS
[0.75 0 0 0.75 0 0.5] CT
0.873 GC
1 LJ
0.667 LW
N
339.75 863 M
339.75 73 L
S
GR
GS
[0.75 0 0 0.75 0 0.5] CT
0.873 GC
1 LJ
0.667 LW
N
389.125 863 M
389.125 73 L
S
GR
GS
[0.75 0 0 0.75 0 0.5] CT
0.873 GC
1 LJ
0.667 LW
N
438.5 863 M
438.5 73 L
S
GR
GS
[0.75 0 0 0.75 0 0.5] CT
0.873 GC
1 LJ
0.667 LW
N
487.875 863 M
487.875 73 L
S
GR
GS
[0.75 0 0 0.75 0 0.5] CT
0.873 GC
1 LJ
0.667 LW
N
537.25 863 M
537.25 73 L
S
GR
GS
[0.75 0 0 0.75 0 0.5] CT
0.873 GC
1 LJ
0.667 LW
N
586.625 863 M
586.625 73 L
S
GR
GS
[0.75 0 0 0.75 0 0.5] CT
0.873 GC
1 LJ
0.667 LW
N
636 863 M
636 73 L
S
GR
GS
[0.75 0 0 0.75 0 0.5] CT
0.873 GC
1 LJ
0.667 LW
N
636 863 M
241 863 L
S
GR
GS
[0.75 0 0 0.75 0 0.5] CT
0.873 GC
1 LJ
0.667 LW
N
636 750.143 M
241 750.143 L
S
GR
GS
[0.75 0 0 0.75 0 0.5] CT
0.873 GC
1 LJ
0.667 LW
N
636 637.286 M
241 637.286 L
S
GR
GS
[0.75 0 0 0.75 0 0.5] CT
0.873 GC
1 LJ
0.667 LW
N
636 524.429 M
241 524.429 L
S
GR
GS
[0.75 0 0 0.75 0 0.5] CT
0.873 GC
1 LJ
0.667 LW
N
636 411.571 M
241 411.571 L
S
GR
GS
[0.75 0 0 0.75 0 0.5] CT
0.873 GC
1 LJ
0.667 LW
N
636 298.714 M
241 298.714 L
S
GR
GS
[0.75 0 0 0.75 0 0.5] CT
0.873 GC
1 LJ
0.667 LW
N
636 185.857 M
241 185.857 L
S
GR
GS
[0.75 0 0 0.75 0 0.5] CT
0.873 GC
1 LJ
0.667 LW
N
636 73 M
241 73 L
S
GR
GS
[0.75 0 0 0.75 0 0.5] CT
0.149 GC
2 setlinecap
1 LJ
0.667 LW
N
241 863 M
636 863 L
S
GR
GS
[0.75 0 0 0.75 0 0.5] CT
0.149 GC
2 setlinecap
1 LJ
0.667 LW
N
241 73 M
636 73 L
S
GR
GS
[0.75 0 0 0.75 0 0.5] CT
0.149 GC
2 setlinecap
1 LJ
0.667 LW
N
241 863 M
241 855.1 L
S
GR
GS
[0.75 0 0 0.75 0 0.5] CT
0.149 GC
2 setlinecap
1 LJ
0.667 LW
N
290.375 863 M
290.375 855.1 L
S
GR
GS
[0.75 0 0 0.75 0 0.5] CT
0.149 GC
2 setlinecap
1 LJ
0.667 LW
N
339.75 863 M
339.75 855.1 L
S
GR
GS
[0.75 0 0 0.75 0 0.5] CT
0.149 GC
2 setlinecap
1 LJ
0.667 LW
N
389.125 863 M
389.125 855.1 L
S
GR
GS
[0.75 0 0 0.75 0 0.5] CT
0.149 GC
2 setlinecap
1 LJ
0.667 LW
N
438.5 863 M
438.5 855.1 L
S
GR
GS
[0.75 0 0 0.75 0 0.5] CT
0.149 GC
2 setlinecap
1 LJ
0.667 LW
N
487.875 863 M
487.875 855.1 L
S
GR
GS
[0.75 0 0 0.75 0 0.5] CT
0.149 GC
2 setlinecap
1 LJ
0.667 LW
N
537.25 863 M
537.25 855.1 L
S
GR
GS
[0.75 0 0 0.75 0 0.5] CT
0.149 GC
2 setlinecap
1 LJ
0.667 LW
N
586.625 863 M
586.625 855.1 L
S
GR
GS
[0.75 0 0 0.75 0 0.5] CT
0.149 GC
2 setlinecap
1 LJ
0.667 LW
N
636 863 M
636 855.1 L
S
GR
GS
[0.75 0 0 0.75 0 0.5] CT
0.149 GC
2 setlinecap
1 LJ
0.667 LW
N
241 73 M
241 80.9 L
S
GR
GS
[0.75 0 0 0.75 0 0.5] CT
0.149 GC
2 setlinecap
1 LJ
0.667 LW
N
290.375 73 M
290.375 80.9 L
S
GR
GS
[0.75 0 0 0.75 0 0.5] CT
0.149 GC
2 setlinecap
1 LJ
0.667 LW
N
339.75 73 M
339.75 80.9 L
S
GR
GS
[0.75 0 0 0.75 0 0.5] CT
0.149 GC
2 setlinecap
1 LJ
0.667 LW
N
389.125 73 M
389.125 80.9 L
S
GR
GS
[0.75 0 0 0.75 0 0.5] CT
0.149 GC
2 setlinecap
1 LJ
0.667 LW
N
438.5 73 M
438.5 80.9 L
S
GR
GS
[0.75 0 0 0.75 0 0.5] CT
0.149 GC
2 setlinecap
1 LJ
0.667 LW
N
487.875 73 M
487.875 80.9 L
S
GR
GS
[0.75 0 0 0.75 0 0.5] CT
0.149 GC
2 setlinecap
1 LJ
0.667 LW
N
537.25 73 M
537.25 80.9 L
S
GR
GS
[0.75 0 0 0.75 0 0.5] CT
0.149 GC
2 setlinecap
1 LJ
0.667 LW
N
586.625 73 M
586.625 80.9 L
S
GR
GS
[0.75 0 0 0.75 0 0.5] CT
0.149 GC
2 setlinecap
1 LJ
0.667 LW
N
636 73 M
636 80.9 L
S
GR
GS
[0.75 0 0 0.75 180.75 651.75003] CT
0.149 GC
/Helvetica 13.333 F
GS
[1 0 0 1 0 0] CT
-4.5 13 moveto 
1 -1 scale
(0) t 
GR
GR
GS
[0.75 0 0 0.75 217.78125 651.75003] CT
0.149 GC
/Helvetica 13.333 F
GS
[1 0 0 1 0 0] CT
-8.5 13 moveto 
1 -1 scale
(10) t 
GR
GR
GS
[0.75 0 0 0.75 254.8125 651.75003] CT
0.149 GC
/Helvetica 13.333 F
GS
[1 0 0 1 0 0] CT
-8.5 13 moveto 
1 -1 scale
(20) t 
GR
GR
GS
[0.75 0 0 0.75 291.84375 651.75003] CT
0.149 GC
/Helvetica 13.333 F
GS
[1 0 0 1 0 0] CT
-8.5 13 moveto 
1 -1 scale
(30) t 
GR
GR
GS
[0.75 0 0 0.75 328.875 651.75003] CT
0.149 GC
/Helvetica 13.333 F
GS
[1 0 0 1 0 0] CT
-8.5 13 moveto 
1 -1 scale
(40) t 
GR
GR
GS
[0.75 0 0 0.75 365.90625 651.75003] CT
0.149 GC
/Helvetica 13.333 F
GS
[1 0 0 1 0 0] CT
-8.5 13 moveto 
1 -1 scale
(50) t 
GR
GR
GS
[0.75 0 0 0.75 402.9375 651.75003] CT
0.149 GC
/Helvetica 13.333 F
GS
[1 0 0 1 0 0] CT
-8.5 13 moveto 
1 -1 scale
(60) t 
GR
GR
GS
[0.75 0 0 0.75 439.96875 651.75003] CT
0.149 GC
/Helvetica 13.333 F
GS
[1 0 0 1 0 0] CT
-8.5 13 moveto 
1 -1 scale
(70) t 
GR
GR
GS
[0.75 0 0 0.75 477 651.75003] CT
0.149 GC
/Helvetica 13.333 F
GS
[1 0 0 1 0 0] CT
-8.5 13 moveto 
1 -1 scale
(80) t 
GR
GR
GS
[0.75 0 0 0.75 328.87514 665.50002] CT
0.149 GC
/Helvetica 14.667 F
GS
[1 0 0 1 0 0] CT
-22.5 14 moveto 
1 -1 scale
(epoch) t 
GR
GR
GS
[0.75 0 0 0.75 0 0.5] CT
0.149 GC
2 setlinecap
1 LJ
0.667 LW
N
241 863 M
241 73 L
S
GR
GS
[0.75 0 0 0.75 0 0.5] CT
0.149 GC
2 setlinecap
1 LJ
0.667 LW
N
636 863 M
636 73 L
S
GR
GS
[0.75 0 0 0.75 0 0.5] CT
0.149 GC
2 setlinecap
1 LJ
0.667 LW
N
241 863 M
248.9 863 L
S
GR
GS
[0.75 0 0 0.75 0 0.5] CT
0.149 GC
2 setlinecap
1 LJ
0.667 LW
N
241 750.143 M
248.9 750.143 L
S
GR
GS
[0.75 0 0 0.75 0 0.5] CT
0.149 GC
2 setlinecap
1 LJ
0.667 LW
N
241 637.286 M
248.9 637.286 L
S
GR
GS
[0.75 0 0 0.75 0 0.5] CT
0.149 GC
2 setlinecap
1 LJ
0.667 LW
N
241 524.429 M
248.9 524.429 L
S
GR
GS
[0.75 0 0 0.75 0 0.5] CT
0.149 GC
2 setlinecap
1 LJ
0.667 LW
N
241 411.571 M
248.9 411.571 L
S
GR
GS
[0.75 0 0 0.75 0 0.5] CT
0.149 GC
2 setlinecap
1 LJ
0.667 LW
N
241 298.714 M
248.9 298.714 L
S
GR
GS
[0.75 0 0 0.75 0 0.5] CT
0.149 GC
2 setlinecap
1 LJ
0.667 LW
N
241 185.857 M
248.9 185.857 L
S
GR
GS
[0.75 0 0 0.75 0 0.5] CT
0.149 GC
2 setlinecap
1 LJ
0.667 LW
N
241 73 M
248.9 73 L
S
GR
GS
[0.75 0 0 0.75 0 0.5] CT
0.149 GC
2 setlinecap
1 LJ
0.667 LW
N
636 863 M
628.1 863 L
S
GR
GS
[0.75 0 0 0.75 0 0.5] CT
0.149 GC
2 setlinecap
1 LJ
0.667 LW
N
636 750.143 M
628.1 750.143 L
S
GR
GS
[0.75 0 0 0.75 0 0.5] CT
0.149 GC
2 setlinecap
1 LJ
0.667 LW
N
636 637.286 M
628.1 637.286 L
S
GR
GS
[0.75 0 0 0.75 0 0.5] CT
0.149 GC
2 setlinecap
1 LJ
0.667 LW
N
636 524.429 M
628.1 524.429 L
S
GR
GS
[0.75 0 0 0.75 0 0.5] CT
0.149 GC
2 setlinecap
1 LJ
0.667 LW
N
636 411.571 M
628.1 411.571 L
S
GR
GS
[0.75 0 0 0.75 0 0.5] CT
0.149 GC
2 setlinecap
1 LJ
0.667 LW
N
636 298.714 M
628.1 298.714 L
S
GR
GS
[0.75 0 0 0.75 0 0.5] CT
0.149 GC
2 setlinecap
1 LJ
0.667 LW
N
636 185.857 M
628.1 185.857 L
S
GR
GS
[0.75 0 0 0.75 0 0.5] CT
0.149 GC
2 setlinecap
1 LJ
0.667 LW
N
636 73 M
628.1 73 L
S
GR
GS
[0.75 0 0 0.75 176.75 647.75] CT
0.149 GC
/Helvetica 13.333 F
GS
[1 0 0 1 0 0] CT
-9 4.5 moveto 
1 -1 scale
(1) t 
GR
GR
GS
[0.75 0 0 0.75 176.75 563.10712] CT
0.149 GC
/Helvetica 13.333 F
GS
[1 0 0 1 0 0] CT
-22 4.5 moveto 
1 -1 scale
(1.1) t 
GR
GR
GS
[0.75 0 0 0.75 176.75 478.46423] CT
0.149 GC
/Helvetica 13.333 F
GS
[1 0 0 1 0 0] CT
-22 4.5 moveto 
1 -1 scale
(1.2) t 
GR
GR
GS
[0.75 0 0 0.75 176.75 393.82149] CT
0.149 GC
/Helvetica 13.333 F
GS
[1 0 0 1 0 0] CT
-22 4.5 moveto 
1 -1 scale
(1.3) t 
GR
GR
GS
[0.75 0 0 0.75 176.75 309.17858] CT
0.149 GC
/Helvetica 13.333 F
GS
[1 0 0 1 0 0] CT
-22 4.5 moveto 
1 -1 scale
(1.4) t 
GR
GR
GS
[0.75 0 0 0.75 176.75 224.53572] CT
0.149 GC
/Helvetica 13.333 F
GS
[1 0 0 1 0 0] CT
-22 4.5 moveto 
1 -1 scale
(1.5) t 
GR
GR
GS
[0.75 0 0 0.75 176.75 139.89284] CT
0.149 GC
/Helvetica 13.333 F
GS
[1 0 0 1 0 0] CT
-22 4.5 moveto 
1 -1 scale
(1.6) t 
GR
GR
GS
[0.75 0 0 0.75 176.75 55.24996] CT
0.149 GC
/Helvetica 13.333 F
GS
[1 0 0 1 0 0] CT
-22 4.5 moveto 
1 -1 scale
(1.7) t 
GR
GR
GS
[0.75 0 0 0.75 328.87532 53.18742] CT
/Helvetica-Bold 14.667 F
GS
[1 0 0 1 0 0] CT
-38 -4 moveto 
1 -1 scale
(objective) t 
GR
GR
GS
[0.75 0 0 0.75 0 0.5] CT
0 0.447 0.741 RC
1 LJ
0.667 LW
N
245.938 136.426 M
250.875 259.317 L
255.813 330.743 L
260.75 388.794 L
265.688 438.943 L
270.625 481.653 L
275.563 521.699 L
280.5 557.262 L
285.438 589.179 L
290.375 619.249 L
295.313 641.402 L
300.25 665.683 L
305.188 686.594 L
310.125 699.12 L
315.063 712.863 L
320 725.633 L
324.938 740.223 L
329.875 758.766 L
334.813 768.017 L
339.75 780.016 L
344.688 790.377 L
349.625 788.044 L
354.563 786.744 L
359.5 794.348 L
364.438 791.71 L
369.375 793.614 L
374.313 793.823 L
379.25 796.622 L
384.188 794.675 L
389.125 800.643 L
394.063 801.017 L
399 801.147 L
403.938 797.975 L
408.875 802.545 L
413.813 805.762 L
418.75 803.163 L
423.688 807.129 L
428.625 801.085 L
433.563 808.858 L
438.5 808.577 L
443.438 807.96 L
448.375 809.378 L
453.313 802.221 L
458.25 806.557 L
463.188 808.85 L
468.125 814.277 L
473.063 811.954 L
478 815.469 L
482.938 810.054 L
487.875 809.935 L
492.813 814.807 L
497.75 810.447 L
502.688 806.161 L
507.625 810.72 L
512.563 814.952 L
517.5 808.793 L
522.438 811.813 L
527.375 819.49 L
532.313 813.178 L
537.25 805.928 L
542.188 805.075 L
547.125 810.579 L
552.063 809.071 L
557 811.456 L
561.938 806.064 L
566.875 811.716 L
571.813 813.041 L
576.75 815.05 L
581.688 813.279 L
586.625 809.015 L
591.563 812.321 L
596.5 812.953 L
601.438 811.006 L
606.375 810.87 L
611.313 811.398 L
616.25 812.37 L
621.188 809.624 L
626.125 817.328 L
631.063 810.831 L
636 817.478 L
S
GR
GS
[0.75 0 0 0.75 184.45313 102.81958] CT
0 0.447 0.741 RC
N
0 -3.667 M
2.025 -3.667 3.667 -2.025 3.667 0 C
3.667 0 L
3.667 2.025 2.025 3.667 0 3.667 C
-2.025 3.667 -3.667 2.025 -3.667 0 C
-3.667 -2.025 -2.025 -3.667 0 -3.667 C
cp
0 -4.333 M
-2.393 -4.333 -4.333 -2.393 -4.333 0 C
-4.333 2.393 -2.393 4.333 0 4.333 C
2.393 4.333 4.333 2.393 4.333 0 C
4.333 0 L
4.333 -2.393 2.393 -4.333 0 -4.333 C
cp
f
GR
GS
[0.75 0 0 0.75 188.15625 194.98804] CT
0 0.447 0.741 RC
N
/f-862814258{0 -3.667 M
2.025 -3.667 3.667 -2.025 3.667 0 C
3.667 0 L
3.667 2.025 2.025 3.667 0 3.667 C
-2.025 3.667 -3.667 2.025 -3.667 0 C
-3.667 -2.025 -2.025 -3.667 0 -3.667 C
cp
0 -4.333 M
-2.393 -4.333 -4.333 -2.393 -4.333 0 C
-4.333 2.393 -2.393 4.333 0 4.333 C
2.393 4.333 4.333 2.393 4.333 0 C
4.333 0 L
4.333 -2.393 2.393 -4.333 0 -4.333 C
cp}def
f-862814258
f
GR
GS
[0.75 0 0 0.75 191.85938 248.55689] CT
0 0.447 0.741 RC
N
f-862814258
f
GR
GS
[0.75 0 0 0.75 195.5625 292.09555] CT
0 0.447 0.741 RC
N
f-862814258
f
GR
GS
[0.75 0 0 0.75 199.26563 329.70734] CT
0 0.447 0.741 RC
N
f-862814258
f
GR
GS
[0.75 0 0 0.75 202.96875 361.73974] CT
0 0.447 0.741 RC
N
f-862814258
f
GR
GS
[0.75 0 0 0.75 206.67188 391.77446] CT
0 0.447 0.741 RC
N
f-862814258
f
GR
GS
[0.75 0 0 0.75 210.375 418.44643] CT
0 0.447 0.741 RC
N
f-862814258
f
GR
GS
[0.75 0 0 0.75 214.07813 442.38435] CT
0 0.447 0.741 RC
N
f-862814258
f
GR
GS
[0.75 0 0 0.75 217.78125 464.93658] CT
0 0.447 0.741 RC
N
f-862814258
f
GR
GS
[0.75 0 0 0.75 221.48438 481.55116] CT
0 0.447 0.741 RC
N
f-862814258
f
GR
GS
[0.75 0 0 0.75 225.1875 499.76196] CT
0 0.447 0.741 RC
N
f-862814258
f
GR
GS
[0.75 0 0 0.75 228.89063 515.4455] CT
0 0.447 0.741 RC
N
f-862814258
f
GR
GS
[0.75 0 0 0.75 232.59375 524.8399] CT
0 0.447 0.741 RC
N
f-862814258
f
GR
GS
[0.75 0 0 0.75 236.29688 535.14755] CT
0 0.447 0.741 RC
N
f-862814258
f
GR
GS
[0.75 0 0 0.75 240 544.72447] CT
0 0.447 0.741 RC
N
f-862814258
f
GR
GS
[0.75 0 0 0.75 243.70313 555.66699] CT
0 0.447 0.741 RC
N
f-862814258
f
GR
GS
[0.75 0 0 0.75 247.40625 569.57486] CT
0 0.447 0.741 RC
N
f-862814258
f
GR
GS
[0.75 0 0 0.75 251.10938 576.51259] CT
0 0.447 0.741 RC
N
f-862814258
f
GR
GS
[0.75 0 0 0.75 254.8125 585.51195] CT
0 0.447 0.741 RC
N
f-862814258
f
GR
GS
[0.75 0 0 0.75 258.51563 593.28253] CT
0 0.447 0.741 RC
N
f-862814258
f
GR
GS
[0.75 0 0 0.75 262.21875 591.5331] CT
0 0.447 0.741 RC
N
f-862814258
f
GR
GS
[0.75 0 0 0.75 265.92188 590.55806] CT
0 0.447 0.741 RC
N
f-862814258
f
GR
GS
[0.75 0 0 0.75 269.625 596.26074] CT
0 0.447 0.741 RC
N
f-862814258
f
GR
GS
[0.75 0 0 0.75 273.32813 594.28215] CT
0 0.447 0.741 RC
N
f-862814258
f
GR
GS
[0.75 0 0 0.75 277.03125 595.71024] CT
0 0.447 0.741 RC
N
f-862814258
f
GR
GS
[0.75 0 0 0.75 280.73438 595.86693] CT
0 0.447 0.741 RC
N
f-862814258
f
GR
GS
[0.75 0 0 0.75 284.4375 597.96642] CT
0 0.447 0.741 RC
N
f-862814258
f
GR
GS
[0.75 0 0 0.75 288.14063 596.50592] CT
0 0.447 0.741 RC
N
f-862814258
f
GR
GS
[0.75 0 0 0.75 291.84375 600.98216] CT
0 0.447 0.741 RC
N
f-862814258
f
GR
GS
[0.75 0 0 0.75 295.54688 601.26268] CT
0 0.447 0.741 RC
N
f-862814258
f
GR
GS
[0.75 0 0 0.75 299.25 601.36005] CT
0 0.447 0.741 RC
N
f-862814258
f
GR
GS
[0.75 0 0 0.75 302.95313 598.98096] CT
0 0.447 0.741 RC
N
f-862814258
f
GR
GS
[0.75 0 0 0.75 306.65625 602.40883] CT
0 0.447 0.741 RC
N
f-862814258
f
GR
GS
[0.75 0 0 0.75 310.35938 604.82156] CT
0 0.447 0.741 RC
N
f-862814258
f
GR
GS
[0.75 0 0 0.75 314.0625 602.87204] CT
0 0.447 0.741 RC
N
f-862814258
f
GR
GS
[0.75 0 0 0.75 317.76563 605.84654] CT
0 0.447 0.741 RC
N
f-862814258
f
GR
GS
[0.75 0 0 0.75 321.46875 601.31363] CT
0 0.447 0.741 RC
N
f-862814258
f
GR
GS
[0.75 0 0 0.75 325.17188 607.14384] CT
0 0.447 0.741 RC
N
f-862814258
f
GR
GS
[0.75 0 0 0.75 328.875 606.93268] CT
0 0.447 0.741 RC
N
f-862814258
f
GR
GS
[0.75 0 0 0.75 332.57813 606.46974] CT
0 0.447 0.741 RC
N
f-862814258
f
GR
GS
[0.75 0 0 0.75 336.28125 607.53354] CT
0 0.447 0.741 RC
N
f-862814258
f
GR
GS
[0.75 0 0 0.75 339.98438 602.16544] CT
0 0.447 0.741 RC
N
f-862814258
f
GR
GS
[0.75 0 0 0.75 343.6875 605.41753] CT
0 0.447 0.741 RC
N
f-862814258
f
GR
GS
[0.75 0 0 0.75 347.39063 607.1378] CT
0 0.447 0.741 RC
N
f-862814258
f
GR
GS
[0.75 0 0 0.75 351.09375 611.20787] CT
0 0.447 0.741 RC
N
f-862814258
f
GR
GS
[0.75 0 0 0.75 354.79688 609.46571] CT
0 0.447 0.741 RC
N
f-862814258
f
GR
GS
[0.75 0 0 0.75 358.5 612.10138] CT
0 0.447 0.741 RC
N
f-862814258
f
GR
GS
[0.75 0 0 0.75 362.20313 608.04028] CT
0 0.447 0.741 RC
N
f-862814258
f
GR
GS
[0.75 0 0 0.75 365.90625 607.95088] CT
0 0.447 0.741 RC
N
f-862814258
f
GR
GS
[0.75 0 0 0.75 369.60938 611.60544] CT
0 0.447 0.741 RC
N
f-862814258
f
GR
GS
[0.75 0 0 0.75 373.3125 608.33549] CT
0 0.447 0.741 RC
N
f-862814258
f
GR
GS
[0.75 0 0 0.75 377.01563 605.12085] CT
0 0.447 0.741 RC
N
f-862814258
f
GR
GS
[0.75 0 0 0.75 380.71875 608.53993] CT
0 0.447 0.741 RC
N
f-862814258
f
GR
GS
[0.75 0 0 0.75 384.42188 611.71411] CT
0 0.447 0.741 RC
N
f-862814258
f
GR
GS
[0.75 0 0 0.75 388.125 607.095] CT
0 0.447 0.741 RC
N
f-862814258
f
GR
GS
[0.75 0 0 0.75 391.82813 609.35974] CT
0 0.447 0.741 RC
N
f-862814258
f
GR
GS
[0.75 0 0 0.75 395.53125 615.11763] CT
0 0.447 0.741 RC
N
f-862814258
f
GR
GS
[0.75 0 0 0.75 399.23438 610.38371] CT
0 0.447 0.741 RC
N
f-862814258
f
GR
GS
[0.75 0 0 0.75 402.9375 604.9458] CT
0 0.447 0.741 RC
N
f-862814258
f
GR
GS
[0.75 0 0 0.75 406.64063 604.3064] CT
0 0.447 0.741 RC
N
f-862814258
f
GR
GS
[0.75 0 0 0.75 410.34375 608.43396] CT
0 0.447 0.741 RC
N
f-862814258
f
GR
GS
[0.75 0 0 0.75 414.04688 607.30356] CT
0 0.447 0.741 RC
N
f-862814258
f
GR
GS
[0.75 0 0 0.75 417.75 609.09236] CT
0 0.447 0.741 RC
N
f-862814258
f
GR
GS
[0.75 0 0 0.75 421.45313 605.04829] CT
0 0.447 0.741 RC
N
f-862814258
f
GR
GS
[0.75 0 0 0.75 425.15625 609.28691] CT
0 0.447 0.741 RC
N
f-862814258
f
GR
GS
[0.75 0 0 0.75 428.85938 610.2809] CT
0 0.447 0.741 RC
N
f-862814258
f
GR
GS
[0.75 0 0 0.75 432.5625 611.78726] CT
0 0.447 0.741 RC
N
f-862814258
f
GR
GS
[0.75 0 0 0.75 436.26563 610.45961] CT
0 0.447 0.741 RC
N
f-862814258
f
GR
GS
[0.75 0 0 0.75 439.96875 607.26108] CT
0 0.447 0.741 RC
N
f-862814258
f
GR
GS
[0.75 0 0 0.75 443.67188 609.74065] CT
0 0.447 0.741 RC
N
f-862814258
f
GR
GS
[0.75 0 0 0.75 447.375 610.21503] CT
0 0.447 0.741 RC
N
f-862814258
f
GR
GS
[0.75 0 0 0.75 451.07813 608.75435] CT
0 0.447 0.741 RC
N
f-862814258
f
GR
GS
[0.75 0 0 0.75 454.78125 608.65263] CT
0 0.447 0.741 RC
N
f-862814258
f
GR
GS
[0.75 0 0 0.75 458.48438 609.0486] CT
0 0.447 0.741 RC
N
f-862814258
f
GR
GS
[0.75 0 0 0.75 462.1875 609.77768] CT
0 0.447 0.741 RC
N
f-862814258
f
GR
GS
[0.75 0 0 0.75 465.89063 607.71806] CT
0 0.447 0.741 RC
N
f-862814258
f
GR
GS
[0.75 0 0 0.75 469.59375 613.49582] CT
0 0.447 0.741 RC
N
f-862814258
f
GR
GS
[0.75 0 0 0.75 473.29688 608.62357] CT
0 0.447 0.741 RC
N
f-862814258
f
GR
GS
[0.75 0 0 0.75 477 613.60834] CT
0 0.447 0.741 RC
N
f-862814258
f
GR
GS
[0.75 0 0 0.75 0 0.5] CT
0.851 0.325 0.098 RC
1 LJ
0.667 LW
N
245.938 205.454 M
250.875 281.033 L
255.813 341.567 L
260.75 393.246 L
265.688 441.736 L
270.625 478.395 L
275.563 514.347 L
280.5 545.208 L
285.438 572.865 L
290.375 599.529 L
295.313 620.49 L
300.25 639.149 L
305.188 661.387 L
310.125 671.576 L
315.063 689.906 L
320 703.463 L
324.938 715.032 L
329.875 733.832 L
334.813 740.072 L
339.75 753.078 L
344.688 751.823 L
349.625 754.079 L
354.563 756.996 L
359.5 758.221 L
364.438 759.149 L
369.375 755.851 L
374.313 761.882 L
379.25 760.708 L
384.188 765.019 L
389.125 759.803 L
394.063 765.999 L
399 766.071 L
403.938 770.01 L
408.875 765.212 L
413.813 767.453 L
418.75 768.226 L
423.688 766.755 L
428.625 771.617 L
433.563 770.135 L
438.5 775.461 L
443.438 769.64 L
448.375 775.172 L
453.313 771.526 L
458.25 772.062 L
463.188 773.703 L
468.125 768.734 L
473.063 775.374 L
478 767.8 L
482.938 776.475 L
487.875 772.078 L
492.813 774.845 L
497.75 772.361 L
502.688 776.116 L
507.625 775.256 L
512.563 775.059 L
517.5 779.728 L
522.438 774.983 L
527.375 770.914 L
532.313 773.269 L
537.25 774.693 L
542.188 778.933 L
547.125 769.604 L
552.063 776.102 L
557 775.152 L
561.938 774.791 L
566.875 770.107 L
571.813 771.393 L
576.75 776.531 L
581.688 778.939 L
586.625 775.049 L
591.563 778.789 L
596.5 772.796 L
601.438 772.276 L
606.375 771.892 L
611.313 775.668 L
616.25 772.221 L
621.188 780.151 L
626.125 779.125 L
631.063 777.232 L
636 770.38 L
S
GR
GS
[0.75 0 0 0.75 184.45313 154.59085] CT
0.851 0.325 0.098 RC
N
f-862814258
f
GR
GS
[0.75 0 0 0.75 188.15625 211.27444] CT
0.851 0.325 0.098 RC
N
f-862814258
f
GR
GS
[0.75 0 0 0.75 191.85938 256.67538] CT
0.851 0.325 0.098 RC
N
f-862814258
f
GR
GS
[0.75 0 0 0.75 195.5625 295.43482] CT
0.851 0.325 0.098 RC
N
f-862814258
f
GR
GS
[0.75 0 0 0.75 199.26563 331.80206] CT
0.851 0.325 0.098 RC
N
f-862814258
f
GR
GS
[0.75 0 0 0.75 202.96875 359.29629] CT
0.851 0.325 0.098 RC
N
f-862814258
f
GR
GS
[0.75 0 0 0.75 206.67188 386.26006] CT
0.851 0.325 0.098 RC
N
f-862814258
f
GR
GS
[0.75 0 0 0.75 210.375 409.40633] CT
0.851 0.325 0.098 RC
N
f-862814258
f
GR
GS
[0.75 0 0 0.75 214.07813 430.14874] CT
0.851 0.325 0.098 RC
N
f-862814258
f
GR
GS
[0.75 0 0 0.75 217.78125 450.14706] CT
0.851 0.325 0.098 RC
N
f-862814258
f
GR
GS
[0.75 0 0 0.75 221.48438 465.86722] CT
0.851 0.325 0.098 RC
N
f-862814258
f
GR
GS
[0.75 0 0 0.75 225.1875 479.86183] CT
0.851 0.325 0.098 RC
N
f-862814258
f
GR
GS
[0.75 0 0 0.75 228.89063 496.54036] CT
0.851 0.325 0.098 RC
N
f-862814258
f
GR
GS
[0.75 0 0 0.75 232.59375 504.18199] CT
0.851 0.325 0.098 RC
N
f-862814258
f
GR
GS
[0.75 0 0 0.75 236.29688 517.9296] CT
0.851 0.325 0.098 RC
N
f-862814258
f
GR
GS
[0.75 0 0 0.75 240 528.09698] CT
0.851 0.325 0.098 RC
N
f-862814258
f
GR
GS
[0.75 0 0 0.75 243.70313 536.77399] CT
0.851 0.325 0.098 RC
N
f-862814258
f
GR
GS
[0.75 0 0 0.75 247.40625 550.87416] CT
0.851 0.325 0.098 RC
N
f-862814258
f
GR
GS
[0.75 0 0 0.75 251.10938 555.55411] CT
0.851 0.325 0.098 RC
N
f-862814258
f
GR
GS
[0.75 0 0 0.75 254.8125 565.30818] CT
0.851 0.325 0.098 RC
N
f-862814258
f
GR
GS
[0.75 0 0 0.75 258.51563 564.36688] CT
0.851 0.325 0.098 RC
N
f-862814258
f
GR
GS
[0.75 0 0 0.75 262.21875 566.05891] CT
0.851 0.325 0.098 RC
N
f-862814258
f
GR
GS
[0.75 0 0 0.75 265.92188 568.24698] CT
0.851 0.325 0.098 RC
N
f-862814258
f
GR
GS
[0.75 0 0 0.75 269.625 569.16589] CT
0.851 0.325 0.098 RC
N
f-862814258
f
GR
GS
[0.75 0 0 0.75 273.32813 569.86142] CT
0.851 0.325 0.098 RC
N
f-862814258
f
GR
GS
[0.75 0 0 0.75 277.03125 567.38821] CT
0.851 0.325 0.098 RC
N
f-862814258
f
GR
GS
[0.75 0 0 0.75 280.73438 571.91156] CT
0.851 0.325 0.098 RC
N
f-862814258
f
GR
GS
[0.75 0 0 0.75 284.4375 571.03078] CT
0.851 0.325 0.098 RC
N
f-862814258
f
GR
GS
[0.75 0 0 0.75 288.14063 574.26456] CT
0.851 0.325 0.098 RC
N
f-862814258
f
GR
GS
[0.75 0 0 0.75 291.84375 570.35251] CT
0.851 0.325 0.098 RC
N
f-862814258
f
GR
GS
[0.75 0 0 0.75 295.54688 574.99936] CT
0.851 0.325 0.098 RC
N
f-862814258
f
GR
GS
[0.75 0 0 0.75 299.25 575.05301] CT
0.851 0.325 0.098 RC
N
f-862814258
f
GR
GS
[0.75 0 0 0.75 302.95313 578.00723] CT
0.851 0.325 0.098 RC
N
f-862814258
f
GR
GS
[0.75 0 0 0.75 306.65625 574.40866] CT
0.851 0.325 0.098 RC
N
f-862814258
f
GR
GS
[0.75 0 0 0.75 310.35938 576.08961] CT
0.851 0.325 0.098 RC
N
f-862814258
f
GR
GS
[0.75 0 0 0.75 314.0625 576.66928] CT
0.851 0.325 0.098 RC
N
f-862814258
f
GR
GS
[0.75 0 0 0.75 317.76563 575.56612] CT
0.851 0.325 0.098 RC
N
f-862814258
f
GR
GS
[0.75 0 0 0.75 321.46875 579.21312] CT
0.851 0.325 0.098 RC
N
f-862814258
f
GR
GS
[0.75 0 0 0.75 325.17188 578.1013] CT
0.851 0.325 0.098 RC
N
f-862814258
f
GR
GS
[0.75 0 0 0.75 328.875 582.09589] CT
0.851 0.325 0.098 RC
N
f-862814258
f
GR
GS
[0.75 0 0 0.75 332.57813 577.73006] CT
0.851 0.325 0.098 RC
N
f-862814258
f
GR
GS
[0.75 0 0 0.75 336.28125 581.87877] CT
0.851 0.325 0.098 RC
N
f-862814258
f
GR
GS
[0.75 0 0 0.75 339.98438 579.14441] CT
0.851 0.325 0.098 RC
N
f-862814258
f
GR
GS
[0.75 0 0 0.75 343.6875 579.54619] CT
0.851 0.325 0.098 RC
N
f-862814258
f
GR
GS
[0.75 0 0 0.75 347.39063 580.77739] CT
0.851 0.325 0.098 RC
N
f-862814258
f
GR
GS
[0.75 0 0 0.75 351.09375 577.05028] CT
0.851 0.325 0.098 RC
N
f-862814258
f
GR
GS
[0.75 0 0 0.75 354.79688 582.03061] CT
0.851 0.325 0.098 RC
N
f-862814258
f
GR
GS
[0.75 0 0 0.75 358.5 576.35013] CT
0.851 0.325 0.098 RC
N
f-862814258
f
GR
GS
[0.75 0 0 0.75 362.20313 582.85591] CT
0.851 0.325 0.098 RC
N
f-862814258
f
GR
GS
[0.75 0 0 0.75 365.90625 579.5585] CT
0.851 0.325 0.098 RC
N
f-862814258
f
GR
GS
[0.75 0 0 0.75 369.60938 581.63377] CT
0.851 0.325 0.098 RC
N
f-862814258
f
GR
GS
[0.75 0 0 0.75 373.3125 579.77072] CT
0.851 0.325 0.098 RC
N
f-862814258
f
GR
GS
[0.75 0 0 0.75 377.01563 582.58698] CT
0.851 0.325 0.098 RC
N
f-862814258
f
GR
GS
[0.75 0 0 0.75 380.71875 581.94171] CT
0.851 0.325 0.098 RC
N
f-862814258
f
GR
GS
[0.75 0 0 0.75 384.42188 581.79422] CT
0.851 0.325 0.098 RC
N
f-862814258
f
GR
GS
[0.75 0 0 0.75 388.125 585.2957] CT
0.851 0.325 0.098 RC
N
f-862814258
f
GR
GS
[0.75 0 0 0.75 391.82813 581.7375] CT
0.851 0.325 0.098 RC
N
f-862814258
f
GR
GS
[0.75 0 0 0.75 395.53125 578.68532] CT
0.851 0.325 0.098 RC
N
f-862814258
f
GR
GS
[0.75 0 0 0.75 399.23438 580.45178] CT
0.851 0.325 0.098 RC
N
f-862814258
f
GR
GS
[0.75 0 0 0.75 402.9375 581.51956] CT
0.851 0.325 0.098 RC
N
f-862814258
f
GR
GS
[0.75 0 0 0.75 406.64063 584.69978] CT
0.851 0.325 0.098 RC
N
f-862814258
f
GR
GS
[0.75 0 0 0.75 410.34375 577.703] CT
0.851 0.325 0.098 RC
N
f-862814258
f
GR
GS
[0.75 0 0 0.75 414.04688 582.57668] CT
0.851 0.325 0.098 RC
N
f-862814258
f
GR
GS
[0.75 0 0 0.75 417.75 581.86412] CT
0.851 0.325 0.098 RC
N
f-862814258
f
GR
GS
[0.75 0 0 0.75 421.45313 581.59312] CT
0.851 0.325 0.098 RC
N
f-862814258
f
GR
GS
[0.75 0 0 0.75 425.15625 578.07988] CT
0.851 0.325 0.098 RC
N
f-862814258
f
GR
GS
[0.75 0 0 0.75 428.85938 579.04512] CT
0.851 0.325 0.098 RC
N
f-862814258
f
GR
GS
[0.75 0 0 0.75 432.5625 582.89789] CT
0.851 0.325 0.098 RC
N
f-862814258
f
GR
GS
[0.75 0 0 0.75 436.26563 584.70432] CT
0.851 0.325 0.098 RC
N
f-862814258
f
GR
GS
[0.75 0 0 0.75 439.96875 581.78662] CT
0.851 0.325 0.098 RC
N
f-862814258
f
GR
GS
[0.75 0 0 0.75 443.67188 584.5918] CT
0.851 0.325 0.098 RC
N
f-862814258
f
GR
GS
[0.75 0 0 0.75 447.375 580.09674] CT
0.851 0.325 0.098 RC
N
f-862814258
f
GR
GS
[0.75 0 0 0.75 451.07813 579.70714] CT
0.851 0.325 0.098 RC
N
f-862814258
f
GR
GS
[0.75 0 0 0.75 454.78125 579.41916] CT
0.851 0.325 0.098 RC
N
f-862814258
f
GR
GS
[0.75 0 0 0.75 458.48438 582.2513] CT
0.851 0.325 0.098 RC
N
f-862814258
f
GR
GS
[0.75 0 0 0.75 462.1875 579.66566] CT
0.851 0.325 0.098 RC
N
f-862814258
f
GR
GS
[0.75 0 0 0.75 465.89063 585.61334] CT
0.851 0.325 0.098 RC
N
f-862814258
f
GR
GS
[0.75 0 0 0.75 469.59375 584.84338] CT
0.851 0.325 0.098 RC
N
f-862814258
f
GR
GS
[0.75 0 0 0.75 473.29688 583.42395] CT
0.851 0.325 0.098 RC
N
f-862814258
f
GR
GS
[0.75 0 0 0.75 477 578.28532] CT
0.851 0.325 0.098 RC
N
f-862814258
f
GR
GS
[0.75 0 0 0.75 0 0.5] CT
1 GC
N
625 118 M
625 84 L
546 84 L
546 118 L
cp
f
GR
GS
[0.75 0 0 0.75 444.75 70.52174] CT
/Helvetica 12 F
GS
[1 0 0 1 0 0] CT
0 4.5 moveto 
1 -1 scale
(train) t 
GR
GR
GS
[0.75 0 0 0.75 0 0.5] CT
0 0.447 0.741 RC
1 LJ
0.667 LW
N
550 93.362 M
590 93.362 L
S
GR
GS
[0.75 0 0 0.75 427.5 70.52174] CT
0 0.447 0.741 RC
N
f-862814258
f
GR
GS
[0.75 0 0 0.75 444.75 81.97826] CT
/Helvetica 12 F
GS
[1 0 0 1 0 0] CT
0 4.5 moveto 
1 -1 scale
(val) t 
GR
GR
GS
[0.75 0 0 0.75 0 0.5] CT
0.851 0.325 0.098 RC
1 LJ
0.667 LW
N
550 108.638 M
590 108.638 L
S
GR
GS
[0.75 0 0 0.75 427.5 81.97826] CT
0.851 0.325 0.098 RC
N
f-862814258
f
GR
GS
[0.75 0 0 0.75 0 0.5] CT
0.149 GC
10.0 ML
0.667 LW
N
546 118 M
546 84 L
625 84 L
625 118 L
cp
S
GR
GS
[0.75 0 0 0.75 0 0.5] CT
1 GC
N
761 863 M
1157 863 L
1157 73 L
761 73 L
cp
f
GR
GS
[0.75 0 0 0.75 0 0.5] CT
0.873 GC
1 LJ
0.667 LW
N
761 863 M
761 73 L
S
GR
GS
[0.75 0 0 0.75 0 0.5] CT
0.873 GC
1 LJ
0.667 LW
N
810.5 863 M
810.5 73 L
S
GR
GS
[0.75 0 0 0.75 0 0.5] CT
0.873 GC
1 LJ
0.667 LW
N
860 863 M
860 73 L
S
GR
GS
[0.75 0 0 0.75 0 0.5] CT
0.873 GC
1 LJ
0.667 LW
N
909.5 863 M
909.5 73 L
S
GR
GS
[0.75 0 0 0.75 0 0.5] CT
0.873 GC
1 LJ
0.667 LW
N
959 863 M
959 73 L
S
GR
GS
[0.75 0 0 0.75 0 0.5] CT
0.873 GC
1 LJ
0.667 LW
N
1008.5 863 M
1008.5 73 L
S
GR
GS
[0.75 0 0 0.75 0 0.5] CT
0.873 GC
1 LJ
0.667 LW
N
1058 863 M
1058 73 L
S
GR
GS
[0.75 0 0 0.75 0 0.5] CT
0.873 GC
1 LJ
0.667 LW
N
1107.5 863 M
1107.5 73 L
S
GR
GS
[0.75 0 0 0.75 0 0.5] CT
0.873 GC
1 LJ
0.667 LW
N
1157 863 M
1157 73 L
S
GR
GS
[0.75 0 0 0.75 0 0.5] CT
0.873 GC
1 LJ
0.667 LW
N
1157 863 M
761 863 L
S
GR
GS
[0.75 0 0 0.75 0 0.5] CT
0.873 GC
1 LJ
0.667 LW
N
1157 775.222 M
761 775.222 L
S
GR
GS
[0.75 0 0 0.75 0 0.5] CT
0.873 GC
1 LJ
0.667 LW
N
1157 687.444 M
761 687.444 L
S
GR
GS
[0.75 0 0 0.75 0 0.5] CT
0.873 GC
1 LJ
0.667 LW
N
1157 599.667 M
761 599.667 L
S
GR
GS
[0.75 0 0 0.75 0 0.5] CT
0.873 GC
1 LJ
0.667 LW
N
1157 511.889 M
761 511.889 L
S
GR
GS
[0.75 0 0 0.75 0 0.5] CT
0.873 GC
1 LJ
0.667 LW
N
1157 424.111 M
761 424.111 L
S
GR
GS
[0.75 0 0 0.75 0 0.5] CT
0.873 GC
1 LJ
0.667 LW
N
1157 336.333 M
761 336.333 L
S
GR
GS
[0.75 0 0 0.75 0 0.5] CT
0.873 GC
1 LJ
0.667 LW
N
1157 248.556 M
761 248.556 L
S
GR
GS
[0.75 0 0 0.75 0 0.5] CT
0.873 GC
1 LJ
0.667 LW
N
1157 160.778 M
761 160.778 L
S
GR
GS
[0.75 0 0 0.75 0 0.5] CT
0.873 GC
1 LJ
0.667 LW
N
1157 73 M
761 73 L
S
GR
GS
[0.75 0 0 0.75 0 0.5] CT
0.149 GC
2 setlinecap
1 LJ
0.667 LW
N
761 863 M
1157 863 L
S
GR
GS
[0.75 0 0 0.75 0 0.5] CT
0.149 GC
2 setlinecap
1 LJ
0.667 LW
N
761 73 M
1157 73 L
S
GR
GS
[0.75 0 0 0.75 0 0.5] CT
0.149 GC
2 setlinecap
1 LJ
0.667 LW
N
761 863 M
761 855.1 L
S
GR
GS
[0.75 0 0 0.75 0 0.5] CT
0.149 GC
2 setlinecap
1 LJ
0.667 LW
N
810.5 863 M
810.5 855.1 L
S
GR
GS
[0.75 0 0 0.75 0 0.5] CT
0.149 GC
2 setlinecap
1 LJ
0.667 LW
N
860 863 M
860 855.1 L
S
GR
GS
[0.75 0 0 0.75 0 0.5] CT
0.149 GC
2 setlinecap
1 LJ
0.667 LW
N
909.5 863 M
909.5 855.1 L
S
GR
GS
[0.75 0 0 0.75 0 0.5] CT
0.149 GC
2 setlinecap
1 LJ
0.667 LW
N
959 863 M
959 855.1 L
S
GR
GS
[0.75 0 0 0.75 0 0.5] CT
0.149 GC
2 setlinecap
1 LJ
0.667 LW
N
1008.5 863 M
1008.5 855.1 L
S
GR
GS
[0.75 0 0 0.75 0 0.5] CT
0.149 GC
2 setlinecap
1 LJ
0.667 LW
N
1058 863 M
1058 855.1 L
S
GR
GS
[0.75 0 0 0.75 0 0.5] CT
0.149 GC
2 setlinecap
1 LJ
0.667 LW
N
1107.5 863 M
1107.5 855.1 L
S
GR
GS
[0.75 0 0 0.75 0 0.5] CT
0.149 GC
2 setlinecap
1 LJ
0.667 LW
N
1157 863 M
1157 855.1 L
S
GR
GS
[0.75 0 0 0.75 0 0.5] CT
0.149 GC
2 setlinecap
1 LJ
0.667 LW
N
761 73 M
761 80.9 L
S
GR
GS
[0.75 0 0 0.75 0 0.5] CT
0.149 GC
2 setlinecap
1 LJ
0.667 LW
N
810.5 73 M
810.5 80.9 L
S
GR
GS
[0.75 0 0 0.75 0 0.5] CT
0.149 GC
2 setlinecap
1 LJ
0.667 LW
N
860 73 M
860 80.9 L
S
GR
GS
[0.75 0 0 0.75 0 0.5] CT
0.149 GC
2 setlinecap
1 LJ
0.667 LW
N
909.5 73 M
909.5 80.9 L
S
GR
GS
[0.75 0 0 0.75 0 0.5] CT
0.149 GC
2 setlinecap
1 LJ
0.667 LW
N
959 73 M
959 80.9 L
S
GR
GS
[0.75 0 0 0.75 0 0.5] CT
0.149 GC
2 setlinecap
1 LJ
0.667 LW
N
1008.5 73 M
1008.5 80.9 L
S
GR
GS
[0.75 0 0 0.75 0 0.5] CT
0.149 GC
2 setlinecap
1 LJ
0.667 LW
N
1058 73 M
1058 80.9 L
S
GR
GS
[0.75 0 0 0.75 0 0.5] CT
0.149 GC
2 setlinecap
1 LJ
0.667 LW
N
1107.5 73 M
1107.5 80.9 L
S
GR
GS
[0.75 0 0 0.75 0 0.5] CT
0.149 GC
2 setlinecap
1 LJ
0.667 LW
N
1157 73 M
1157 80.9 L
S
GR
GS
[0.75 0 0 0.75 570.75 651.75003] CT
0.149 GC
/Helvetica 13.333 F
GS
[1 0 0 1 0 0] CT
-4.5 13 moveto 
1 -1 scale
(0) t 
GR
GR
GS
[0.75 0 0 0.75 607.875 651.75003] CT
0.149 GC
/Helvetica 13.333 F
GS
[1 0 0 1 0 0] CT
-8.5 13 moveto 
1 -1 scale
(10) t 
GR
GR
GS
[0.75 0 0 0.75 645 651.75003] CT
0.149 GC
/Helvetica 13.333 F
GS
[1 0 0 1 0 0] CT
-8.5 13 moveto 
1 -1 scale
(20) t 
GR
GR
GS
[0.75 0 0 0.75 682.125 651.75003] CT
0.149 GC
/Helvetica 13.333 F
GS
[1 0 0 1 0 0] CT
-8.5 13 moveto 
1 -1 scale
(30) t 
GR
GR
GS
[0.75 0 0 0.75 719.25 651.75003] CT
0.149 GC
/Helvetica 13.333 F
GS
[1 0 0 1 0 0] CT
-8.5 13 moveto 
1 -1 scale
(40) t 
GR
GR
GS
[0.75 0 0 0.75 756.375 651.75003] CT
0.149 GC
/Helvetica 13.333 F
GS
[1 0 0 1 0 0] CT
-8.5 13 moveto 
1 -1 scale
(50) t 
GR
GR
GS
[0.75 0 0 0.75 793.5 651.75003] CT
0.149 GC
/Helvetica 13.333 F
GS
[1 0 0 1 0 0] CT
-8.5 13 moveto 
1 -1 scale
(60) t 
GR
GR
GS
[0.75 0 0 0.75 830.625 651.75003] CT
0.149 GC
/Helvetica 13.333 F
GS
[1 0 0 1 0 0] CT
-8.5 13 moveto 
1 -1 scale
(70) t 
GR
GR
GS
[0.75 0 0 0.75 867.75 651.75003] CT
0.149 GC
/Helvetica 13.333 F
GS
[1 0 0 1 0 0] CT
-8.5 13 moveto 
1 -1 scale
(80) t 
GR
GR
GS
[0.75 0 0 0.75 719.25014 665.50002] CT
0.149 GC
/Helvetica 14.667 F
GS
[1 0 0 1 0 0] CT
-22.5 14 moveto 
1 -1 scale
(epoch) t 
GR
GR
GS
[0.75 0 0 0.75 0 0.5] CT
0.149 GC
2 setlinecap
1 LJ
0.667 LW
N
761 863 M
761 73 L
S
GR
GS
[0.75 0 0 0.75 0 0.5] CT
0.149 GC
2 setlinecap
1 LJ
0.667 LW
N
1157 863 M
1157 73 L
S
GR
GS
[0.75 0 0 0.75 0 0.5] CT
0.149 GC
2 setlinecap
1 LJ
0.667 LW
N
761 863 M
768.9 863 L
S
GR
GS
[0.75 0 0 0.75 0 0.5] CT
0.149 GC
2 setlinecap
1 LJ
0.667 LW
N
761 775.222 M
768.9 775.222 L
S
GR
GS
[0.75 0 0 0.75 0 0.5] CT
0.149 GC
2 setlinecap
1 LJ
0.667 LW
N
761 687.444 M
768.9 687.444 L
S
GR
GS
[0.75 0 0 0.75 0 0.5] CT
0.149 GC
2 setlinecap
1 LJ
0.667 LW
N
761 599.667 M
768.9 599.667 L
S
GR
GS
[0.75 0 0 0.75 0 0.5] CT
0.149 GC
2 setlinecap
1 LJ
0.667 LW
N
761 511.889 M
768.9 511.889 L
S
GR
GS
[0.75 0 0 0.75 0 0.5] CT
0.149 GC
2 setlinecap
1 LJ
0.667 LW
N
761 424.111 M
768.9 424.111 L
S
GR
GS
[0.75 0 0 0.75 0 0.5] CT
0.149 GC
2 setlinecap
1 LJ
0.667 LW
N
761 336.333 M
768.9 336.333 L
S
GR
GS
[0.75 0 0 0.75 0 0.5] CT
0.149 GC
2 setlinecap
1 LJ
0.667 LW
N
761 248.556 M
768.9 248.556 L
S
GR
GS
[0.75 0 0 0.75 0 0.5] CT
0.149 GC
2 setlinecap
1 LJ
0.667 LW
N
761 160.778 M
768.9 160.778 L
S
GR
GS
[0.75 0 0 0.75 0 0.5] CT
0.149 GC
2 setlinecap
1 LJ
0.667 LW
N
761 73 M
768.9 73 L
S
GR
GS
[0.75 0 0 0.75 0 0.5] CT
0.149 GC
2 setlinecap
1 LJ
0.667 LW
N
1157 863 M
1149.1 863 L
S
GR
GS
[0.75 0 0 0.75 0 0.5] CT
0.149 GC
2 setlinecap
1 LJ
0.667 LW
N
1157 775.222 M
1149.1 775.222 L
S
GR
GS
[0.75 0 0 0.75 0 0.5] CT
0.149 GC
2 setlinecap
1 LJ
0.667 LW
N
1157 687.444 M
1149.1 687.444 L
S
GR
GS
[0.75 0 0 0.75 0 0.5] CT
0.149 GC
2 setlinecap
1 LJ
0.667 LW
N
1157 599.667 M
1149.1 599.667 L
S
GR
GS
[0.75 0 0 0.75 0 0.5] CT
0.149 GC
2 setlinecap
1 LJ
0.667 LW
N
1157 511.889 M
1149.1 511.889 L
S
GR
GS
[0.75 0 0 0.75 0 0.5] CT
0.149 GC
2 setlinecap
1 LJ
0.667 LW
N
1157 424.111 M
1149.1 424.111 L
S
GR
GS
[0.75 0 0 0.75 0 0.5] CT
0.149 GC
2 setlinecap
1 LJ
0.667 LW
N
1157 336.333 M
1149.1 336.333 L
S
GR
GS
[0.75 0 0 0.75 0 0.5] CT
0.149 GC
2 setlinecap
1 LJ
0.667 LW
N
1157 248.556 M
1149.1 248.556 L
S
GR
GS
[0.75 0 0 0.75 0 0.5] CT
0.149 GC
2 setlinecap
1 LJ
0.667 LW
N
1157 160.778 M
1149.1 160.778 L
S
GR
GS
[0.75 0 0 0.75 0 0.5] CT
0.149 GC
2 setlinecap
1 LJ
0.667 LW
N
1157 73 M
1149.1 73 L
S
GR
GS
[0.75 0 0 0.75 566.75002 647.75] CT
0.149 GC
/Helvetica 13.333 F
GS
[1 0 0 1 0 0] CT
-30 4.5 moveto 
1 -1 scale
(0.35) t 
GR
GR
GS
[0.75 0 0 0.75 566.75002 581.91667] CT
0.149 GC
/Helvetica 13.333 F
GS
[1 0 0 1 0 0] CT
-22 4.5 moveto 
1 -1 scale
(0.4) t 
GR
GR
GS
[0.75 0 0 0.75 566.75002 516.08334] CT
0.149 GC
/Helvetica 13.333 F
GS
[1 0 0 1 0 0] CT
-30 4.5 moveto 
1 -1 scale
(0.45) t 
GR
GR
GS
[0.75 0 0 0.75 566.75002 450.25002] CT
0.149 GC
/Helvetica 13.333 F
GS
[1 0 0 1 0 0] CT
-22 4.5 moveto 
1 -1 scale
(0.5) t 
GR
GR
GS
[0.75 0 0 0.75 566.75002 384.41664] CT
0.149 GC
/Helvetica 13.333 F
GS
[1 0 0 1 0 0] CT
-30 4.5 moveto 
1 -1 scale
(0.55) t 
GR
GR
GS
[0.75 0 0 0.75 566.75002 318.58331] CT
0.149 GC
/Helvetica 13.333 F
GS
[1 0 0 1 0 0] CT
-22 4.5 moveto 
1 -1 scale
(0.6) t 
GR
GR
GS
[0.75 0 0 0.75 566.75002 252.75003] CT
0.149 GC
/Helvetica 13.333 F
GS
[1 0 0 1 0 0] CT
-30 4.5 moveto 
1 -1 scale
(0.65) t 
GR
GR
GS
[0.75 0 0 0.75 566.75002 186.91668] CT
0.149 GC
/Helvetica 13.333 F
GS
[1 0 0 1 0 0] CT
-22 4.5 moveto 
1 -1 scale
(0.7) t 
GR
GR
GS
[0.75 0 0 0.75 566.75002 121.08333] CT
0.149 GC
/Helvetica 13.333 F
GS
[1 0 0 1 0 0] CT
-30 4.5 moveto 
1 -1 scale
(0.75) t 
GR
GR
GS
[0.75 0 0 0.75 566.75002 55.24998] CT
0.149 GC
/Helvetica 13.333 F
GS
[1 0 0 1 0 0] CT
-22 4.5 moveto 
1 -1 scale
(0.8) t 
GR
GR
GS
[0.75 0 0 0.75 719.25069 53.18747] CT
/Helvetica-Bold 14.667 F
GS
[1 0 0 1 0 0] CT
-31.5 -4 moveto 
1 -1 scale
(top1err) t 
GR
GR
GS
[0.75 0 0 0.75 0 0.5] CT
0 0.447 0.741 RC
1 LJ
0.667 LW
N
765.95 117.24 M
770.9 248.556 L
775.85 376.36 L
780.8 468.351 L
785.75 526.636 L
790.7 558.938 L
795.65 594.751 L
800.6 592.644 L
805.55 620.733 L
810.5 645.311 L
815.45 658.653 L
820.4 680.422 L
825.35 692.36 L
830.3 714.129 L
835.25 713.427 L
840.2 712.724 L
845.15 713.427 L
850.1 741.516 L
855.05 740.813 L
860 756.262 L
864.95 748.538 L
869.9 763.284 L
874.85 745.729 L
879.8 756.964 L
884.75 756.262 L
889.7 747.836 L
894.65 754.156 L
899.6 752.049 L
904.55 766.796 L
909.5 763.987 L
914.45 766.796 L
919.4 760.476 L
924.35 760.476 L
929.3 768.2 L
934.25 759.773 L
939.2 762.582 L
944.15 772.413 L
949.1 766.796 L
954.05 763.284 L
959 774.52 L
963.95 768.2 L
968.9 762.582 L
973.85 771.711 L
978.8 762.582 L
983.75 775.924 L
988.7 774.52 L
993.65 767.498 L
998.6 778.733 L
1003.55 776.627 L
1008.5 778.031 L
1013.45 775.924 L
1018.4 772.413 L
1023.35 767.498 L
1028.3 789.969 L
1033.25 771.711 L
1038.2 775.924 L
1043.15 760.476 L
1048.1 775.222 L
1053.05 774.52 L
1058 764.689 L
1062.95 760.476 L
1067.9 778.733 L
1072.85 778.733 L
1077.8 771.009 L
1082.75 770.307 L
1087.7 772.413 L
1092.65 780.138 L
1097.6 787.862 L
1102.55 775.222 L
1107.5 775.924 L
1112.45 773.818 L
1117.4 765.391 L
1122.35 768.902 L
1127.3 771.711 L
1132.25 771.009 L
1137.2 766.796 L
1142.15 770.307 L
1147.1 775.924 L
1152.05 771.711 L
1157 765.391 L
S
GR
GS
[0.75 0 0 0.75 574.46251 88.43] CT
0 0.447 0.741 RC
N
f-862814258
f
GR
GS
[0.75 0 0 0.75 578.17502 186.91668] CT
0 0.447 0.741 RC
N
f-862814258
f
GR
GS
[0.75 0 0 0.75 581.88748 282.76999] CT
0 0.447 0.741 RC
N
f-862814258
f
GR
GS
[0.75 0 0 0.75 585.59999 351.76331] CT
0 0.447 0.741 RC
N
f-862814258
f
GR
GS
[0.75 0 0 0.75 589.3125 395.47667] CT
0 0.447 0.741 RC
N
f-862814258
f
GR
GS
[0.75 0 0 0.75 593.02501 419.70335] CT
0 0.447 0.741 RC
N
f-862814258
f
GR
GS
[0.75 0 0 0.75 596.73752 446.56337] CT
0 0.447 0.741 RC
N
f-862814258
f
GR
GS
[0.75 0 0 0.75 600.44998 444.98331] CT
0 0.447 0.741 RC
N
f-862814258
f
GR
GS
[0.75 0 0 0.75 604.16249 466.05] CT
0 0.447 0.741 RC
N
f-862814258
f
GR
GS
[0.75 0 0 0.75 607.875 484.48332] CT
0 0.447 0.741 RC
N
f-862814258
f
GR
GS
[0.75 0 0 0.75 611.58751 494.48999] CT
0 0.447 0.741 RC
N
f-862814258
f
GR
GS
[0.75 0 0 0.75 615.30002 510.81668] CT
0 0.447 0.741 RC
N
f-862814258
f
GR
GS
[0.75 0 0 0.75 619.01248 519.76999] CT
0 0.447 0.741 RC
N
f-862814258
f
GR
GS
[0.75 0 0 0.75 622.72499 536.09668] CT
0 0.447 0.741 RC
N
f-862814258
f
GR
GS
[0.75 0 0 0.75 626.4375 535.56998] CT
0 0.447 0.741 RC
N
f-862814258
f
GR
GS
[0.75 0 0 0.75 630.15001 535.04332] CT
0 0.447 0.741 RC
N
f-862814258
f
GR
GS
[0.75 0 0 0.75 633.86252 535.56998] CT
0 0.447 0.741 RC
N
f-862814258
f
GR
GS
[0.75 0 0 0.75 637.57498 556.63667] CT
0 0.447 0.741 RC
N
f-862814258
f
GR
GS
[0.75 0 0 0.75 641.28749 556.10997] CT
0 0.447 0.741 RC
N
f-862814258
f
GR
GS
[0.75 0 0 0.75 645 567.69666] CT
0 0.447 0.741 RC
N
f-862814258
f
GR
GS
[0.75 0 0 0.75 648.71251 561.90334] CT
0 0.447 0.741 RC
N
f-862814258
f
GR
GS
[0.75 0 0 0.75 652.42502 572.96332] CT
0 0.447 0.741 RC
N
f-862814258
f
GR
GS
[0.75 0 0 0.75 656.13748 559.79666] CT
0 0.447 0.741 RC
N
f-862814258
f
GR
GS
[0.75 0 0 0.75 659.84999 568.22331] CT
0 0.447 0.741 RC
N
f-862814258
f
GR
GS
[0.75 0 0 0.75 663.5625 567.69666] CT
0 0.447 0.741 RC
N
f-862814258
f
GR
GS
[0.75 0 0 0.75 667.27501 561.37668] CT
0 0.447 0.741 RC
N
f-862814258
f
GR
GS
[0.75 0 0 0.75 670.98752 566.11668] CT
0 0.447 0.741 RC
N
f-862814258
f
GR
GS
[0.75 0 0 0.75 674.69998 564.53667] CT
0 0.447 0.741 RC
N
f-862814258
f
GR
GS
[0.75 0 0 0.75 678.41249 575.59665] CT
0 0.447 0.741 RC
N
f-862814258
f
GR
GS
[0.75 0 0 0.75 682.125 573.49002] CT
0 0.447 0.741 RC
N
f-862814258
f
GR
GS
[0.75 0 0 0.75 685.83751 575.59665] CT
0 0.447 0.741 RC
N
f-862814258
f
GR
GS
[0.75 0 0 0.75 689.55002 570.85669] CT
0 0.447 0.741 RC
N
f-862814258
f
GR
GS
[0.75 0 0 0.75 693.26248 570.85669] CT
0 0.447 0.741 RC
N
f-862814258
f
GR
GS
[0.75 0 0 0.75 696.97499 576.64996] CT
0 0.447 0.741 RC
N
f-862814258
f
GR
GS
[0.75 0 0 0.75 700.6875 570.32999] CT
0 0.447 0.741 RC
N
f-862814258
f
GR
GS
[0.75 0 0 0.75 704.40001 572.43666] CT
0 0.447 0.741 RC
N
f-862814258
f
GR
GS
[0.75 0 0 0.75 708.11252 579.81] CT
0 0.447 0.741 RC
N
f-862814258
f
GR
GS
[0.75 0 0 0.75 711.82498 575.59665] CT
0 0.447 0.741 RC
N
f-862814258
f
GR
GS
[0.75 0 0 0.75 715.53749 572.96332] CT
0 0.447 0.741 RC
N
f-862814258
f
GR
GS
[0.75 0 0 0.75 719.25 581.38997] CT
0 0.447 0.741 RC
N
f-862814258
f
GR
GS
[0.75 0 0 0.75 722.96251 576.64996] CT
0 0.447 0.741 RC
N
f-862814258
f
GR
GS
[0.75 0 0 0.75 726.67502 572.43666] CT
0 0.447 0.741 RC
N
f-862814258
f
GR
GS
[0.75 0 0 0.75 730.38748 579.28334] CT
0 0.447 0.741 RC
N
f-862814258
f
GR
GS
[0.75 0 0 0.75 734.09999 572.43666] CT
0 0.447 0.741 RC
N
f-862814258
f
GR
GS
[0.75 0 0 0.75 737.8125 582.44333] CT
0 0.447 0.741 RC
N
f-862814258
f
GR
GS
[0.75 0 0 0.75 741.52501 581.38997] CT
0 0.447 0.741 RC
N
f-862814258
f
GR
GS
[0.75 0 0 0.75 745.23752 576.12335] CT
0 0.447 0.741 RC
N
f-862814258
f
GR
GS
[0.75 0 0 0.75 748.94998 584.55] CT
0 0.447 0.741 RC
N
f-862814258
f
GR
GS
[0.75 0 0 0.75 752.66249 582.97003] CT
0 0.447 0.741 RC
N
f-862814258
f
GR
GS
[0.75 0 0 0.75 756.375 584.0233] CT
0 0.447 0.741 RC
N
f-862814258
f
GR
GS
[0.75 0 0 0.75 760.08751 582.44333] CT
0 0.447 0.741 RC
N
f-862814258
f
GR
GS
[0.75 0 0 0.75 763.80002 579.81] CT
0 0.447 0.741 RC
N
f-862814258
f
GR
GS
[0.75 0 0 0.75 767.51248 576.12335] CT
0 0.447 0.741 RC
N
f-862814258
f
GR
GS
[0.75 0 0 0.75 771.22504 592.97665] CT
0 0.447 0.741 RC
N
f-862814258
f
GR
GS
[0.75 0 0 0.75 774.9375 579.28334] CT
0 0.447 0.741 RC
N
f-862814258
f
GR
GS
[0.75 0 0 0.75 778.64996 582.44333] CT
0 0.447 0.741 RC
N
f-862814258
f
GR
GS
[0.75 0 0 0.75 782.36252 570.85669] CT
0 0.447 0.741 RC
N
f-862814258
f
GR
GS
[0.75 0 0 0.75 786.07498 581.91667] CT
0 0.447 0.741 RC
N
f-862814258
f
GR
GS
[0.75 0 0 0.75 789.78754 581.38997] CT
0 0.447 0.741 RC
N
f-862814258
f
GR
GS
[0.75 0 0 0.75 793.5 574.01668] CT
0 0.447 0.741 RC
N
f-862814258
f
GR
GS
[0.75 0 0 0.75 797.21246 570.85669] CT
0 0.447 0.741 RC
N
f-862814258
f
GR
GS
[0.75 0 0 0.75 800.92502 584.55] CT
0 0.447 0.741 RC
N
f-862814258
f
GR
GS
[0.75 0 0 0.75 804.63748 584.55] CT
0 0.447 0.741 RC
N
f-862814258
f
GR
GS
[0.75 0 0 0.75 808.35004 578.75668] CT
0 0.447 0.741 RC
N
f-862814258
f
GR
GS
[0.75 0 0 0.75 812.0625 578.23003] CT
0 0.447 0.741 RC
N
f-862814258
f
GR
GS
[0.75 0 0 0.75 815.77496 579.81] CT
0 0.447 0.741 RC
N
f-862814258
f
GR
GS
[0.75 0 0 0.75 819.48752 585.60336] CT
0 0.447 0.741 RC
N
f-862814258
f
GR
GS
[0.75 0 0 0.75 823.19998 591.39668] CT
0 0.447 0.741 RC
N
f-862814258
f
GR
GS
[0.75 0 0 0.75 826.91254 581.91667] CT
0 0.447 0.741 RC
N
f-862814258
f
GR
GS
[0.75 0 0 0.75 830.625 582.44333] CT
0 0.447 0.741 RC
N
f-862814258
f
GR
GS
[0.75 0 0 0.75 834.33746 580.86336] CT
0 0.447 0.741 RC
N
f-862814258
f
GR
GS
[0.75 0 0 0.75 838.05002 574.54333] CT
0 0.447 0.741 RC
N
f-862814258
f
GR
GS
[0.75 0 0 0.75 841.76248 577.17667] CT
0 0.447 0.741 RC
N
f-862814258
f
GR
GS
[0.75 0 0 0.75 845.47504 579.28334] CT
0 0.447 0.741 RC
N
f-862814258
f
GR
GS
[0.75 0 0 0.75 849.1875 578.75668] CT
0 0.447 0.741 RC
N
f-862814258
f
GR
GS
[0.75 0 0 0.75 852.89996 575.59665] CT
0 0.447 0.741 RC
N
f-862814258
f
GR
GS
[0.75 0 0 0.75 856.61252 578.23003] CT
0 0.447 0.741 RC
N
f-862814258
f
GR
GS
[0.75 0 0 0.75 860.32498 582.44333] CT
0 0.447 0.741 RC
N
f-862814258
f
GR
GS
[0.75 0 0 0.75 864.03754 579.28334] CT
0 0.447 0.741 RC
N
f-862814258
f
GR
GS
[0.75 0 0 0.75 867.75 574.54333] CT
0 0.447 0.741 RC
N
f-862814258
f
GR
GS
[0.75 0 0 0.75 0 0.5] CT
0.851 0.325 0.098 RC
1 LJ
0.667 LW
N
765.95 172.628 M
770.9 292.883 L
775.85 410.506 L
780.8 485.556 L
785.75 530.322 L
790.7 552.267 L
795.65 575.089 L
800.6 590.011 L
805.55 612.833 L
810.5 632.583 L
815.45 648.383 L
820.4 665.061 L
825.35 683.056 L
830.3 694.028 L
835.25 695.344 L
840.2 711.583 L
845.15 723.872 L
850.1 734.406 L
855.05 736.161 L
860 742.306 L
864.95 744.5 L
869.9 748.45 L
874.85 747.133 L
879.8 747.133 L
884.75 746.694 L
889.7 741.428 L
894.65 745.378 L
899.6 755.911 L
904.55 759.422 L
909.5 743.622 L
914.45 754.156 L
919.4 755.033 L
924.35 755.911 L
929.3 747.572 L
934.25 751.522 L
939.2 753.717 L
944.15 751.083 L
949.1 753.278 L
954.05 746.694 L
959 759.861 L
963.95 752.839 L
968.9 759.422 L
973.85 757.667 L
978.8 759.861 L
983.75 755.033 L
988.7 750.644 L
993.65 756.789 L
998.6 753.278 L
1003.55 748.45 L
1008.5 751.961 L
1013.45 750.206 L
1018.4 756.35 L
1023.35 760.3 L
1028.3 751.961 L
1033.25 754.594 L
1038.2 760.3 L
1043.15 761.617 L
1048.1 753.278 L
1053.05 767.761 L
1058 758.106 L
1062.95 758.544 L
1067.9 756.35 L
1072.85 763.372 L
1077.8 755.911 L
1082.75 754.156 L
1087.7 752.4 L
1092.65 748.889 L
1097.6 762.494 L
1102.55 759.861 L
1107.5 751.083 L
1112.45 763.811 L
1117.4 754.594 L
1122.35 751.522 L
1127.3 744.939 L
1132.25 749.328 L
1137.2 755.911 L
1142.15 766.006 L
1147.1 757.228 L
1152.05 755.472 L
1157 748.889 L
S
GR
GS
[0.75 0 0 0.75 574.46251 129.97082] CT
0.851 0.325 0.098 RC
N
f-862814258
f
GR
GS
[0.75 0 0 0.75 578.17502 220.16254] CT
0.851 0.325 0.098 RC
N
f-862814258
f
GR
GS
[0.75 0 0 0.75 581.88748 308.37917] CT
0.851 0.325 0.098 RC
N
f-862814258
f
GR
GS
[0.75 0 0 0.75 585.59999 364.66668] CT
0.851 0.325 0.098 RC
N
f-862814258
f
GR
GS
[0.75 0 0 0.75 589.3125 398.24165] CT
0.851 0.325 0.098 RC
N
f-862814258
f
GR
GS
[0.75 0 0 0.75 593.02501 414.7] CT
0.851 0.325 0.098 RC
N
f-862814258
f
GR
GS
[0.75 0 0 0.75 596.73752 431.81665] CT
0.851 0.325 0.098 RC
N
f-862814258
f
GR
GS
[0.75 0 0 0.75 600.44998 443.00833] CT
0.851 0.325 0.098 RC
N
f-862814258
f
GR
GS
[0.75 0 0 0.75 604.16249 460.12498] CT
0.851 0.325 0.098 RC
N
f-862814258
f
GR
GS
[0.75 0 0 0.75 607.875 474.93753] CT
0.851 0.325 0.098 RC
N
f-862814258
f
GR
GS
[0.75 0 0 0.75 611.58751 486.78748] CT
0.851 0.325 0.098 RC
N
f-862814258
f
GR
GS
[0.75 0 0 0.75 615.30002 499.29587] CT
0.851 0.325 0.098 RC
N
f-862814258
f
GR
GS
[0.75 0 0 0.75 619.01248 512.7917] CT
0.851 0.325 0.098 RC
N
f-862814258
f
GR
GS
[0.75 0 0 0.75 622.72499 521.02083] CT
0.851 0.325 0.098 RC
N
f-862814258
f
GR
GS
[0.75 0 0 0.75 626.4375 522.00836] CT
0.851 0.325 0.098 RC
N
f-862814258
f
GR
GS
[0.75 0 0 0.75 630.15001 534.18748] CT
0.851 0.325 0.098 RC
N
f-862814258
f
GR
GS
[0.75 0 0 0.75 633.86252 543.40414] CT
0.851 0.325 0.098 RC
N
f-862814258
f
GR
GS
[0.75 0 0 0.75 637.57498 551.30418] CT
0.851 0.325 0.098 RC
N
f-862814258
f
GR
GS
[0.75 0 0 0.75 641.28749 552.62085] CT
0.851 0.325 0.098 RC
N
f-862814258
f
GR
GS
[0.75 0 0 0.75 645 557.2292] CT
0.851 0.325 0.098 RC
N
f-862814258
f
GR
GS
[0.75 0 0 0.75 648.71251 558.875] CT
0.851 0.325 0.098 RC
N
f-862814258
f
GR
GS
[0.75 0 0 0.75 652.42502 561.83751] CT
0.851 0.325 0.098 RC
N
f-862814258
f
GR
GS
[0.75 0 0 0.75 656.13748 560.84998] CT
0.851 0.325 0.098 RC
N
f-862814258
f
GR
GS
[0.75 0 0 0.75 659.84999 560.84998] CT
0.851 0.325 0.098 RC
N
f-862814258
f
GR
GS
[0.75 0 0 0.75 663.5625 560.52084] CT
0.851 0.325 0.098 RC
N
f-862814258
f
GR
GS
[0.75 0 0 0.75 667.27501 556.5708] CT
0.851 0.325 0.098 RC
N
f-862814258
f
GR
GS
[0.75 0 0 0.75 670.98752 559.53336] CT
0.851 0.325 0.098 RC
N
f-862814258
f
GR
GS
[0.75 0 0 0.75 674.69998 567.4333] CT
0.851 0.325 0.098 RC
N
f-862814258
f
GR
GS
[0.75 0 0 0.75 678.41249 570.06664] CT
0.851 0.325 0.098 RC
N
f-862814258
f
GR
GS
[0.75 0 0 0.75 682.125 558.21664] CT
0.851 0.325 0.098 RC
N
f-862814258
f
GR
GS
[0.75 0 0 0.75 685.83751 566.11668] CT
0.851 0.325 0.098 RC
N
f-862814258
f
GR
GS
[0.75 0 0 0.75 689.55002 566.77499] CT
0.851 0.325 0.098 RC
N
f-862814258
f
GR
GS
[0.75 0 0 0.75 693.26248 567.4333] CT
0.851 0.325 0.098 RC
N
f-862814258
f
GR
GS
[0.75 0 0 0.75 696.97499 561.17915] CT
0.851 0.325 0.098 RC
N
f-862814258
f
GR
GS
[0.75 0 0 0.75 700.6875 564.14166] CT
0.851 0.325 0.098 RC
N
f-862814258
f
GR
GS
[0.75 0 0 0.75 704.40001 565.78751] CT
0.851 0.325 0.098 RC
N
f-862814258
f
GR
GS
[0.75 0 0 0.75 708.11252 563.81253] CT
0.851 0.325 0.098 RC
N
f-862814258
f
GR
GS
[0.75 0 0 0.75 711.82498 565.45833] CT
0.851 0.325 0.098 RC
N
f-862814258
f
GR
GS
[0.75 0 0 0.75 715.53749 560.52084] CT
0.851 0.325 0.098 RC
N
f-862814258
f
GR
GS
[0.75 0 0 0.75 719.25 570.39586] CT
0.851 0.325 0.098 RC
N
f-862814258
f
GR
GS
[0.75 0 0 0.75 722.96251 565.12915] CT
0.851 0.325 0.098 RC
N
f-862814258
f
GR
GS
[0.75 0 0 0.75 726.67502 570.06664] CT
0.851 0.325 0.098 RC
N
f-862814258
f
GR
GS
[0.75 0 0 0.75 730.38748 568.75002] CT
0.851 0.325 0.098 RC
N
f-862814258
f
GR
GS
[0.75 0 0 0.75 734.09999 570.39586] CT
0.851 0.325 0.098 RC
N
f-862814258
f
GR
GS
[0.75 0 0 0.75 737.8125 566.77499] CT
0.851 0.325 0.098 RC
N
f-862814258
f
GR
GS
[0.75 0 0 0.75 741.52501 563.48331] CT
0.851 0.325 0.098 RC
N
f-862814258
f
GR
GS
[0.75 0 0 0.75 745.23752 568.09166] CT
0.851 0.325 0.098 RC
N
f-862814258
f
GR
GS
[0.75 0 0 0.75 748.94998 565.45833] CT
0.851 0.325 0.098 RC
N
f-862814258
f
GR
GS
[0.75 0 0 0.75 752.66249 561.83751] CT
0.851 0.325 0.098 RC
N
f-862814258
f
GR
GS
[0.75 0 0 0.75 756.375 564.47084] CT
0.851 0.325 0.098 RC
N
f-862814258
f
GR
GS
[0.75 0 0 0.75 760.08751 563.15417] CT
0.851 0.325 0.098 RC
N
f-862814258
f
GR
GS
[0.75 0 0 0.75 763.80002 567.76248] CT
0.851 0.325 0.098 RC
N
f-862814258
f
GR
GS
[0.75 0 0 0.75 767.51248 570.72504] CT
0.851 0.325 0.098 RC
N
f-862814258
f
GR
GS
[0.75 0 0 0.75 771.22504 564.47084] CT
0.851 0.325 0.098 RC
N
f-862814258
f
GR
GS
[0.75 0 0 0.75 774.9375 566.44586] CT
0.851 0.325 0.098 RC
N
f-862814258
f
GR
GS
[0.75 0 0 0.75 778.64996 570.72504] CT
0.851 0.325 0.098 RC
N
f-862814258
f
GR
GS
[0.75 0 0 0.75 782.36252 571.71248] CT
0.851 0.325 0.098 RC
N
f-862814258
f
GR
GS
[0.75 0 0 0.75 786.07498 565.45833] CT
0.851 0.325 0.098 RC
N
f-862814258
f
GR
GS
[0.75 0 0 0.75 789.78754 576.32083] CT
0.851 0.325 0.098 RC
N
f-862814258
f
GR
GS
[0.75 0 0 0.75 793.5 569.07915] CT
0.851 0.325 0.098 RC
N
f-862814258
f
GR
GS
[0.75 0 0 0.75 797.21246 569.40833] CT
0.851 0.325 0.098 RC
N
f-862814258
f
GR
GS
[0.75 0 0 0.75 800.92502 567.76248] CT
0.851 0.325 0.098 RC
N
f-862814258
f
GR
GS
[0.75 0 0 0.75 804.63748 573.02919] CT
0.851 0.325 0.098 RC
N
f-862814258
f
GR
GS
[0.75 0 0 0.75 808.35004 567.4333] CT
0.851 0.325 0.098 RC
N
f-862814258
f
GR
GS
[0.75 0 0 0.75 812.0625 566.11668] CT
0.851 0.325 0.098 RC
N
f-862814258
f
GR
GS
[0.75 0 0 0.75 815.77496 564.80002] CT
0.851 0.325 0.098 RC
N
f-862814258
f
GR
GS
[0.75 0 0 0.75 819.48752 562.16669] CT
0.851 0.325 0.098 RC
N
f-862814258
f
GR
GS
[0.75 0 0 0.75 823.19998 572.37083] CT
0.851 0.325 0.098 RC
N
f-862814258
f
GR
GS
[0.75 0 0 0.75 826.91254 570.39586] CT
0.851 0.325 0.098 RC
N
f-862814258
f
GR
GS
[0.75 0 0 0.75 830.625 563.81253] CT
0.851 0.325 0.098 RC
N
f-862814258
f
GR
GS
[0.75 0 0 0.75 834.33746 573.35832] CT
0.851 0.325 0.098 RC
N
f-862814258
f
GR
GS
[0.75 0 0 0.75 838.05002 566.44586] CT
0.851 0.325 0.098 RC
N
f-862814258
f
GR
GS
[0.75 0 0 0.75 841.76248 564.14166] CT
0.851 0.325 0.098 RC
N
f-862814258
f
GR
GS
[0.75 0 0 0.75 845.47504 559.20418] CT
0.851 0.325 0.098 RC
N
f-862814258
f
GR
GS
[0.75 0 0 0.75 849.1875 562.49582] CT
0.851 0.325 0.098 RC
N
f-862814258
f
GR
GS
[0.75 0 0 0.75 852.89996 567.4333] CT
0.851 0.325 0.098 RC
N
f-862814258
f
GR
GS
[0.75 0 0 0.75 856.61252 575.00417] CT
0.851 0.325 0.098 RC
N
f-862814258
f
GR
GS
[0.75 0 0 0.75 860.32498 568.42084] CT
0.851 0.325 0.098 RC
N
f-862814258
f
GR
GS
[0.75 0 0 0.75 864.03754 567.10417] CT
0.851 0.325 0.098 RC
N
f-862814258
f
GR
GS
[0.75 0 0 0.75 867.75 562.16669] CT
0.851 0.325 0.098 RC
N
f-862814258
f
GR
GS
[0.75 0 0 0.75 0 0.5] CT
1 GC
N
1146 118 M
1146 84 L
1067 84 L
1067 118 L
cp
f
GR
GS
[0.75 0 0 0.75 835.5 70.52174] CT
/Helvetica 12 F
GS
[1 0 0 1 0 0] CT
0 4.5 moveto 
1 -1 scale
(train) t 
GR
GR
GS
[0.75 0 0 0.75 0 0.5] CT
0 0.447 0.741 RC
1 LJ
0.667 LW
N
1071 93.362 M
1111 93.362 L
S
GR
GS
[0.75 0 0 0.75 818.25 70.52174] CT
0 0.447 0.741 RC
N
f-862814258
f
GR
GS
[0.75 0 0 0.75 835.5 81.97826] CT
/Helvetica 12 F
GS
[1 0 0 1 0 0] CT
0 4.5 moveto 
1 -1 scale
(val) t 
GR
GR
GS
[0.75 0 0 0.75 0 0.5] CT
0.851 0.325 0.098 RC
1 LJ
0.667 LW
N
1071 108.638 M
1111 108.638 L
S
GR
GS
[0.75 0 0 0.75 818.25 81.97826] CT
0.851 0.325 0.098 RC
N
f-862814258
f
GR
GS
[0.75 0 0 0.75 0 0.5] CT
0.149 GC
10.0 ML
0.667 LW
N
1067 118 M
1067 84 L
1146 84 L
1146 118 L
cp
S
GR
GS
[0.75 0 0 0.75 0 0.5] CT
1 GC
N
1282 863 M
1677 863 L
1677 73 L
1282 73 L
cp
f
GR
GS
[0.75 0 0 0.75 0 0.5] CT
0.873 GC
1 LJ
0.667 LW
N
1282 863 M
1282 73 L
S
GR
GS
[0.75 0 0 0.75 0 0.5] CT
0.873 GC
1 LJ
0.667 LW
N
1331.375 863 M
1331.375 73 L
S
GR
GS
[0.75 0 0 0.75 0 0.5] CT
0.873 GC
1 LJ
0.667 LW
N
1380.75 863 M
1380.75 73 L
S
GR
GS
[0.75 0 0 0.75 0 0.5] CT
0.873 GC
1 LJ
0.667 LW
N
1430.125 863 M
1430.125 73 L
S
GR
GS
[0.75 0 0 0.75 0 0.5] CT
0.873 GC
1 LJ
0.667 LW
N
1479.5 863 M
1479.5 73 L
S
GR
GS
[0.75 0 0 0.75 0 0.5] CT
0.873 GC
1 LJ
0.667 LW
N
1528.875 863 M
1528.875 73 L
S
GR
GS
[0.75 0 0 0.75 0 0.5] CT
0.873 GC
1 LJ
0.667 LW
N
1578.25 863 M
1578.25 73 L
S
GR
GS
[0.75 0 0 0.75 0 0.5] CT
0.873 GC
1 LJ
0.667 LW
N
1627.625 863 M
1627.625 73 L
S
GR
GS
[0.75 0 0 0.75 0 0.5] CT
0.873 GC
1 LJ
0.667 LW
N
1677 863 M
1677 73 L
S
GR
GS
[0.75 0 0 0.75 0 0.5] CT
0.873 GC
1 LJ
0.667 LW
N
1677 863 M
1282 863 L
S
GR
GS
[0.75 0 0 0.75 0 0.5] CT
0.873 GC
1 LJ
0.667 LW
N
1677 784 M
1282 784 L
S
GR
GS
[0.75 0 0 0.75 0 0.5] CT
0.873 GC
1 LJ
0.667 LW
N
1677 705 M
1282 705 L
S
GR
GS
[0.75 0 0 0.75 0 0.5] CT
0.873 GC
1 LJ
0.667 LW
N
1677 626 M
1282 626 L
S
GR
GS
[0.75 0 0 0.75 0 0.5] CT
0.873 GC
1 LJ
0.667 LW
N
1677 547 M
1282 547 L
S
GR
GS
[0.75 0 0 0.75 0 0.5] CT
0.873 GC
1 LJ
0.667 LW
N
1677 468 M
1282 468 L
S
GR
GS
[0.75 0 0 0.75 0 0.5] CT
0.873 GC
1 LJ
0.667 LW
N
1677 389 M
1282 389 L
S
GR
GS
[0.75 0 0 0.75 0 0.5] CT
0.873 GC
1 LJ
0.667 LW
N
1677 310 M
1282 310 L
S
GR
GS
[0.75 0 0 0.75 0 0.5] CT
0.873 GC
1 LJ
0.667 LW
N
1677 231 M
1282 231 L
S
GR
GS
[0.75 0 0 0.75 0 0.5] CT
0.873 GC
1 LJ
0.667 LW
N
1677 152 M
1282 152 L
S
GR
GS
[0.75 0 0 0.75 0 0.5] CT
0.873 GC
1 LJ
0.667 LW
N
1677 73 M
1282 73 L
S
GR
GS
[0.75 0 0 0.75 0 0.5] CT
0.149 GC
2 setlinecap
1 LJ
0.667 LW
N
1282 863 M
1677 863 L
S
GR
GS
[0.75 0 0 0.75 0 0.5] CT
0.149 GC
2 setlinecap
1 LJ
0.667 LW
N
1282 73 M
1677 73 L
S
GR
GS
[0.75 0 0 0.75 0 0.5] CT
0.149 GC
2 setlinecap
1 LJ
0.667 LW
N
1282 863 M
1282 855.1 L
S
GR
GS
[0.75 0 0 0.75 0 0.5] CT
0.149 GC
2 setlinecap
1 LJ
0.667 LW
N
1331.375 863 M
1331.375 855.1 L
S
GR
GS
[0.75 0 0 0.75 0 0.5] CT
0.149 GC
2 setlinecap
1 LJ
0.667 LW
N
1380.75 863 M
1380.75 855.1 L
S
GR
GS
[0.75 0 0 0.75 0 0.5] CT
0.149 GC
2 setlinecap
1 LJ
0.667 LW
N
1430.125 863 M
1430.125 855.1 L
S
GR
GS
[0.75 0 0 0.75 0 0.5] CT
0.149 GC
2 setlinecap
1 LJ
0.667 LW
N
1479.5 863 M
1479.5 855.1 L
S
GR
GS
[0.75 0 0 0.75 0 0.5] CT
0.149 GC
2 setlinecap
1 LJ
0.667 LW
N
1528.875 863 M
1528.875 855.1 L
S
GR
GS
[0.75 0 0 0.75 0 0.5] CT
0.149 GC
2 setlinecap
1 LJ
0.667 LW
N
1578.25 863 M
1578.25 855.1 L
S
GR
GS
[0.75 0 0 0.75 0 0.5] CT
0.149 GC
2 setlinecap
1 LJ
0.667 LW
N
1627.625 863 M
1627.625 855.1 L
S
GR
GS
[0.75 0 0 0.75 0 0.5] CT
0.149 GC
2 setlinecap
1 LJ
0.667 LW
N
1677 863 M
1677 855.1 L
S
GR
GS
[0.75 0 0 0.75 0 0.5] CT
0.149 GC
2 setlinecap
1 LJ
0.667 LW
N
1282 73 M
1282 80.9 L
S
GR
GS
[0.75 0 0 0.75 0 0.5] CT
0.149 GC
2 setlinecap
1 LJ
0.667 LW
N
1331.375 73 M
1331.375 80.9 L
S
GR
GS
[0.75 0 0 0.75 0 0.5] CT
0.149 GC
2 setlinecap
1 LJ
0.667 LW
N
1380.75 73 M
1380.75 80.9 L
S
GR
GS
[0.75 0 0 0.75 0 0.5] CT
0.149 GC
2 setlinecap
1 LJ
0.667 LW
N
1430.125 73 M
1430.125 80.9 L
S
GR
GS
[0.75 0 0 0.75 0 0.5] CT
0.149 GC
2 setlinecap
1 LJ
0.667 LW
N
1479.5 73 M
1479.5 80.9 L
S
GR
GS
[0.75 0 0 0.75 0 0.5] CT
0.149 GC
2 setlinecap
1 LJ
0.667 LW
N
1528.875 73 M
1528.875 80.9 L
S
GR
GS
[0.75 0 0 0.75 0 0.5] CT
0.149 GC
2 setlinecap
1 LJ
0.667 LW
N
1578.25 73 M
1578.25 80.9 L
S
GR
GS
[0.75 0 0 0.75 0 0.5] CT
0.149 GC
2 setlinecap
1 LJ
0.667 LW
N
1627.625 73 M
1627.625 80.9 L
S
GR
GS
[0.75 0 0 0.75 0 0.5] CT
0.149 GC
2 setlinecap
1 LJ
0.667 LW
N
1677 73 M
1677 80.9 L
S
GR
GS
[0.75 0 0 0.75 961.5 651.74998] CT
0.149 GC
/Helvetica 13.333 F
GS
[1 0 0 1 0 0] CT
-4.5 13 moveto 
1 -1 scale
(0) t 
GR
GR
GS
[0.75 0 0 0.75 998.53125 651.74998] CT
0.149 GC
/Helvetica 13.333 F
GS
[1 0 0 1 0 0] CT
-8.5 13 moveto 
1 -1 scale
(10) t 
GR
GR
GS
[0.75 0 0 0.75 1035.5625 651.74998] CT
0.149 GC
/Helvetica 13.333 F
GS
[1 0 0 1 0 0] CT
-8.5 13 moveto 
1 -1 scale
(20) t 
GR
GR
GS
[0.75 0 0 0.75 1072.59375 651.74998] CT
0.149 GC
/Helvetica 13.333 F
GS
[1 0 0 1 0 0] CT
-8.5 13 moveto 
1 -1 scale
(30) t 
GR
GR
GS
[0.75 0 0 0.75 1109.625 651.74998] CT
0.149 GC
/Helvetica 13.333 F
GS
[1 0 0 1 0 0] CT
-8.5 13 moveto 
1 -1 scale
(40) t 
GR
GR
GS
[0.75 0 0 0.75 1146.65625 651.74998] CT
0.149 GC
/Helvetica 13.333 F
GS
[1 0 0 1 0 0] CT
-8.5 13 moveto 
1 -1 scale
(50) t 
GR
GR
GS
[0.75 0 0 0.75 1183.6875 651.74998] CT
0.149 GC
/Helvetica 13.333 F
GS
[1 0 0 1 0 0] CT
-8.5 13 moveto 
1 -1 scale
(60) t 
GR
GR
GS
[0.75 0 0 0.75 1220.71875 651.74998] CT
0.149 GC
/Helvetica 13.333 F
GS
[1 0 0 1 0 0] CT
-8.5 13 moveto 
1 -1 scale
(70) t 
GR
GR
GS
[0.75 0 0 0.75 1257.75 651.74998] CT
0.149 GC
/Helvetica 13.333 F
GS
[1 0 0 1 0 0] CT
-8.5 13 moveto 
1 -1 scale
(80) t 
GR
GR
GS
[0.75 0 0 0.75 1109.62518 665.50002] CT
0.149 GC
/Helvetica 14.667 F
GS
[1 0 0 1 0 0] CT
-22.5 14 moveto 
1 -1 scale
(epoch) t 
GR
GR
GS
[0.75 0 0 0.75 0 0.5] CT
0.149 GC
2 setlinecap
1 LJ
0.667 LW
N
1282 863 M
1282 73 L
S
GR
GS
[0.75 0 0 0.75 0 0.5] CT
0.149 GC
2 setlinecap
1 LJ
0.667 LW
N
1677 863 M
1677 73 L
S
GR
GS
[0.75 0 0 0.75 0 0.5] CT
0.149 GC
2 setlinecap
1 LJ
0.667 LW
N
1282 863 M
1289.9 863 L
S
GR
GS
[0.75 0 0 0.75 0 0.5] CT
0.149 GC
2 setlinecap
1 LJ
0.667 LW
N
1282 784 M
1289.9 784 L
S
GR
GS
[0.75 0 0 0.75 0 0.5] CT
0.149 GC
2 setlinecap
1 LJ
0.667 LW
N
1282 705 M
1289.9 705 L
S
GR
GS
[0.75 0 0 0.75 0 0.5] CT
0.149 GC
2 setlinecap
1 LJ
0.667 LW
N
1282 626 M
1289.9 626 L
S
GR
GS
[0.75 0 0 0.75 0 0.5] CT
0.149 GC
2 setlinecap
1 LJ
0.667 LW
N
1282 547 M
1289.9 547 L
S
GR
GS
[0.75 0 0 0.75 0 0.5] CT
0.149 GC
2 setlinecap
1 LJ
0.667 LW
N
1282 468 M
1289.9 468 L
S
GR
GS
[0.75 0 0 0.75 0 0.5] CT
0.149 GC
2 setlinecap
1 LJ
0.667 LW
N
1282 389 M
1289.9 389 L
S
GR
GS
[0.75 0 0 0.75 0 0.5] CT
0.149 GC
2 setlinecap
1 LJ
0.667 LW
N
1282 310 M
1289.9 310 L
S
GR
GS
[0.75 0 0 0.75 0 0.5] CT
0.149 GC
2 setlinecap
1 LJ
0.667 LW
N
1282 231 M
1289.9 231 L
S
GR
GS
[0.75 0 0 0.75 0 0.5] CT
0.149 GC
2 setlinecap
1 LJ
0.667 LW
N
1282 152 M
1289.9 152 L
S
GR
GS
[0.75 0 0 0.75 0 0.5] CT
0.149 GC
2 setlinecap
1 LJ
0.667 LW
N
1282 73 M
1289.9 73 L
S
GR
GS
[0.75 0 0 0.75 0 0.5] CT
0.149 GC
2 setlinecap
1 LJ
0.667 LW
N
1677 863 M
1669.1 863 L
S
GR
GS
[0.75 0 0 0.75 0 0.5] CT
0.149 GC
2 setlinecap
1 LJ
0.667 LW
N
1677 784 M
1669.1 784 L
S
GR
GS
[0.75 0 0 0.75 0 0.5] CT
0.149 GC
2 setlinecap
1 LJ
0.667 LW
N
1677 705 M
1669.1 705 L
S
GR
GS
[0.75 0 0 0.75 0 0.5] CT
0.149 GC
2 setlinecap
1 LJ
0.667 LW
N
1677 626 M
1669.1 626 L
S
GR
GS
[0.75 0 0 0.75 0 0.5] CT
0.149 GC
2 setlinecap
1 LJ
0.667 LW
N
1677 547 M
1669.1 547 L
S
GR
GS
[0.75 0 0 0.75 0 0.5] CT
0.149 GC
2 setlinecap
1 LJ
0.667 LW
N
1677 468 M
1669.1 468 L
S
GR
GS
[0.75 0 0 0.75 0 0.5] CT
0.149 GC
2 setlinecap
1 LJ
0.667 LW
N
1677 389 M
1669.1 389 L
S
GR
GS
[0.75 0 0 0.75 0 0.5] CT
0.149 GC
2 setlinecap
1 LJ
0.667 LW
N
1677 310 M
1669.1 310 L
S
GR
GS
[0.75 0 0 0.75 0 0.5] CT
0.149 GC
2 setlinecap
1 LJ
0.667 LW
N
1677 231 M
1669.1 231 L
S
GR
GS
[0.75 0 0 0.75 0 0.5] CT
0.149 GC
2 setlinecap
1 LJ
0.667 LW
N
1677 152 M
1669.1 152 L
S
GR
GS
[0.75 0 0 0.75 0 0.5] CT
0.149 GC
2 setlinecap
1 LJ
0.667 LW
N
1677 73 M
1669.1 73 L
S
GR
GS
[0.75 0 0 0.75 957.49997 647.75] CT
0.149 GC
/Helvetica 13.333 F
GS
[1 0 0 1 0 0] CT
-14 4.5 moveto 
1 -1 scale
(-1) t 
GR
GR
GS
[0.75 0 0 0.75 957.49997 588.5] CT
0.149 GC
/Helvetica 13.333 F
GS
[1 0 0 1 0 0] CT
-26 4.5 moveto 
1 -1 scale
(-0.8) t 
GR
GR
GS
[0.75 0 0 0.75 957.49997 529.25] CT
0.149 GC
/Helvetica 13.333 F
GS
[1 0 0 1 0 0] CT
-26 4.5 moveto 
1 -1 scale
(-0.6) t 
GR
GR
GS
[0.75 0 0 0.75 957.49997 470] CT
0.149 GC
/Helvetica 13.333 F
GS
[1 0 0 1 0 0] CT
-26 4.5 moveto 
1 -1 scale
(-0.4) t 
GR
GR
GS
[0.75 0 0 0.75 957.49997 410.75] CT
0.149 GC
/Helvetica 13.333 F
GS
[1 0 0 1 0 0] CT
-26 4.5 moveto 
1 -1 scale
(-0.2) t 
GR
GR
GS
[0.75 0 0 0.75 957.49997 351.5] CT
0.149 GC
/Helvetica 13.333 F
GS
[1 0 0 1 0 0] CT
-9 4.5 moveto 
1 -1 scale
(0) t 
GR
GR
GS
[0.75 0 0 0.75 957.49997 292.25] CT
0.149 GC
/Helvetica 13.333 F
GS
[1 0 0 1 0 0] CT
-22 4.5 moveto 
1 -1 scale
(0.2) t 
GR
GR
GS
[0.75 0 0 0.75 957.49997 233] CT
0.149 GC
/Helvetica 13.333 F
GS
[1 0 0 1 0 0] CT
-22 4.5 moveto 
1 -1 scale
(0.4) t 
GR
GR
GS
[0.75 0 0 0.75 957.49997 173.74999] CT
0.149 GC
/Helvetica 13.333 F
GS
[1 0 0 1 0 0] CT
-22 4.5 moveto 
1 -1 scale
(0.6) t 
GR
GR
GS
[0.75 0 0 0.75 957.49997 114.5] CT
0.149 GC
/Helvetica 13.333 F
GS
[1 0 0 1 0 0] CT
-22 4.5 moveto 
1 -1 scale
(0.8) t 
GR
GR
GS
[0.75 0 0 0.75 957.49997 55.25] CT
0.149 GC
/Helvetica 13.333 F
GS
[1 0 0 1 0 0] CT
-9 4.5 moveto 
1 -1 scale
(1) t 
GR
GR
GS
[0.75 0 0 0.75 1109.6261 53.18749] CT
/Helvetica-Bold 14.667 F
GS
[1 0 0 1 0 0] CT
-31.5 -4 moveto 
1 -1 scale
(top5err) t 
GR
GR
GS
[0.75 0 0 0.75 0 0.5] CT
0 0.447 0.741 RC
1 LJ
0.667 LW
N
1286.938 468 M
1291.875 468 L
1296.813 468 L
1301.75 468 L
1306.688 468 L
1311.625 468 L
1316.563 468 L
1321.5 468 L
1326.438 468 L
1331.375 468 L
1336.313 468 L
1341.25 468 L
1346.188 468 L
1351.125 468 L
1356.063 468 L
1361 468 L
1365.938 468 L
1370.875 468 L
1375.813 468 L
1380.75 468 L
1385.688 468 L
1390.625 468 L
1395.563 468 L
1400.5 468 L
1405.438 468 L
1410.375 468 L
1415.313 468 L
1420.25 468 L
1425.188 468 L
1430.125 468 L
1435.063 468 L
1440 468 L
1444.938 468 L
1449.875 468 L
1454.813 468 L
1459.75 468 L
1464.688 468 L
1469.625 468 L
1474.563 468 L
1479.5 468 L
1484.438 468 L
1489.375 468 L
1494.313 468 L
1499.25 468 L
1504.188 468 L
1509.125 468 L
1514.063 468 L
1519 468 L
1523.938 468 L
1528.875 468 L
1533.813 468 L
1538.75 468 L
1543.688 468 L
1548.625 468 L
1553.563 468 L
1558.5 468 L
1563.438 468 L
1568.375 468 L
1573.313 468 L
1578.25 468 L
1583.188 468 L
1588.125 468 L
1593.063 468 L
1598 468 L
1602.938 468 L
1607.875 468 L
1612.813 468 L
1617.75 468 L
1622.688 468 L
1627.625 468 L
1632.563 468 L
1637.5 468 L
1642.438 468 L
1647.375 468 L
1652.313 468 L
1657.25 468 L
1662.188 468 L
1667.125 468 L
1672.063 468 L
1677 468 L
S
GR
GS
[0.75 0 0 0.75 965.20313 351.5] CT
0 0.447 0.741 RC
N
f-862814258
f
GR
GS
[0.75 0 0 0.75 968.90625 351.5] CT
0 0.447 0.741 RC
N
f-862814258
f
GR
GS
[0.75 0 0 0.75 972.60938 351.5] CT
0 0.447 0.741 RC
N
f-862814258
f
GR
GS
[0.75 0 0 0.75 976.3125 351.5] CT
0 0.447 0.741 RC
N
f-862814258
f
GR
GS
[0.75 0 0 0.75 980.01563 351.5] CT
0 0.447 0.741 RC
N
f-862814258
f
GR
GS
[0.75 0 0 0.75 983.71875 351.5] CT
0 0.447 0.741 RC
N
f-862814258
f
GR
GS
[0.75 0 0 0.75 987.42188 351.5] CT
0 0.447 0.741 RC
N
f-862814258
f
GR
GS
[0.75 0 0 0.75 991.125 351.5] CT
0 0.447 0.741 RC
N
f-862814258
f
GR
GS
[0.75 0 0 0.75 994.82813 351.5] CT
0 0.447 0.741 RC
N
f-862814258
f
GR
GS
[0.75 0 0 0.75 998.53125 351.5] CT
0 0.447 0.741 RC
N
f-862814258
f
GR
GS
[0.75 0 0 0.75 1002.23438 351.5] CT
0 0.447 0.741 RC
N
f-862814258
f
GR
GS
[0.75 0 0 0.75 1005.9375 351.5] CT
0 0.447 0.741 RC
N
f-862814258
f
GR
GS
[0.75 0 0 0.75 1009.64063 351.5] CT
0 0.447 0.741 RC
N
f-862814258
f
GR
GS
[0.75 0 0 0.75 1013.34375 351.5] CT
0 0.447 0.741 RC
N
f-862814258
f
GR
GS
[0.75 0 0 0.75 1017.04688 351.5] CT
0 0.447 0.741 RC
N
f-862814258
f
GR
GS
[0.75 0 0 0.75 1020.75 351.5] CT
0 0.447 0.741 RC
N
f-862814258
f
GR
GS
[0.75 0 0 0.75 1024.45313 351.5] CT
0 0.447 0.741 RC
N
f-862814258
f
GR
GS
[0.75 0 0 0.75 1028.15625 351.5] CT
0 0.447 0.741 RC
N
f-862814258
f
GR
GS
[0.75 0 0 0.75 1031.85938 351.5] CT
0 0.447 0.741 RC
N
f-862814258
f
GR
GS
[0.75 0 0 0.75 1035.5625 351.5] CT
0 0.447 0.741 RC
N
f-862814258
f
GR
GS
[0.75 0 0 0.75 1039.26563 351.5] CT
0 0.447 0.741 RC
N
f-862814258
f
GR
GS
[0.75 0 0 0.75 1042.96875 351.5] CT
0 0.447 0.741 RC
N
f-862814258
f
GR
GS
[0.75 0 0 0.75 1046.67188 351.5] CT
0 0.447 0.741 RC
N
f-862814258
f
GR
GS
[0.75 0 0 0.75 1050.375 351.5] CT
0 0.447 0.741 RC
N
f-862814258
f
GR
GS
[0.75 0 0 0.75 1054.07813 351.5] CT
0 0.447 0.741 RC
N
f-862814258
f
GR
GS
[0.75 0 0 0.75 1057.78125 351.5] CT
0 0.447 0.741 RC
N
f-862814258
f
GR
GS
[0.75 0 0 0.75 1061.48438 351.5] CT
0 0.447 0.741 RC
N
f-862814258
f
GR
GS
[0.75 0 0 0.75 1065.1875 351.5] CT
0 0.447 0.741 RC
N
f-862814258
f
GR
GS
[0.75 0 0 0.75 1068.89063 351.5] CT
0 0.447 0.741 RC
N
f-862814258
f
GR
GS
[0.75 0 0 0.75 1072.59375 351.5] CT
0 0.447 0.741 RC
N
f-862814258
f
GR
GS
[0.75 0 0 0.75 1076.29688 351.5] CT
0 0.447 0.741 RC
N
f-862814258
f
GR
GS
[0.75 0 0 0.75 1080 351.5] CT
0 0.447 0.741 RC
N
f-862814258
f
GR
GS
[0.75 0 0 0.75 1083.70313 351.5] CT
0 0.447 0.741 RC
N
f-862814258
f
GR
GS
[0.75 0 0 0.75 1087.40625 351.5] CT
0 0.447 0.741 RC
N
f-862814258
f
GR
GS
[0.75 0 0 0.75 1091.10938 351.5] CT
0 0.447 0.741 RC
N
f-862814258
f
GR
GS
[0.75 0 0 0.75 1094.8125 351.5] CT
0 0.447 0.741 RC
N
f-862814258
f
GR
GS
[0.75 0 0 0.75 1098.51563 351.5] CT
0 0.447 0.741 RC
N
f-862814258
f
GR
GS
[0.75 0 0 0.75 1102.21875 351.5] CT
0 0.447 0.741 RC
N
f-862814258
f
GR
GS
[0.75 0 0 0.75 1105.92188 351.5] CT
0 0.447 0.741 RC
N
f-862814258
f
GR
GS
[0.75 0 0 0.75 1109.625 351.5] CT
0 0.447 0.741 RC
N
f-862814258
f
GR
GS
[0.75 0 0 0.75 1113.32813 351.5] CT
0 0.447 0.741 RC
N
f-862814258
f
GR
GS
[0.75 0 0 0.75 1117.03125 351.5] CT
0 0.447 0.741 RC
N
f-862814258
f
GR
GS
[0.75 0 0 0.75 1120.73438 351.5] CT
0 0.447 0.741 RC
N
f-862814258
f
GR
GS
[0.75 0 0 0.75 1124.4375 351.5] CT
0 0.447 0.741 RC
N
f-862814258
f
GR
GS
[0.75 0 0 0.75 1128.14063 351.5] CT
0 0.447 0.741 RC
N
f-862814258
f
GR
GS
[0.75 0 0 0.75 1131.84375 351.5] CT
0 0.447 0.741 RC
N
f-862814258
f
GR
GS
[0.75 0 0 0.75 1135.54688 351.5] CT
0 0.447 0.741 RC
N
f-862814258
f
GR
GS
[0.75 0 0 0.75 1139.25 351.5] CT
0 0.447 0.741 RC
N
f-862814258
f
GR
GS
[0.75 0 0 0.75 1142.95313 351.5] CT
0 0.447 0.741 RC
N
f-862814258
f
GR
GS
[0.75 0 0 0.75 1146.65625 351.5] CT
0 0.447 0.741 RC
N
f-862814258
f
GR
GS
[0.75 0 0 0.75 1150.35938 351.5] CT
0 0.447 0.741 RC
N
f-862814258
f
GR
GS
[0.75 0 0 0.75 1154.0625 351.5] CT
0 0.447 0.741 RC
N
f-862814258
f
GR
GS
[0.75 0 0 0.75 1157.76563 351.5] CT
0 0.447 0.741 RC
N
f-862814258
f
GR
GS
[0.75 0 0 0.75 1161.46875 351.5] CT
0 0.447 0.741 RC
N
f-862814258
f
GR
GS
[0.75 0 0 0.75 1165.17188 351.5] CT
0 0.447 0.741 RC
N
f-862814258
f
GR
GS
[0.75 0 0 0.75 1168.875 351.5] CT
0 0.447 0.741 RC
N
f-862814258
f
GR
GS
[0.75 0 0 0.75 1172.57813 351.5] CT
0 0.447 0.741 RC
N
f-862814258
f
GR
GS
[0.75 0 0 0.75 1176.28125 351.5] CT
0 0.447 0.741 RC
N
f-862814258
f
GR
GS
[0.75 0 0 0.75 1179.98438 351.5] CT
0 0.447 0.741 RC
N
f-862814258
f
GR
GS
[0.75 0 0 0.75 1183.6875 351.5] CT
0 0.447 0.741 RC
N
f-862814258
f
GR
GS
[0.75 0 0 0.75 1187.39063 351.5] CT
0 0.447 0.741 RC
N
f-862814258
f
GR
GS
[0.75 0 0 0.75 1191.09375 351.5] CT
0 0.447 0.741 RC
N
f-862814258
f
GR
GS
[0.75 0 0 0.75 1194.79688 351.5] CT
0 0.447 0.741 RC
N
f-862814258
f
GR
GS
[0.75 0 0 0.75 1198.5 351.5] CT
0 0.447 0.741 RC
N
f-862814258
f
GR
GS
[0.75 0 0 0.75 1202.20313 351.5] CT
0 0.447 0.741 RC
N
f-862814258
f
GR
GS
[0.75 0 0 0.75 1205.90625 351.5] CT
0 0.447 0.741 RC
N
f-862814258
f
GR
GS
[0.75 0 0 0.75 1209.60938 351.5] CT
0 0.447 0.741 RC
N
f-862814258
f
GR
GS
[0.75 0 0 0.75 1213.3125 351.5] CT
0 0.447 0.741 RC
N
f-862814258
f
GR
GS
[0.75 0 0 0.75 1217.01563 351.5] CT
0 0.447 0.741 RC
N
f-862814258
f
GR
GS
[0.75 0 0 0.75 1220.71875 351.5] CT
0 0.447 0.741 RC
N
f-862814258
f
GR
GS
[0.75 0 0 0.75 1224.42188 351.5] CT
0 0.447 0.741 RC
N
f-862814258
f
GR
GS
[0.75 0 0 0.75 1228.125 351.5] CT
0 0.447 0.741 RC
N
f-862814258
f
GR
GS
[0.75 0 0 0.75 1231.82813 351.5] CT
0 0.447 0.741 RC
N
f-862814258
f
GR
GS
[0.75 0 0 0.75 1235.53125 351.5] CT
0 0.447 0.741 RC
N
f-862814258
f
GR
GS
[0.75 0 0 0.75 1239.23438 351.5] CT
0 0.447 0.741 RC
N
f-862814258
f
GR
GS
[0.75 0 0 0.75 1242.9375 351.5] CT
0 0.447 0.741 RC
N
f-862814258
f
GR
GS
[0.75 0 0 0.75 1246.64063 351.5] CT
0 0.447 0.741 RC
N
f-862814258
f
GR
GS
[0.75 0 0 0.75 1250.34375 351.5] CT
0 0.447 0.741 RC
N
f-862814258
f
GR
GS
[0.75 0 0 0.75 1254.04688 351.5] CT
0 0.447 0.741 RC
N
f-862814258
f
GR
GS
[0.75 0 0 0.75 1257.75 351.5] CT
0 0.447 0.741 RC
N
f-862814258
f
GR
GS
[0.75 0 0 0.75 0 0.5] CT
0.851 0.325 0.098 RC
1 LJ
0.667 LW
N
1286.938 468 M
1291.875 468 L
1296.813 468 L
1301.75 468 L
1306.688 468 L
1311.625 468 L
1316.563 468 L
1321.5 468 L
1326.438 468 L
1331.375 468 L
1336.313 468 L
1341.25 468 L
1346.188 468 L
1351.125 468 L
1356.063 468 L
1361 468 L
1365.938 468 L
1370.875 468 L
1375.813 468 L
1380.75 468 L
1385.688 468 L
1390.625 468 L
1395.563 468 L
1400.5 468 L
1405.438 468 L
1410.375 468 L
1415.313 468 L
1420.25 468 L
1425.188 468 L
1430.125 468 L
1435.063 468 L
1440 468 L
1444.938 468 L
1449.875 468 L
1454.813 468 L
1459.75 468 L
1464.688 468 L
1469.625 468 L
1474.563 468 L
1479.5 468 L
1484.438 468 L
1489.375 468 L
1494.313 468 L
1499.25 468 L
1504.188 468 L
1509.125 468 L
1514.063 468 L
1519 468 L
1523.938 468 L
1528.875 468 L
1533.813 468 L
1538.75 468 L
1543.688 468 L
1548.625 468 L
1553.563 468 L
1558.5 468 L
1563.438 468 L
1568.375 468 L
1573.313 468 L
1578.25 468 L
1583.188 468 L
1588.125 468 L
1593.063 468 L
1598 468 L
1602.938 468 L
1607.875 468 L
1612.813 468 L
1617.75 468 L
1622.688 468 L
1627.625 468 L
1632.563 468 L
1637.5 468 L
1642.438 468 L
1647.375 468 L
1652.313 468 L
1657.25 468 L
1662.188 468 L
1667.125 468 L
1672.063 468 L
1677 468 L
S
GR
GS
[0.75 0 0 0.75 965.20313 351.5] CT
0.851 0.325 0.098 RC
N
f-862814258
f
GR
GS
[0.75 0 0 0.75 968.90625 351.5] CT
0.851 0.325 0.098 RC
N
f-862814258
f
GR
GS
[0.75 0 0 0.75 972.60938 351.5] CT
0.851 0.325 0.098 RC
N
f-862814258
f
GR
GS
[0.75 0 0 0.75 976.3125 351.5] CT
0.851 0.325 0.098 RC
N
f-862814258
f
GR
GS
[0.75 0 0 0.75 980.01563 351.5] CT
0.851 0.325 0.098 RC
N
f-862814258
f
GR
GS
[0.75 0 0 0.75 983.71875 351.5] CT
0.851 0.325 0.098 RC
N
f-862814258
f
GR
GS
[0.75 0 0 0.75 987.42188 351.5] CT
0.851 0.325 0.098 RC
N
f-862814258
f
GR
GS
[0.75 0 0 0.75 991.125 351.5] CT
0.851 0.325 0.098 RC
N
f-862814258
f
GR
GS
[0.75 0 0 0.75 994.82813 351.5] CT
0.851 0.325 0.098 RC
N
f-862814258
f
GR
GS
[0.75 0 0 0.75 998.53125 351.5] CT
0.851 0.325 0.098 RC
N
f-862814258
f
GR
GS
[0.75 0 0 0.75 1002.23438 351.5] CT
0.851 0.325 0.098 RC
N
f-862814258
f
GR
GS
[0.75 0 0 0.75 1005.9375 351.5] CT
0.851 0.325 0.098 RC
N
f-862814258
f
GR
GS
[0.75 0 0 0.75 1009.64063 351.5] CT
0.851 0.325 0.098 RC
N
f-862814258
f
GR
GS
[0.75 0 0 0.75 1013.34375 351.5] CT
0.851 0.325 0.098 RC
N
f-862814258
f
GR
GS
[0.75 0 0 0.75 1017.04688 351.5] CT
0.851 0.325 0.098 RC
N
f-862814258
f
GR
GS
[0.75 0 0 0.75 1020.75 351.5] CT
0.851 0.325 0.098 RC
N
f-862814258
f
GR
GS
[0.75 0 0 0.75 1024.45313 351.5] CT
0.851 0.325 0.098 RC
N
f-862814258
f
GR
GS
[0.75 0 0 0.75 1028.15625 351.5] CT
0.851 0.325 0.098 RC
N
f-862814258
f
GR
GS
[0.75 0 0 0.75 1031.85938 351.5] CT
0.851 0.325 0.098 RC
N
f-862814258
f
GR
GS
[0.75 0 0 0.75 1035.5625 351.5] CT
0.851 0.325 0.098 RC
N
f-862814258
f
GR
GS
[0.75 0 0 0.75 1039.26563 351.5] CT
0.851 0.325 0.098 RC
N
f-862814258
f
GR
GS
[0.75 0 0 0.75 1042.96875 351.5] CT
0.851 0.325 0.098 RC
N
f-862814258
f
GR
GS
[0.75 0 0 0.75 1046.67188 351.5] CT
0.851 0.325 0.098 RC
N
f-862814258
f
GR
GS
[0.75 0 0 0.75 1050.375 351.5] CT
0.851 0.325 0.098 RC
N
f-862814258
f
GR
GS
[0.75 0 0 0.75 1054.07813 351.5] CT
0.851 0.325 0.098 RC
N
f-862814258
f
GR
GS
[0.75 0 0 0.75 1057.78125 351.5] CT
0.851 0.325 0.098 RC
N
f-862814258
f
GR
GS
[0.75 0 0 0.75 1061.48438 351.5] CT
0.851 0.325 0.098 RC
N
f-862814258
f
GR
GS
[0.75 0 0 0.75 1065.1875 351.5] CT
0.851 0.325 0.098 RC
N
f-862814258
f
GR
GS
[0.75 0 0 0.75 1068.89063 351.5] CT
0.851 0.325 0.098 RC
N
f-862814258
f
GR
GS
[0.75 0 0 0.75 1072.59375 351.5] CT
0.851 0.325 0.098 RC
N
f-862814258
f
GR
GS
[0.75 0 0 0.75 1076.29688 351.5] CT
0.851 0.325 0.098 RC
N
f-862814258
f
GR
GS
[0.75 0 0 0.75 1080 351.5] CT
0.851 0.325 0.098 RC
N
f-862814258
f
GR
GS
[0.75 0 0 0.75 1083.70313 351.5] CT
0.851 0.325 0.098 RC
N
f-862814258
f
GR
GS
[0.75 0 0 0.75 1087.40625 351.5] CT
0.851 0.325 0.098 RC
N
f-862814258
f
GR
GS
[0.75 0 0 0.75 1091.10938 351.5] CT
0.851 0.325 0.098 RC
N
f-862814258
f
GR
GS
[0.75 0 0 0.75 1094.8125 351.5] CT
0.851 0.325 0.098 RC
N
f-862814258
f
GR
GS
[0.75 0 0 0.75 1098.51563 351.5] CT
0.851 0.325 0.098 RC
N
f-862814258
f
GR
GS
[0.75 0 0 0.75 1102.21875 351.5] CT
0.851 0.325 0.098 RC
N
f-862814258
f
GR
GS
[0.75 0 0 0.75 1105.92188 351.5] CT
0.851 0.325 0.098 RC
N
f-862814258
f
GR
GS
[0.75 0 0 0.75 1109.625 351.5] CT
0.851 0.325 0.098 RC
N
f-862814258
f
GR
GS
[0.75 0 0 0.75 1113.32813 351.5] CT
0.851 0.325 0.098 RC
N
f-862814258
f
GR
GS
[0.75 0 0 0.75 1117.03125 351.5] CT
0.851 0.325 0.098 RC
N
f-862814258
f
GR
GS
[0.75 0 0 0.75 1120.73438 351.5] CT
0.851 0.325 0.098 RC
N
f-862814258
f
GR
GS
[0.75 0 0 0.75 1124.4375 351.5] CT
0.851 0.325 0.098 RC
N
f-862814258
f
GR
GS
[0.75 0 0 0.75 1128.14063 351.5] CT
0.851 0.325 0.098 RC
N
f-862814258
f
GR
GS
[0.75 0 0 0.75 1131.84375 351.5] CT
0.851 0.325 0.098 RC
N
f-862814258
f
GR
GS
[0.75 0 0 0.75 1135.54688 351.5] CT
0.851 0.325 0.098 RC
N
f-862814258
f
GR
GS
[0.75 0 0 0.75 1139.25 351.5] CT
0.851 0.325 0.098 RC
N
f-862814258
f
GR
GS
[0.75 0 0 0.75 1142.95313 351.5] CT
0.851 0.325 0.098 RC
N
f-862814258
f
GR
GS
[0.75 0 0 0.75 1146.65625 351.5] CT
0.851 0.325 0.098 RC
N
f-862814258
f
GR
GS
[0.75 0 0 0.75 1150.35938 351.5] CT
0.851 0.325 0.098 RC
N
f-862814258
f
GR
GS
[0.75 0 0 0.75 1154.0625 351.5] CT
0.851 0.325 0.098 RC
N
f-862814258
f
GR
GS
[0.75 0 0 0.75 1157.76563 351.5] CT
0.851 0.325 0.098 RC
N
f-862814258
f
GR
GS
[0.75 0 0 0.75 1161.46875 351.5] CT
0.851 0.325 0.098 RC
N
f-862814258
f
GR
GS
[0.75 0 0 0.75 1165.17188 351.5] CT
0.851 0.325 0.098 RC
N
f-862814258
f
GR
GS
[0.75 0 0 0.75 1168.875 351.5] CT
0.851 0.325 0.098 RC
N
f-862814258
f
GR
GS
[0.75 0 0 0.75 1172.57813 351.5] CT
0.851 0.325 0.098 RC
N
f-862814258
f
GR
GS
[0.75 0 0 0.75 1176.28125 351.5] CT
0.851 0.325 0.098 RC
N
f-862814258
f
GR
GS
[0.75 0 0 0.75 1179.98438 351.5] CT
0.851 0.325 0.098 RC
N
f-862814258
f
GR
GS
[0.75 0 0 0.75 1183.6875 351.5] CT
0.851 0.325 0.098 RC
N
f-862814258
f
GR
GS
[0.75 0 0 0.75 1187.39063 351.5] CT
0.851 0.325 0.098 RC
N
f-862814258
f
GR
GS
[0.75 0 0 0.75 1191.09375 351.5] CT
0.851 0.325 0.098 RC
N
f-862814258
f
GR
GS
[0.75 0 0 0.75 1194.79688 351.5] CT
0.851 0.325 0.098 RC
N
f-862814258
f
GR
GS
[0.75 0 0 0.75 1198.5 351.5] CT
0.851 0.325 0.098 RC
N
f-862814258
f
GR
GS
[0.75 0 0 0.75 1202.20313 351.5] CT
0.851 0.325 0.098 RC
N
f-862814258
f
GR
GS
[0.75 0 0 0.75 1205.90625 351.5] CT
0.851 0.325 0.098 RC
N
f-862814258
f
GR
GS
[0.75 0 0 0.75 1209.60938 351.5] CT
0.851 0.325 0.098 RC
N
f-862814258
f
GR
GS
[0.75 0 0 0.75 1213.3125 351.5] CT
0.851 0.325 0.098 RC
N
f-862814258
f
GR
GS
[0.75 0 0 0.75 1217.01563 351.5] CT
0.851 0.325 0.098 RC
N
f-862814258
f
GR
GS
[0.75 0 0 0.75 1220.71875 351.5] CT
0.851 0.325 0.098 RC
N
f-862814258
f
GR
GS
[0.75 0 0 0.75 1224.42188 351.5] CT
0.851 0.325 0.098 RC
N
f-862814258
f
GR
GS
[0.75 0 0 0.75 1228.125 351.5] CT
0.851 0.325 0.098 RC
N
f-862814258
f
GR
GS
[0.75 0 0 0.75 1231.82813 351.5] CT
0.851 0.325 0.098 RC
N
f-862814258
f
GR
GS
[0.75 0 0 0.75 1235.53125 351.5] CT
0.851 0.325 0.098 RC
N
f-862814258
f
GR
GS
[0.75 0 0 0.75 1239.23438 351.5] CT
0.851 0.325 0.098 RC
N
f-862814258
f
GR
GS
[0.75 0 0 0.75 1242.9375 351.5] CT
0.851 0.325 0.098 RC
N
f-862814258
f
GR
GS
[0.75 0 0 0.75 1246.64063 351.5] CT
0.851 0.325 0.098 RC
N
f-862814258
f
GR
GS
[0.75 0 0 0.75 1250.34375 351.5] CT
0.851 0.325 0.098 RC
N
f-862814258
f
GR
GS
[0.75 0 0 0.75 1254.04688 351.5] CT
0.851 0.325 0.098 RC
N
f-862814258
f
GR
GS
[0.75 0 0 0.75 1257.75 351.5] CT
0.851 0.325 0.098 RC
N
f-862814258
f
GR
GS
[0.75 0 0 0.75 0 0.5] CT
1 GC
N
1666 118 M
1666 84 L
1587 84 L
1587 118 L
cp
f
GR
GS
[0.75 0 0 0.75 1225.5 70.52174] CT
/Helvetica 12 F
GS
[1 0 0 1 0 0] CT
0 4.5 moveto 
1 -1 scale
(train) t 
GR
GR
GS
[0.75 0 0 0.75 0 0.5] CT
0 0.447 0.741 RC
1 LJ
0.667 LW
N
1591 93.362 M
1631 93.362 L
S
GR
GS
[0.75 0 0 0.75 1208.25 70.52174] CT
0 0.447 0.741 RC
N
f-862814258
f
GR
GS
[0.75 0 0 0.75 1225.5 81.97826] CT
/Helvetica 12 F
GS
[1 0 0 1 0 0] CT
0 4.5 moveto 
1 -1 scale
(val) t 
GR
GR
GS
[0.75 0 0 0.75 0 0.5] CT
0.851 0.325 0.098 RC
1 LJ
0.667 LW
N
1591 108.638 M
1631 108.638 L
S
GR
GS
[0.75 0 0 0.75 1208.25 81.97826] CT
0.851 0.325 0.098 RC
N
f-862814258
f
GR
GS
[0.75 0 0 0.75 0 0.5] CT
0.149 GC
10.0 ML
0.667 LW
N
1587 118 M
1587 84 L
1666 84 L
1666 118 L
cp
S
GR
%%Trailer
%%Pages: 1
%%EOF
